# device: Atmel-maXTouch-Touchpad
# bit: 0B 00 00 00 00 00 00 00
# key: 00 00 00 00 00 00 00 00 00 00 00 00 00 00 00 00 00 00 00 00 00 00 00 00 00 00 00 00 00 00 00 00 00 00 01 00 00 00 00 00 20 E5 00 00 00 00 00 00 00 00 00 00 00 00 00 00 00 00 00 00 00 00 00 00 00 00 00 00 00 00 00 00 00 00 00 00 00 00 00 00 00 00 00 00 00 00 00 00 00 00 00 00 00 00 00 00
# rel: 00 00 00 00 00 00 00 00
# abs: 03 00 00 01 00 80 61 06
# led: 00 00 00 00 00 00 00 00
# prp: 05 00 00 00 00 00 00 00
# absinfo: 0 0 2039 0 0 20
# absinfo: 1 0 1359 0 0 20
# absinfo: 24 0 255 0 0 0
# absinfo: 47 0 9 0 0 0
# absinfo: 48 0 1878 0 0 0
# absinfo: 53 0 2039 0 0 20
# absinfo: 54 0 1359 0 0 20
# absinfo: 57 0 65535 0 0 0
# absinfo: 58 0 255 0 0 0
E: 3771.351859 0003 002f 0
E: 3771.351859 0003 0030 254
E: 3771.351859 0003 0031 0
E: 3771.351859 0003 0032 0
E: 3771.351859 0003 0033 0
E: 3771.351859 0003 0034 0
E: 3771.351859 0003 0035 799
E: 3771.351859 0003 0036 912
E: 3771.351859 0003 0037 0
E: 3771.351859 0003 0038 0
E: 3771.351859 0003 0039 204
E: 3771.351859 0003 003a 46
E: 3771.351859 0003 003b 0
E: 3771.351859 0003 002f 1
E: 3771.351859 0003 0039 -1
E: 3771.351859 0003 002f 2
E: 3771.351859 0003 0039 -1
E: 3771.351859 0003 002f 3
E: 3771.351859 0003 0039 -1
E: 3771.351859 0003 002f 4
E: 3771.351859 0003 0039 -1
E: 3771.351859 0003 002f 5
E: 3771.351859 0003 0039 -1
E: 3771.351859 0003 002f 6
E: 3771.351859 0003 0039 -1
E: 3771.351859 0003 002f 7
E: 3771.351859 0003 0039 -1
E: 3771.351859 0003 002f 8
E: 3771.351859 0003 0039 -1
E: 3771.351859 0003 002f 9
E: 3771.351859 0003 0039 -1
E: 3771.351859 0003 002f 0
E: 3771.351859 0001 0145 1
E: 3771.351859 0001 014a 1
E: 3771.351859 0000 0000 0
E: 3771.362809 0003 003a 49
E: 3771.362814 0003 0018 49
E: 3771.362815 0000 0000 0
E: 3771.373686 0003 003a 54
E: 3771.373702 0003 0018 54
E: 3771.373703 0000 0000 0
E: 3771.378984 0003 003a 57
E: 3771.379000 0003 0018 57
E: 3771.379006 0000 0000 0
E: 3771.384614 0003 003a 53
E: 3771.384629 0003 0018 53
E: 3771.384630 0000 0000 0
E: 3771.390053 0003 0035 800
E: 3771.390055 0003 003a 56
E: 3771.390058 0003 0000 800
E: 3771.390059 0003 0018 56
E: 3771.390060 0000 0000 0
E: 3771.395486 0003 0036 913
E: 3771.395499 0003 003a 59
E: 3771.395502 0003 0001 913
E: 3771.395503 0003 0018 59
E: 3771.395503 0000 0000 0
E: 3771.400815 0003 0035 802
E: 3771.400817 0003 003a 57
E: 3771.400833 0003 0000 802
E: 3771.400834 0003 0018 57
E: 3771.400835 0000 0000 0
E: 3771.406388 0003 0035 803
E: 3771.406403 0003 003a 58
E: 3771.406404 0003 0030 220
E: 3771.406406 0003 0000 803
E: 3771.406407 0003 0018 58
E: 3771.406408 0000 0000 0
E: 3771.411828 0003 0035 805
E: 3771.411831 0003 0036 914
E: 3771.411842 0003 0030 286
E: 3771.411845 0003 0000 805
E: 3771.411845 0003 0001 914
E: 3771.411846 0000 0000 0
E: 3771.417123 0003 0035 809
E: 3771.417126 0003 0030 254
E: 3771.417141 0003 0000 809
E: 3771.417143 0000 0000 0
E: 3771.422735 0003 0035 815
E: 3771.422748 0003 0036 916
E: 3771.422749 0003 003a 57
E: 3771.422752 0003 0000 815
E: 3771.422752 0003 0001 916
E: 3771.422753 0003 0018 57
E: 3771.422754 0000 0000 0
E: 3771.428032 0003 0035 824
E: 3771.428034 0003 0036 919
E: 3771.428035 0003 003a 59
E: 3771.428049 0003 0000 824
E: 3771.428050 0003 0001 919
E: 3771.428050 0003 0018 59
E: 3771.428051 0000 0000 0
E: 3771.433488 0003 0035 835
E: 3771.433491 0003 0036 922
E: 3771.433503 0003 003a 57
E: 3771.433506 0003 0000 835
E: 3771.433506 0003 0001 922
E: 3771.433507 0003 0018 57
E: 3771.433508 0000 0000 0
E: 3771.439118 0003 0035 845
E: 3771.439120 0003 0036 926
E: 3771.439121 0003 003a 58
E: 3771.439123 0003 0000 845
E: 3771.439124 0003 0001 926
E: 3771.439124 0003 0018 58
E: 3771.439125 0000 0000 0
E: 3771.444583 0003 0035 856
E: 3771.444595 0003 0036 930
E: 3771.444596 0003 003a 57
E: 3771.444599 0003 0000 856
E: 3771.444599 0003 0001 930
E: 3771.444600 0003 0018 57
E: 3771.444600 0000 0000 0
E: 3771.449975 0003 0035 868
E: 3771.449978 0003 0036 936
E: 3771.449980 0003 003a 59
E: 3771.449986 0003 0000 868
E: 3771.449987 0003 0001 936
E: 3771.449988 0003 0018 59
E: 3771.449989 0000 0000 0
E: 3771.455417 0003 0035 878
E: 3771.455420 0003 0036 942
E: 3771.455434 0003 0000 878
E: 3771.455434 0003 0001 942
E: 3771.455435 0000 0000 0
E: 3771.460743 0003 0035 887
E: 3771.460745 0003 0036 949
E: 3771.460760 0003 0000 887
E: 3771.460760 0003 0001 949
E: 3771.460761 0000 0000 0
E: 3771.466322 0003 0035 894
E: 3771.466326 0003 0036 955
E: 3771.466337 0003 003a 56
E: 3771.466338 0003 0030 220
E: 3771.466340 0003 0000 894
E: 3771.466340 0003 0001 955
E: 3771.466341 0003 0018 56
E: 3771.466342 0000 0000 0
E: 3771.471702 0003 0035 903
E: 3771.471705 0003 0036 964
E: 3771.471716 0003 003a 57
E: 3771.471718 0003 0000 903
E: 3771.471719 0003 0001 964
E: 3771.471719 0003 0018 57
E: 3771.471720 0000 0000 0
E: 3771.477128 0003 0035 909
E: 3771.477130 0003 0036 970
E: 3771.477130 0003 003a 56
E: 3771.477131 0003 0030 254
E: 3771.477133 0003 0000 909
E: 3771.477134 0003 0001 970
E: 3771.477134 0003 0018 56
E: 3771.477135 0000 0000 0
E: 3771.482548 0003 0035 915
E: 3771.482561 0003 0036 977
E: 3771.482562 0003 0030 220
E: 3771.482564 0003 0000 915
E: 3771.482565 0003 0001 977
E: 3771.482566 0000 0000 0
E: 3771.487899 0003 0035 923
E: 3771.487911 0003 0036 983
E: 3771.487912 0003 003a 55
E: 3771.487912 0003 0030 254
E: 3771.487915 0003 0000 923
E: 3771.487915 0003 0001 983
E: 3771.487916 0003 0018 55
E: 3771.487917 0000 0000 0
E: 3771.493365 0003 0035 929
E: 3771.493379 0003 0036 989
E: 3771.493383 0003 0000 929
E: 3771.493383 0003 0001 989
E: 3771.493384 0000 0000 0
E: 3771.498801 0003 0035 935
E: 3771.498813 0003 0036 995
E: 3771.498814 0003 003a 56
E: 3771.498817 0003 0000 935
E: 3771.498817 0003 0001 995
E: 3771.498818 0003 0018 56
E: 3771.498818 0000 0000 0
E: 3771.504176 0003 0035 939
E: 3771.504189 0003 0036 1001
E: 3771.504189 0003 003a 55
E: 3771.504192 0003 0000 939
E: 3771.504192 0003 0001 1001
E: 3771.504193 0003 0018 55
E: 3771.504194 0000 0000 0
E: 3771.509574 0003 0035 944
E: 3771.509587 0003 0036 1006
E: 3771.509590 0003 0000 944
E: 3771.509591 0003 0001 1006
E: 3771.509592 0000 0000 0
E: 3771.514980 0003 0035 947
E: 3771.514983 0003 0036 1010
E: 3771.514995 0003 003a 56
E: 3771.514998 0003 0000 947
E: 3771.514998 0003 0001 1010
E: 3771.514999 0003 0018 56
E: 3771.514999 0000 0000 0
E: 3771.520309 0003 0035 950
E: 3771.520311 0003 0036 1013
E: 3771.520322 0003 003a 52
E: 3771.520322 0003 0030 180
E: 3771.520325 0003 0000 950
E: 3771.520325 0003 0001 1013
E: 3771.520326 0003 0018 52
E: 3771.520326 0000 0000 0
E: 3771.525685 0003 0035 953
E: 3771.525688 0003 0036 1016
E: 3771.525689 0003 003a 53
E: 3771.525701 0003 0030 220
E: 3771.525703 0003 0000 953
E: 3771.525704 0003 0001 1016
E: 3771.525704 0003 0018 53
E: 3771.525705 0000 0000 0
E: 3771.531130 0003 0035 955
E: 3771.531132 0003 0036 1018
E: 3771.531133 0003 003a 52
E: 3771.531147 0003 0000 955
E: 3771.531148 0003 0001 1018
E: 3771.531148 0003 0018 52
E: 3771.531149 0000 0000 0
E: 3771.536631 0003 0035 958
E: 3771.536644 0003 0036 1022
E: 3771.536645 0003 0030 254
E: 3771.536647 0003 0000 958
E: 3771.536648 0003 0001 1022
E: 3771.536649 0000 0000 0
E: 3771.542055 0003 0035 960
E: 3771.542068 0003 0036 1025
E: 3771.542068 0003 003a 53
E: 3771.542071 0003 0000 960
E: 3771.542072 0003 0001 1025
E: 3771.542072 0003 0018 53
E: 3771.542073 0000 0000 0
E: 3771.548146 0003 0035 962
E: 3771.548159 0003 0036 1028
E: 3771.548160 0003 003a 54
E: 3771.548162 0003 0000 962
E: 3771.548163 0003 0001 1028
E: 3771.548163 0003 0018 54
E: 3771.548164 0000 0000 0
E: 3771.553607 0003 0035 963
E: 3771.553621 0003 0036 1030
E: 3771.553621 0003 003a 52
E: 3771.553624 0003 0000 963
E: 3771.553625 0003 0001 1030
E: 3771.553625 0003 0018 52
E: 3771.553626 0000 0000 0
E: 3771.559026 0003 0035 964
E: 3771.559040 0003 0036 1032
E: 3771.559043 0003 0000 964
E: 3771.559043 0003 0001 1032
E: 3771.559044 0000 0000 0
E: 3771.564456 0003 0035 965
E: 3771.564469 0003 0036 1034
E: 3771.564469 0003 003a 53
E: 3771.564470 0003 0030 220
E: 3771.564472 0003 0000 965
E: 3771.564473 0003 0001 1034
E: 3771.564473 0003 0018 53
E: 3771.564474 0000 0000 0
E: 3771.569758 0003 0035 967
E: 3771.569760 0003 0036 1036
E: 3771.569761 0003 003a 51
E: 3771.569775 0003 0000 967
E: 3771.569776 0003 0001 1036
E: 3771.569776 0003 0018 51
E: 3771.569777 0000 0000 0
E: 3771.575373 0003 0035 968
E: 3771.575387 0003 0036 1038
E: 3771.575387 0003 003a 49
E: 3771.575390 0003 0000 968
E: 3771.575391 0003 0001 1038
E: 3771.575391 0003 0018 49
E: 3771.575392 0000 0000 0
E: 3771.580761 0003 0036 1040
E: 3771.580764 0003 003a 50
E: 3771.580777 0003 0001 1040
E: 3771.580778 0003 0018 50
E: 3771.580779 0000 0000 0
E: 3771.586169 0003 0035 969
E: 3771.586171 0003 0036 1042
E: 3771.586172 0003 003a 46
E: 3771.586188 0003 0000 969
E: 3771.586188 0003 0001 1042
E: 3771.586189 0003 0018 46
E: 3771.586190 0000 0000 0
E: 3771.591661 0003 0035 970
E: 3771.591664 0003 0036 1044
E: 3771.591665 0003 003a 43
E: 3771.591678 0003 0000 970
E: 3771.591679 0003 0001 1044
E: 3771.591680 0003 0018 43
E: 3771.591680 0000 0000 0
E: 3771.597157 0003 0035 971
E: 3771.597170 0003 0036 1046
E: 3771.597170 0003 003a 33
E: 3771.597171 0003 0030 180
E: 3771.597173 0003 0000 971
E: 3771.597173 0003 0001 1046
E: 3771.597174 0003 0018 33
E: 3771.597175 0000 0000 0
E: 3771.617463 0003 0039 -1
E: 3771.617478 0001 014a 0
E: 3771.617478 0001 0145 0
E: 3771.617479 0003 0018 0
E: 3771.617479 0000 0000 0
E: 3772.404260 0003 0039 205
E: 3772.404263 0003 0035 842
E: 3772.404265 0003 0036 1024
E: 3772.404266 0003 003a 45
E: 3772.404269 0001 014a 1
E: 3772.404270 0001 0145 1
E: 3772.404273 0003 0000 842
E: 3772.404274 0003 0001 1024
E: 3772.404275 0003 0018 45
E: 3772.404276 0000 0000 0
E: 3772.409682 0003 003a 42
E: 3772.409687 0003 0018 42
E: 3772.409687 0000 0000 0
E: 3772.414911 0003 003a 43
E: 3772.414928 0003 0018 43
E: 3772.414929 0000 0000 0
E: 3772.420381 0003 003a 34
E: 3772.420399 0003 0018 34
E: 3772.420399 0000 0000 0
E: 3772.440863 0003 0039 -1
E: 3772.440866 0001 014a 0
E: 3772.440867 0001 0145 0
E: 3772.440868 0003 0018 0
E: 3772.440869 0000 0000 0
E: 3776.844237 0003 0039 206
E: 3776.844240 0003 0035 956
E: 3776.844241 0003 0036 1128
E: 3776.844241 0003 003a 32
E: 3776.844242 0003 0030 126
E: 3776.844244 0001 014a 1
E: 3776.844244 0001 0145 1
E: 3776.844256 0003 0000 956
E: 3776.844257 0003 0001 1128
E: 3776.844258 0003 0018 32
E: 3776.844259 0000 0000 0
E: 3776.849653 0003 0036 1127
E: 3776.849655 0003 003a 34
E: 3776.849658 0003 0001 1127
E: 3776.849658 0003 0018 34
E: 3776.849659 0000 0000 0
E: 3776.855188 0003 0035 955
E: 3776.855189 0003 003a 38
E: 3776.855190 0003 0030 180
E: 3776.855192 0003 0000 955
E: 3776.855193 0003 0018 38
E: 3776.855193 0000 0000 0
E: 3776.860647 0003 0035 954
E: 3776.860648 0003 0036 1126
E: 3776.860649 0003 003a 41
E: 3776.860651 0003 0000 954
E: 3776.860652 0003 0001 1126
E: 3776.860652 0003 0018 41
E: 3776.860653 0000 0000 0
E: 3776.866245 0003 0035 952
E: 3776.866246 0003 0036 1125
E: 3776.866247 0003 003a 38
E: 3776.866250 0003 0000 952
E: 3776.866250 0003 0001 1125
E: 3776.866251 0003 0018 38
E: 3776.866251 0000 0000 0
E: 3776.871660 0003 0035 950
E: 3776.871661 0003 0036 1122
E: 3776.871661 0003 003a 40
E: 3776.871664 0003 0000 950
E: 3776.871665 0003 0001 1122
E: 3776.871665 0003 0018 40
E: 3776.871666 0000 0000 0
E: 3776.877213 0003 0035 946
E: 3776.877214 0003 0036 1119
E: 3776.877215 0003 003a 39
E: 3776.877216 0003 0030 220
E: 3776.877219 0003 0000 946
E: 3776.877219 0003 0001 1119
E: 3776.877220 0003 0018 39
E: 3776.877221 0000 0000 0
E: 3776.882709 0003 0035 942
E: 3776.882710 0003 0036 1114
E: 3776.882711 0003 003a 41
E: 3776.882714 0003 0000 942
E: 3776.882715 0003 0001 1114
E: 3776.882715 0003 0018 41
E: 3776.882716 0000 0000 0
E: 3776.888221 0003 0035 936
E: 3776.888222 0003 0036 1107
E: 3776.888223 0003 003a 43
E: 3776.888224 0003 0030 254
E: 3776.888226 0003 0000 936
E: 3776.888227 0003 0001 1107
E: 3776.888228 0003 0018 43
E: 3776.888228 0000 0000 0
E: 3776.893747 0003 0035 929
E: 3776.893748 0003 0036 1097
E: 3776.893749 0003 003a 41
E: 3776.893752 0003 0000 929
E: 3776.893753 0003 0001 1097
E: 3776.893754 0003 0018 41
E: 3776.893754 0000 0000 0
E: 3776.899225 0003 0035 921
E: 3776.899226 0003 0036 1085
E: 3776.899230 0003 0000 921
E: 3776.899231 0003 0001 1085
E: 3776.899232 0000 0000 0
E: 3776.904840 0003 0035 913
E: 3776.904841 0003 0036 1075
E: 3776.904842 0003 0000 913
E: 3776.904843 0003 0001 1075
E: 3776.904843 0000 0000 0
E: 3776.910947 0003 0035 904
E: 3776.910948 0003 0036 1062
E: 3776.910948 0003 003a 40
E: 3776.910949 0003 0030 220
E: 3776.910950 0003 0000 904
E: 3776.910951 0003 0001 1062
E: 3776.910951 0003 0018 40
E: 3776.910951 0000 0000 0
E: 3776.911451 0003 002f 0
E: 3776.911451 0003 0039 -1
E: 3776.911451 0003 002f 1
E: 3776.911451 0003 0039 -1
E: 3776.911451 0003 002f 2
E: 3776.911451 0003 0039 -1
E: 3776.911451 0003 002f 3
E: 3776.911451 0003 0039 -1
E: 3776.911451 0003 002f 4
E: 3776.911451 0003 0039 -1
E: 3776.911451 0003 002f 5
E: 3776.911451 0003 0039 -1
E: 3776.911451 0003 002f 6
E: 3776.911451 0003 0039 -1
E: 3776.911451 0003 002f 7
E: 3776.911451 0003 0039 -1
E: 3776.911451 0003 002f 8
E: 3776.911451 0003 0039 -1
E: 3776.911451 0003 002f 9
E: 3776.911451 0003 0039 -1
