title,2402,2405,2412,2437,2440,2472,2480,5180,5260,5745,5825
wlan_2g_tx0,20.4,20.4,20.4,20.4,20.4,20.4,20.4,,,,
wlan_2g_rx0,20.4,20.4,20.4,20.4,20.4,20.4,20.4,,,,
wlan_5g_tx0,,,,,,,,20.7,20.8,20.9,21
wlan_5g_rx0,,,,,,,,20.7,20.8,20.9,21
