# device: Elan Touchpad
# bit: 0B 00 00 00 00 00 00 00
# key: 00 00 00 00 00 00 00 00 00 00 00 00 00 00 00 00 00 00 00 00 00 00 00 00 00 00 00 00 00 00 00 00 00 00 01 00 00 00 00 00 20 E5 00 00 00 00 00 00 00 00 00 00 00 00 00 00 00 00 00 00 00 00 00 00 00 00 00 00 00 00 00 00 00 00 00 00 00 00 00 00 00 00 00 00 00 00 00 00 00 00 00 00 00 00 00 00
# rel: 00 00 00 00 00 00 00 00
# abs: 03 00 00 13 00 80 63 06
# led: 00 00 00 00 00 00 00 00
# prp: 05 00 00 00 00 00 00 00
# absinfo: 0 0 3214 0 0 31
# absinfo: 1 0 1840 0 0 31
# absinfo: 24 0 255 0 0 0
# absinfo: 25 0 1 0 0 0
# absinfo: 28 0 15 0 0 0
# absinfo: 47 0 4 0 0 0
# absinfo: 48 0 2295 0 0 0
# absinfo: 49 0 2295 0 0 0
# absinfo: 53 0 3214 0 0 31
# absinfo: 54 0 1840 0 0 31
# absinfo: 57 0 65535 0 0 0
# absinfo: 58 0 255 0 0 0
E: 19128.979723 0003 002f 0
E: 19128.979723 0003 0030 189
E: 19128.979723 0003 0031 189
E: 19128.979723 0003 0032 0
E: 19128.979723 0003 0033 0
E: 19128.979723 0003 0034 0
E: 19128.979723 0003 0035 838
E: 19128.979723 0003 0036 897
E: 19128.979723 0003 0037 0
E: 19128.979723 0003 0038 0
E: 19128.979723 0003 0039 1417
E: 19128.979723 0003 003a 21
E: 19128.979723 0003 003b 0
E: 19128.979723 0003 002f 1
E: 19128.979723 0003 0030 189
E: 19128.979723 0003 0031 189
E: 19128.979723 0003 0032 0
E: 19128.979723 0003 0033 0
E: 19128.979723 0003 0034 0
E: 19128.979723 0003 0035 1480
E: 19128.979723 0003 0036 601
E: 19128.979723 0003 0037 0
E: 19128.979723 0003 0038 0
E: 19128.979723 0003 0039 1418
E: 19128.979723 0003 003a 19
E: 19128.979723 0003 003b 0
E: 19128.979723 0003 002f 2
E: 19128.979723 0003 0030 189
E: 19128.979723 0003 0031 126
E: 19128.979723 0003 0032 0
E: 19128.979723 0003 0033 0
E: 19128.979723 0003 0034 0
E: 19128.979723 0003 0035 2047
E: 19128.979723 0003 0036 546
E: 19128.979723 0003 0037 0
E: 19128.979723 0003 0038 0
E: 19128.979723 0003 0039 1419
E: 19128.979723 0003 003a 15
E: 19128.979723 0003 003b 0
E: 19128.979723 0003 002f 3
E: 19128.979723 0003 0039 -1
E: 19128.979723 0003 002f 4
E: 19128.979723 0003 0039 -1
E: 19128.979723 0003 002f 2
E: 19128.979723 0001 014a 1
E: 19128.979723 0001 014e 1
E: 19128.979723 0000 0000 0
E: 19128.986546 0003 002f 1
E: 19128.986546 0003 0035 1477
E: 19128.986546 0003 0036 627
E: 19128.986546 0003 002f 2
E: 19128.986546 0003 0035 2041
E: 19128.986546 0003 0036 575
E: 19128.986546 0000 0000 0
E: 19128.993226 0003 002f 0
E: 19128.993226 0003 0036 898
E: 19128.993226 0003 003a 20
E: 19128.993226 0003 002f 1
E: 19128.993226 0003 0035 1473
E: 19128.993226 0003 0036 657
E: 19128.993226 0003 003a 18
E: 19128.993226 0003 002f 2
E: 19128.993226 0003 0035 2035
E: 19128.993226 0003 0036 598
E: 19128.993226 0003 001c 2
E: 19128.993226 0003 0030 126
E: 19128.993226 0003 0001 898
E: 19128.993226 0003 0018 20
E: 19128.993226 0000 0000 0
E: 19129.005640 0003 001c 3
E: 19129.005640 0003 002f 1
E: 19129.005640 0003 0035 1463
E: 19129.005640 0003 0036 714
E: 19129.005640 0003 003a 19
E: 19129.005640 0003 0031 126
E: 19129.005640 0003 002f 2
E: 19129.005640 0003 0035 2023
E: 19129.005640 0003 0036 648
E: 19129.005640 0003 001c 2
E: 19129.005640 0003 0030 189
E: 19129.005640 0000 0000 0
E: 19129.012392 0003 002f 0
E: 19129.012392 0003 003a 19
E: 19129.012392 0003 001c 3
E: 19129.012392 0003 002f 1
E: 19129.012392 0003 0035 1456
E: 19129.012392 0003 0036 746
E: 19129.012392 0003 003a 18
E: 19129.012392 0003 0031 189
E: 19129.012392 0003 002f 2
E: 19129.012392 0003 0035 2016
E: 19129.012392 0003 0036 686
E: 19129.012392 0003 001c 2
E: 19129.012392 0003 0030 126
E: 19129.012392 0003 0018 19
E: 19129.012392 0000 0000 0
E: 19129.019137 0003 001c 3
E: 19129.019137 0003 002f 1
E: 19129.019137 0003 0035 1451
E: 19129.019137 0003 0036 775
E: 19129.019137 0003 002f 2
E: 19129.019137 0003 0035 2012
E: 19129.019137 0003 0036 716
E: 19129.019137 0003 001c 2
E: 19129.019137 0000 0000 0
E: 19129.025864 0003 001c 3
E: 19129.025864 0003 002f 1
E: 19129.025864 0003 0035 1445
E: 19129.025864 0003 0036 812
E: 19129.025864 0003 002f 2
E: 19129.025864 0003 0035 2010
E: 19129.025864 0003 0036 741
E: 19129.025864 0003 001c 2
E: 19129.025864 0000 0000 0
E: 19129.032608 0003 002f 0
E: 19129.032608 0003 0036 897
E: 19129.032608 0003 001c 3
E: 19129.032608 0003 002f 1
E: 19129.032608 0003 0035 1441
E: 19129.032608 0003 0036 853
E: 19129.032608 0003 002f 2
E: 19129.032608 0003 0035 2005
E: 19129.032608 0003 0036 769
E: 19129.032608 0003 003a 14
E: 19129.032608 0003 001c 2
E: 19129.032608 0003 0030 189
E: 19129.032608 0003 0001 897
E: 19129.032608 0000 0000 0
E: 19129.039670 0003 002f 0
E: 19129.039670 0003 0036 896
E: 19129.039670 0003 001c 3
E: 19129.039670 0003 002f 1
E: 19129.039670 0003 0035 1438
E: 19129.039670 0003 0036 894
E: 19129.039670 0003 001c 4
E: 19129.039670 0003 0030 252
E: 19129.039670 0003 002f 2
E: 19129.039670 0003 0035 1997
E: 19129.039670 0003 0036 803
E: 19129.039670 0003 003a 12
E: 19129.039670 0003 001c 3
E: 19129.039670 0003 0031 189
E: 19129.039670 0003 0001 896
E: 19129.039670 0000 0000 0
E: 19129.046632 0003 002f 0
E: 19129.046632 0003 0036 895
E: 19129.046632 0003 002f 1
E: 19129.046632 0003 0035 1435
E: 19129.046632 0003 0036 926
E: 19129.046632 0003 001c 4
E: 19129.046632 0003 002f 2
E: 19129.046632 0003 0035 1985
E: 19129.046632 0003 0036 846
E: 19129.046632 0003 003a 13
E: 19129.046632 0003 001c 3
E: 19129.046632 0003 0031 126
E: 19129.046632 0003 0001 895
E: 19129.046632 0000 0000 0
E: 19129.053738 0003 002f 0
E: 19129.053738 0003 0036 893
E: 19129.053738 0003 003a 20
E: 19129.053738 0003 002f 1
E: 19129.053738 0003 0035 1432
E: 19129.053738 0003 0036 957
E: 19129.053738 0003 003a 17
E: 19129.053738 0003 001c 4
E: 19129.053738 0003 002f 2
E: 19129.053738 0003 0035 1978
E: 19129.053738 0003 0036 886
E: 19129.053738 0003 001c 3
E: 19129.053738 0003 0001 893
E: 19129.053738 0003 0018 20
E: 19129.053738 0000 0000 0
E: 19129.061107 0003 002f 0
E: 19129.061107 0003 0036 891
E: 19129.061107 0003 003a 21
E: 19129.061107 0003 002f 1
E: 19129.061107 0003 0035 1428
E: 19129.061107 0003 0036 987
E: 19129.061107 0003 001c 4
E: 19129.061107 0003 002f 2
E: 19129.061107 0003 0035 1973
E: 19129.061107 0003 0036 920
E: 19129.061107 0003 003a 14
E: 19129.061107 0003 001c 3
E: 19129.061107 0003 0001 891
E: 19129.061107 0003 0018 21
E: 19129.061107 0000 0000 0
E: 19129.068150 0003 002f 0
E: 19129.068150 0003 0036 889
E: 19129.068150 0003 003a 20
E: 19129.068150 0003 002f 1
E: 19129.068150 0003 0035 1425
E: 19129.068150 0003 0036 1021
E: 19129.068150 0003 003a 18
E: 19129.068150 0003 001c 4
E: 19129.068150 0003 002f 2
E: 19129.068150 0003 0035 1967
E: 19129.068150 0003 0036 950
E: 19129.068150 0003 003a 12
E: 19129.068150 0003 001c 3
E: 19129.068150 0003 0031 189
E: 19129.068150 0003 0001 889
E: 19129.068150 0003 0018 20
E: 19129.068150 0000 0000 0
E: 19129.075074 0003 002f 0
E: 19129.075074 0003 0036 888
E: 19129.075074 0003 003a 21
E: 19129.075074 0003 002f 1
E: 19129.075074 0003 0035 1422
E: 19129.075074 0003 0036 1054
E: 19129.075074 0003 003a 19
E: 19129.075074 0003 001c 4
E: 19129.075074 0003 002f 2
E: 19129.075074 0003 0035 1957
E: 19129.075074 0003 0036 982
E: 19129.075074 0003 003a 13
E: 19129.075074 0003 001c 3
E: 19129.075074 0003 0001 888
E: 19129.075074 0003 0018 21
E: 19129.075074 0000 0000 0
E: 19129.081946 0003 002f 0
E: 19129.081946 0003 0036 887
E: 19129.081946 0003 003a 22
E: 19129.081946 0003 002f 1
E: 19129.081946 0003 0035 1419
E: 19129.081946 0003 0036 1077
E: 19129.081946 0003 001c 4
E: 19129.081946 0003 002f 2
E: 19129.081946 0003 0035 1949
E: 19129.081946 0003 0036 1010
E: 19129.081946 0003 001c 3
E: 19129.081946 0003 0031 126
E: 19129.081946 0003 0001 887
E: 19129.081946 0003 0018 22
E: 19129.081946 0000 0000 0
E: 19129.089036 0003 002f 0
E: 19129.089036 0003 0036 886
E: 19129.089036 0003 002f 1
E: 19129.089036 0003 0035 1416
E: 19129.089036 0003 0036 1103
E: 19129.089036 0003 001c 4
E: 19129.089036 0003 002f 2
E: 19129.089036 0003 0035 1942
E: 19129.089036 0003 0036 1043
E: 19129.089036 0003 003a 14
E: 19129.089036 0003 001c 3
E: 19129.089036 0003 0001 886
E: 19129.089036 0000 0000 0
E: 19129.096120 0003 002f 0
E: 19129.096120 0003 0036 885
E: 19129.096120 0003 002f 1
E: 19129.096120 0003 0035 1412
E: 19129.096120 0003 0036 1135
E: 19129.096120 0003 003a 20
E: 19129.096120 0003 0030 189
E: 19129.096120 0003 002f 2
E: 19129.096120 0003 0035 1935
E: 19129.096120 0003 0036 1075
E: 19129.096120 0003 001c 4
E: 19129.096120 0003 0030 252
E: 19129.096120 0003 0031 189
E: 19129.096120 0003 0001 885
E: 19129.096120 0000 0000 0
E: 19129.103193 0003 001c 3
E: 19129.103193 0003 002f 1
E: 19129.103193 0003 0035 1407
E: 19129.103193 0003 0036 1168
E: 19129.103193 0003 003a 19
E: 19129.103193 0003 002f 2
E: 19129.103193 0003 0035 1927
E: 19129.103193 0003 0036 1105
E: 19129.103193 0003 003a 13
E: 19129.103193 0003 001c 4
E: 19129.103193 0000 0000 0
E: 19129.110251 0003 002f 0
E: 19129.110251 0003 003a 23
E: 19129.110251 0003 001c 3
E: 19129.110251 0003 002f 1
E: 19129.110251 0003 0035 1402
E: 19129.110251 0003 0036 1199
E: 19129.110251 0003 002f 2
E: 19129.110251 0003 0035 1918
E: 19129.110251 0003 0036 1133
E: 19129.110251 0003 001c 4
E: 19129.110251 0003 0018 23
E: 19129.110251 0000 0000 0
E: 19129.116991 0003 001c 3
E: 19129.116991 0003 002f 1
E: 19129.116991 0003 0035 1395
E: 19129.116991 0003 0036 1237
E: 19129.116991 0003 002f 2
E: 19129.116991 0003 0035 1907
E: 19129.116991 0003 0036 1167
E: 19129.116991 0003 003a 14
E: 19129.116991 0003 001c 4
E: 19129.116991 0000 0000 0
E: 19129.124208 0003 001c 3
E: 19129.124208 0003 002f 1
E: 19129.124208 0003 0035 1387
E: 19129.124208 0003 0036 1274
E: 19129.124208 0003 003a 20
E: 19129.124208 0003 002f 2
E: 19129.124208 0003 0035 1896
E: 19129.124208 0003 0036 1201
E: 19129.124208 0003 001c 4
E: 19129.124208 0000 0000 0
E: 19129.130859 0003 001c 3
E: 19129.130859 0003 002f 1
E: 19129.130859 0003 0035 1380
E: 19129.130859 0003 0036 1302
E: 19129.130859 0003 002f 2
E: 19129.130859 0003 0035 1887
E: 19129.130859 0003 0036 1230
E: 19129.130859 0003 001c 4
E: 19129.130859 0003 0031 126
E: 19129.130859 0000 0000 0
E: 19129.137448 0003 001c 3
E: 19129.137448 0003 002f 1
E: 19129.137448 0003 0035 1372
E: 19129.137448 0003 0036 1330
E: 19129.137448 0003 003a 19
E: 19129.137448 0003 001c 4
E: 19129.137448 0003 0030 252
E: 19129.137448 0003 002f 2
E: 19129.137448 0003 0035 1877
E: 19129.137448 0003 0036 1255
E: 19129.137448 0000 0000 0
E: 19129.144480 0003 001c 3
E: 19129.144480 0003 002f 1
E: 19129.144480 0003 0035 1364
E: 19129.144480 0003 0036 1358
E: 19129.144480 0003 001c 4
E: 19129.144480 0003 002f 2
E: 19129.144480 0003 0035 1868
E: 19129.144480 0003 0036 1281
E: 19129.144480 0003 003a 15
E: 19129.144480 0003 0031 189
E: 19129.144480 0000 0000 0
E: 19129.151478 0003 002f 0
E: 19129.151478 0003 003a 24
E: 19129.151478 0003 001c 3
E: 19129.151478 0003 002f 1
E: 19129.151478 0003 0035 1359
E: 19129.151478 0003 0036 1381
E: 19129.151478 0003 001c 4
E: 19129.151478 0003 002f 2
E: 19129.151478 0003 0035 1861
E: 19129.151478 0003 0036 1300
E: 19129.151478 0003 0018 24
E: 19129.151478 0000 0000 0
E: 19129.158489 0003 001c 3
E: 19129.158489 0003 002f 1
E: 19129.158489 0003 0035 1354
E: 19129.158489 0003 0036 1406
E: 19129.158489 0003 001c 4
E: 19129.158489 0003 002f 2
E: 19129.158489 0003 0035 1855
E: 19129.158489 0003 0036 1321
E: 19129.158489 0000 0000 0
E: 19129.165557 0003 001c 3
E: 19129.165557 0003 002f 1
E: 19129.165557 0003 0035 1349
E: 19129.165557 0003 0036 1430
E: 19129.165557 0003 003a 18
E: 19129.165557 0003 001c 4
E: 19129.165557 0003 002f 2
E: 19129.165557 0003 0035 1847
E: 19129.165557 0003 0036 1340
E: 19129.165557 0000 0000 0
E: 19129.172664 0003 001c 3
E: 19129.172664 0003 002f 1
E: 19129.172664 0003 0035 1344
E: 19129.172664 0003 0036 1448
E: 19129.172664 0003 003a 21
E: 19129.172664 0003 001c 4
E: 19129.172664 0003 002f 2
E: 19129.172664 0003 0035 1842
E: 19129.172664 0003 0036 1355
E: 19129.172664 0003 003a 14
E: 19129.172664 0000 0000 0
E: 19129.179761 0003 001c 3
E: 19129.179761 0003 002f 1
E: 19129.179761 0003 0035 1341
E: 19129.179761 0003 0036 1462
E: 19129.179761 0003 003a 20
E: 19129.179761 0003 001c 4
E: 19129.179761 0003 002f 2
E: 19129.179761 0003 0035 1837
E: 19129.179761 0003 0036 1366
E: 19129.179761 0000 0000 0
E: 19129.186858 0003 001c 3
E: 19129.186858 0003 002f 1
E: 19129.186858 0003 0035 1337
E: 19129.186858 0003 0036 1478
E: 19129.186858 0003 001c 4
E: 19129.186858 0003 002f 2
E: 19129.186858 0003 0035 1831
E: 19129.186858 0003 0036 1380
E: 19129.186858 0003 0031 126
E: 19129.186858 0000 0000 0
E: 19129.193933 0003 002f 0
E: 19129.193933 0003 003a 23
E: 19129.193933 0003 001c 3
E: 19129.193933 0003 002f 1
E: 19129.193933 0003 0035 1333
E: 19129.193933 0003 0036 1490
E: 19129.193933 0003 001c 4
E: 19129.193933 0003 002f 2
E: 19129.193933 0003 0035 1827
E: 19129.193933 0003 0036 1390
E: 19129.193933 0003 0018 23
E: 19129.193933 0000 0000 0
E: 19129.200972 0003 001c 3
E: 19129.200972 0003 002f 1
E: 19129.200972 0003 0035 1329
E: 19129.200972 0003 0036 1503
E: 19129.200972 0003 001c 4
E: 19129.200972 0003 002f 2
E: 19129.200972 0003 0035 1824
E: 19129.200972 0003 0036 1399
E: 19129.200972 0000 0000 0
E: 19129.207996 0003 002f 0
E: 19129.207996 0003 003a 24
E: 19129.207996 0003 001c 3
E: 19129.207996 0003 002f 1
E: 19129.207996 0003 0035 1327
E: 19129.207996 0003 0036 1513
E: 19129.207996 0003 001c 4
E: 19129.207996 0003 002f 2
E: 19129.207996 0003 0035 1821
E: 19129.207996 0003 0036 1405
E: 19129.207996 0003 0018 24
E: 19129.207996 0000 0000 0
E: 19129.215016 0003 002f 0
E: 19129.215016 0003 003a 23
E: 19129.215016 0003 001c 3
E: 19129.215016 0003 002f 1
E: 19129.215016 0003 0035 1323
E: 19129.215016 0003 0036 1523
E: 19129.215016 0003 003a 21
E: 19129.215016 0003 001c 4
E: 19129.215016 0003 002f 2
E: 19129.215016 0003 0035 1818
E: 19129.215016 0003 0036 1412
E: 19129.215016 0003 0018 23
E: 19129.215016 0000 0000 0
E: 19129.221991 0003 002f 0
E: 19129.221991 0003 003a 24
E: 19129.221991 0003 001c 3
E: 19129.221991 0003 002f 1
E: 19129.221991 0003 0035 1321
E: 19129.221991 0003 0036 1530
E: 19129.221991 0003 001c 4
E: 19129.221991 0003 002f 2
E: 19129.221991 0003 0035 1815
E: 19129.221991 0003 0036 1418
E: 19129.221991 0003 001c 3
E: 19129.221991 0003 0030 189
E: 19129.221991 0003 0018 24
E: 19129.221991 0000 0000 0
E: 19129.228980 0003 002f 1
E: 19129.228980 0003 0035 1320
E: 19129.228980 0003 0036 1536
E: 19129.228980 0003 001c 4
E: 19129.228980 0003 002f 2
E: 19129.228980 0003 0035 1813
E: 19129.228980 0003 0036 1422
E: 19129.228980 0003 001c 3
E: 19129.228980 0000 0000 0
E: 19129.235951 0003 002f 1
E: 19129.235951 0003 0036 1540
E: 19129.235951 0003 001c 4
E: 19129.235951 0003 002f 2
E: 19129.235951 0003 0035 1812
E: 19129.235951 0003 0036 1425
E: 19129.235951 0003 001c 3
E: 19129.235951 0000 0000 0
E: 19129.242938 0003 002f 1
E: 19129.242938 0003 0036 1542
E: 19129.242938 0003 001c 4
E: 19129.242938 0003 002f 2
E: 19129.242938 0003 0035 1811
E: 19129.242938 0003 0036 1427
E: 19129.242938 0003 001c 3
E: 19129.242938 0000 0000 0
E: 19129.249926 0003 002f 1
E: 19129.249926 0003 0036 1545
E: 19129.249926 0003 001c 4
E: 19129.249926 0003 002f 2
E: 19129.249926 0003 0035 1810
E: 19129.249926 0003 0036 1429
E: 19129.249926 0003 001c 3
E: 19129.249926 0000 0000 0
E: 19129.256944 0003 002f 1
E: 19129.256944 0003 0036 1546
E: 19129.256944 0003 003a 20
E: 19129.256944 0003 001c 4
E: 19129.256944 0003 002f 2
E: 19129.256944 0003 0035 1809
E: 19129.256944 0003 0036 1430
E: 19129.256944 0003 001c 3
E: 19129.256944 0000 0000 0
E: 19129.263963 0003 002f 1
E: 19129.263963 0003 0036 1547
E: 19129.263963 0003 001c 4
E: 19129.263963 0003 002f 2
E: 19129.263963 0003 0036 1431
E: 19129.263963 0003 0030 252
E: 19129.263963 0000 0000 0
E: 19129.271009 0003 001c 3
E: 19129.271009 0003 002f 1
E: 19129.271009 0003 0036 1548
E: 19129.271009 0003 001c 4
E: 19129.271009 0003 002f 2
E: 19129.271009 0003 0036 1432
E: 19129.271009 0000 0000 0
E: 19129.278038 0003 001c 3
E: 19129.278038 0003 002f 1
E: 19129.278038 0003 0036 1549
E: 19129.278038 0003 001c 4
E: 19129.278038 0003 002f 2
E: 19129.278038 0003 0036 1433
E: 19129.278038 0000 0000 0
E: 19129.285057 0003 001c 3
E: 19129.285057 0003 002f 1
E: 19129.285057 0003 003a 21
E: 19129.285057 0003 001c 4
E: 19129.285057 0003 002f 2
E: 19129.285057 0003 0036 1434
E: 19129.285057 0003 001c 3
E: 19129.285057 0003 0030 189
E: 19129.285057 0000 0000 0
E: 19129.292144 0003 001c 4
E: 19129.292144 0003 003a 15
E: 19129.292144 0003 0030 252
E: 19129.292144 0000 0000 0
E: 19129.299210 0003 001c 3
E: 19129.299210 0003 002f 1
E: 19129.299210 0003 003a 20
E: 19129.299210 0003 001c 4
E: 19129.299210 0000 0000 0
E: 19129.306285 0003 001c 3
E: 19129.306285 0003 0035 1321
E: 19129.306285 0003 0036 1547
E: 19129.306285 0003 001c 4
E: 19129.306285 0003 002f 2
E: 19129.306285 0003 0035 1810
E: 19129.306285 0003 0036 1432
E: 19129.306285 0000 0000 0
E: 19129.313365 0003 001c 3
E: 19129.313365 0003 002f 1
E: 19129.313365 0003 0035 1323
E: 19129.313365 0003 0036 1537
E: 19129.313365 0003 001c 4
E: 19129.313365 0003 002f 2
E: 19129.313365 0003 0035 1813
E: 19129.313365 0003 0036 1427
E: 19129.313365 0003 0031 189
E: 19129.313365 0000 0000 0
E: 19129.320425 0003 001c 3
E: 19129.320425 0003 002f 1
E: 19129.320425 0003 0035 1327
E: 19129.320425 0003 0036 1521
E: 19129.320425 0003 001c 4
E: 19129.320425 0003 002f 2
E: 19129.320425 0003 0035 1818
E: 19129.320425 0003 0036 1416
E: 19129.320425 0000 0000 0
E: 19129.327553 0003 001c 3
E: 19129.327553 0003 002f 1
E: 19129.327553 0003 0035 1333
E: 19129.327553 0003 0036 1489
E: 19129.327553 0003 003a 18
E: 19129.327553 0003 001c 4
E: 19129.327553 0003 0031 252
E: 19129.327553 0003 002f 2
E: 19129.327553 0003 0035 1827
E: 19129.327553 0003 0036 1394
E: 19129.327553 0000 0000 0
E: 19129.334379 0003 001c 3
E: 19129.334379 0003 002f 1
E: 19129.334379 0003 0035 1340
E: 19129.334379 0003 0036 1446
E: 19129.334379 0003 003a 20
E: 19129.334379 0003 001c 4
E: 19129.334379 0003 0031 189
E: 19129.334379 0003 002f 2
E: 19129.334379 0003 0035 1837
E: 19129.334379 0003 0036 1364
E: 19129.334379 0000 0000 0
E: 19129.341533 0003 001c 3
E: 19129.341533 0003 002f 1
E: 19129.341533 0003 0035 1352
E: 19129.341533 0003 0036 1367
E: 19129.341533 0003 001c 4
E: 19129.341533 0003 002f 2
E: 19129.341533 0003 0035 1854
E: 19129.341533 0003 0036 1307
E: 19129.341533 0003 003a 14
E: 19129.341533 0003 0031 126
E: 19129.341533 0000 0000 0
E: 19129.348484 0003 002f 0
E: 19129.348484 0003 003a 23
E: 19129.348484 0003 001c 3
E: 19129.348484 0003 002f 1
E: 19129.348484 0003 0035 1362
E: 19129.348484 0003 0036 1310
E: 19129.348484 0003 003a 18
E: 19129.348484 0003 0030 189
E: 19129.348484 0003 0031 126
E: 19129.348484 0003 002f 2
E: 19129.348484 0003 0035 1869
E: 19129.348484 0003 0036 1248
E: 19129.348484 0003 001c 4
E: 19129.348484 0003 0031 189
E: 19129.348484 0003 0018 23
E: 19129.348484 0000 0000 0
E: 19129.355586 0003 002f 0
E: 19129.355586 0003 003a 22
E: 19129.355586 0003 001c 3
E: 19129.355586 0003 002f 1
E: 19129.355586 0003 0035 1371
E: 19129.355586 0003 0036 1255
E: 19129.355586 0003 003a 20
E: 19129.355586 0003 0031 189
E: 19129.355586 0003 002f 2
E: 19129.355586 0003 0035 1885
E: 19129.355586 0003 0036 1195
E: 19129.355586 0003 003a 13
E: 19129.355586 0003 001c 4
E: 19129.355586 0003 0018 22
E: 19129.355586 0000 0000 0
E: 19129.362582 0003 001c 3
E: 19129.362582 0003 002f 1
E: 19129.362582 0003 0035 1380
E: 19129.362582 0003 0036 1208
E: 19129.362582 0003 003a 19
E: 19129.362582 0003 002f 2
E: 19129.362582 0003 0035 1900
E: 19129.362582 0003 0036 1153
E: 19129.362582 0003 003a 14
E: 19129.362582 0003 001c 4
E: 19129.362582 0003 0031 126
E: 19129.362582 0000 0000 0
E: 19129.369584 0003 001c 3
E: 19129.369584 0003 002f 1
E: 19129.369584 0003 0035 1390
E: 19129.369584 0003 0036 1152
E: 19129.369584 0003 002f 2
E: 19129.369584 0003 0035 1919
E: 19129.369584 0003 0036 1102
E: 19129.369584 0003 003a 13
E: 19129.369584 0003 001c 4
E: 19129.369584 0003 0031 189
E: 19129.369584 0000 0000 0
E: 19129.376613 0003 002f 0
E: 19129.376613 0003 003a 21
E: 19129.376613 0003 001c 3
E: 19129.376613 0003 002f 1
E: 19129.376613 0003 0035 1402
E: 19129.376613 0003 0036 1092
E: 19129.376613 0003 003a 18
E: 19129.376613 0003 001c 4
E: 19129.376613 0003 0030 252
E: 19129.376613 0003 002f 2
E: 19129.376613 0003 0035 1939
E: 19129.376613 0003 0036 1045
E: 19129.376613 0003 001c 3
E: 19129.376613 0003 0030 189
E: 19129.376613 0003 0018 21
E: 19129.376613 0000 0000 0
E: 19129.383555 0003 002f 0
E: 19129.383555 0003 003a 19
E: 19129.383555 0003 002f 1
E: 19129.383555 0003 0035 1412
E: 19129.383555 0003 0036 1039
E: 19129.383555 0003 003a 17
E: 19129.383555 0003 001c 4
E: 19129.383555 0003 002f 2
E: 19129.383555 0003 0035 1956
E: 19129.383555 0003 0036 993
E: 19129.383555 0003 003a 14
E: 19129.383555 0003 001c 3
E: 19129.383555 0003 0031 126
E: 19129.383555 0003 0018 19
E: 19129.383555 0000 0000 0
E: 19129.390443 0003 002f 1
E: 19129.390443 0003 0035 1424
E: 19129.390443 0003 0036 983
E: 19129.390443 0003 003a 18
E: 19129.390443 0003 001c 4
E: 19129.390443 0003 0031 252
E: 19129.390443 0003 002f 2
E: 19129.390443 0003 0035 1971
E: 19129.390443 0003 0036 942
E: 19129.390443 0003 003a 13
E: 19129.390443 0003 001c 3
E: 19129.390443 0000 0000 0
E: 19129.397255 0003 002f 1
E: 19129.397255 0003 0035 1436
E: 19129.397255 0003 0036 926
E: 19129.397255 0003 0030 189
E: 19129.397255 0003 0031 189
E: 19129.397255 0003 002f 2
E: 19129.397255 0003 0035 1989
E: 19129.397255 0003 0036 882
E: 19129.397255 0003 003a 14
E: 19129.397255 0003 001c 2
E: 19129.397255 0000 0000 0
E: 19129.403992 0003 002f 0
E: 19129.403992 0003 003a 18
E: 19129.403992 0003 001c 3
E: 19129.403992 0003 002f 1
E: 19129.403992 0003 0035 1449
E: 19129.403992 0003 0036 868
E: 19129.403992 0003 003a 17
E: 19129.403992 0003 002f 2
E: 19129.403992 0003 0035 2004
E: 19129.403992 0003 0036 825
E: 19129.403992 0003 003a 15
E: 19129.403992 0003 001c 2
E: 19129.403992 0003 0030 126
E: 19129.403992 0003 0018 18
E: 19129.403992 0000 0000 0
E: 19129.410665 0003 002f 0
E: 19129.410665 0003 0035 839
E: 19129.410665 0003 0036 886
E: 19129.410665 0003 003a 19
E: 19129.410665 0003 001c 3
E: 19129.410665 0003 002f 1
E: 19129.410665 0003 0035 1459
E: 19129.410665 0003 0036 811
E: 19129.410665 0003 003a 19
E: 19129.410665 0003 002f 2
E: 19129.410665 0003 0035 2017
E: 19129.410665 0003 0036 771
E: 19129.410665 0003 001c 2
E: 19129.410665 0003 0000 839
E: 19129.410665 0003 0001 886
E: 19129.410665 0003 0018 19
E: 19129.410665 0000 0000 0
E: 19129.417523 0003 002f 0
E: 19129.417523 0003 0036 888
E: 19129.417523 0003 001c 3
E: 19129.417523 0003 002f 1
E: 19129.417523 0003 0035 1469
E: 19129.417523 0003 0036 758
E: 19129.417523 0003 003a 18
E: 19129.417523 0003 002f 2
E: 19129.417523 0003 0035 2027
E: 19129.417523 0003 0036 726
E: 19129.417523 0003 003a 14
E: 19129.417523 0003 0030 189
E: 19129.417523 0003 0031 189
E: 19129.417523 0003 0001 888
E: 19129.417523 0000 0000 0
E: 19129.424341 0003 002f 0
E: 19129.424341 0003 0036 889
E: 19129.424341 0003 003a 21
E: 19129.424341 0003 002f 1
E: 19129.424341 0003 0035 1480
E: 19129.424341 0003 0036 711
E: 19129.424341 0003 003a 19
E: 19129.424341 0003 002f 2
E: 19129.424341 0003 0035 2038
E: 19129.424341 0003 0036 681
E: 19129.424341 0003 003a 15
E: 19129.424341 0003 0031 126
E: 19129.424341 0003 0001 889
E: 19129.424341 0003 0018 21
E: 19129.424341 0000 0000 0
E: 19129.431076 0003 002f 0
E: 19129.431076 0003 0036 890
E: 19129.431076 0003 002f 1
E: 19129.431076 0003 0035 1490
E: 19129.431076 0003 0036 666
E: 19129.431076 0003 003a 18
E: 19129.431076 0003 002f 2
E: 19129.431076 0003 0035 2052
E: 19129.431076 0003 0036 638
E: 19129.431076 0003 0001 890
E: 19129.431076 0000 0000 0
E: 19129.437841 0003 002f 0
E: 19129.437841 0003 0036 891
E: 19129.437841 0003 003a 22
E: 19129.437841 0003 002f 1
E: 19129.437841 0003 0035 1499
E: 19129.437841 0003 0036 628
E: 19129.437841 0003 0031 126
E: 19129.437841 0003 002f 2
E: 19129.437841 0003 0035 2067
E: 19129.437841 0003 0036 600
E: 19129.437841 0003 0001 891
E: 19129.437841 0003 0018 22
E: 19129.437841 0000 0000 0
E: 19129.444727 0003 002f 0
E: 19129.444727 0003 0036 892
E: 19129.444727 0003 002f 1
E: 19129.444727 0003 0035 1505
E: 19129.444727 0003 0036 599
E: 19129.444727 0003 001c 4
E: 19129.444727 0003 0030 252
E: 19129.444727 0003 002f 2
E: 19129.444727 0003 0035 2080
E: 19129.444727 0003 0036 565
E: 19129.444727 0003 0030 252
E: 19129.444727 0003 0031 189
E: 19129.444727 0003 0001 892
E: 19129.444727 0000 0000 0
E: 19129.451448 0003 002f 0
E: 19129.451448 0003 003a 23
E: 19129.451448 0003 001c 3
E: 19129.451448 0003 002f 1
E: 19129.451448 0003 0035 1511
E: 19129.451448 0003 0036 573
E: 19129.451448 0003 003a 20
E: 19129.451448 0003 0030 189
E: 19129.451448 0003 0031 189
E: 19129.451448 0003 002f 2
E: 19129.451448 0003 0035 2093
E: 19129.451448 0003 0036 530
E: 19129.451448 0003 0030 189
E: 19129.451448 0003 0018 23
E: 19129.451448 0000 0000 0
E: 19129.458504 0003 002f 1
E: 19129.458504 0003 0035 1516
E: 19129.458504 0003 0036 543
E: 19129.458504 0003 001c 4
E: 19129.458504 0003 0030 252
E: 19129.458504 0003 002f 2
E: 19129.458504 0003 0035 2103
E: 19129.458504 0003 0036 496
E: 19129.458504 0003 0030 252
E: 19129.458504 0000 0000 0
E: 19129.465511 0003 001c 3
E: 19129.465511 0003 002f 1
E: 19129.465511 0003 0035 1520
E: 19129.465511 0003 0036 512
E: 19129.465511 0003 003a 19
E: 19129.465511 0003 001c 4
E: 19129.465511 0003 002f 2
E: 19129.465511 0003 0035 2113
E: 19129.465511 0003 0036 465
E: 19129.465511 0003 003a 16
E: 19129.465511 0003 0031 126
E: 19129.465511 0000 0000 0
E: 19129.472560 0003 001c 3
E: 19129.472560 0003 002f 1
E: 19129.472560 0003 0035 1525
E: 19129.472560 0003 0036 487
E: 19129.472560 0003 003a 18
E: 19129.472560 0003 001c 4
E: 19129.472560 0003 002f 2
E: 19129.472560 0003 0035 2119
E: 19129.472560 0003 0036 444
E: 19129.472560 0000 0000 0
E: 19129.479559 0003 001c 3
E: 19129.479559 0003 002f 1
E: 19129.479559 0003 0035 1530
E: 19129.479559 0003 0036 462
E: 19129.479559 0003 001c 4
E: 19129.479559 0003 002f 2
E: 19129.479559 0003 0035 2128
E: 19129.479559 0003 0036 422
E: 19129.479559 0003 003a 15
E: 19129.479559 0003 0031 189
E: 19129.479559 0000 0000 0
E: 19129.486661 0003 001c 3
E: 19129.486661 0003 002f 1
E: 19129.486661 0003 0035 1537
E: 19129.486661 0003 0036 442
E: 19129.486661 0003 003a 17
E: 19129.486661 0003 001c 4
E: 19129.486661 0003 0031 252
E: 19129.486661 0003 002f 2
E: 19129.486661 0003 0035 2138
E: 19129.486661 0003 0036 400
E: 19129.486661 0000 0000 0
E: 19129.493925 0003 002f 0
E: 19129.493925 0003 003a 24
E: 19129.493925 0003 001c 3
E: 19129.493925 0003 002f 1
E: 19129.493925 0003 0035 1542
E: 19129.493925 0003 0036 423
E: 19129.493925 0003 003a 18
E: 19129.493925 0003 001c 5
E: 19129.493925 0003 0030 315
E: 19129.493925 0003 002f 2
E: 19129.493925 0003 0035 2149
E: 19129.493925 0003 0036 381
E: 19129.493925 0003 001c 4
E: 19129.493925 0003 0018 24
E: 19129.493925 0000 0000 0
E: 19129.501020 0003 001c 3
E: 19129.501020 0003 002f 1
E: 19129.501020 0003 0035 1550
E: 19129.501020 0003 0036 405
E: 19129.501020 0003 003a 20
E: 19129.501020 0003 001c 4
E: 19129.501020 0003 0030 252
E: 19129.501020 0003 0031 189
E: 19129.501020 0003 002f 2
E: 19129.501020 0003 0035 2161
E: 19129.501020 0003 0036 364
E: 19129.501020 0000 0000 0
E: 19129.507988 0003 001c 3
E: 19129.507988 0003 002f 1
E: 19129.507988 0003 0035 1556
E: 19129.507988 0003 0036 389
E: 19129.507988 0003 0030 189
E: 19129.507988 0003 002f 2
E: 19129.507988 0003 0035 2174
E: 19129.507988 0003 0036 348
E: 19129.507988 0003 0030 189
E: 19129.507988 0000 0000 0
E: 19129.514909 0003 002f 1
E: 19129.514909 0003 0035 1561
E: 19129.514909 0003 0036 377
E: 19129.514909 0003 003a 21
E: 19129.514909 0003 002f 2
E: 19129.514909 0003 0035 2184
E: 19129.514909 0003 0036 335
E: 19129.514909 0000 0000 0
E: 19129.521836 0003 002f 1
E: 19129.521836 0003 0035 1564
E: 19129.521836 0003 0036 369
E: 19129.521836 0003 003a 22
E: 19129.521836 0003 002f 2
E: 19129.521836 0003 0035 2191
E: 19129.521836 0003 0036 325
E: 19129.521836 0003 003a 16
E: 19129.521836 0000 0000 0
E: 19129.528745 0003 002f 1
E: 19129.528745 0003 0035 1566
E: 19129.528745 0003 0036 365
E: 19129.528745 0003 002f 2
E: 19129.528745 0003 0035 2195
E: 19129.528745 0003 0036 319
E: 19129.528745 0000 0000 0
E: 19129.535703 0003 002f 1
E: 19129.535703 0003 0035 1567
E: 19129.535703 0003 0036 362
E: 19129.535703 0003 002f 2
E: 19129.535703 0003 0035 2198
E: 19129.535703 0003 0036 314
E: 19129.535703 0000 0000 0
E: 19129.542661 0003 002f 1
E: 19129.542661 0003 0035 1568
E: 19129.542661 0003 0036 360
E: 19129.542661 0003 002f 2
E: 19129.542661 0003 0035 2199
E: 19129.542661 0003 0036 312
E: 19129.542661 0000 0000 0
E: 19129.549606 0003 002f 1
E: 19129.549606 0003 0036 359
E: 19129.549606 0003 002f 2
E: 19129.549606 0003 0035 2200
E: 19129.549606 0003 0036 311
E: 19129.549606 0000 0000 0
E: 19129.591293 0003 002f 1
E: 19129.591293 0003 0036 360
E: 19129.591293 0003 002f 2
E: 19129.591293 0003 0035 2199
E: 19129.591293 0000 0000 0
E: 19129.598254 0003 002f 1
E: 19129.598254 0003 0036 361
E: 19129.598254 0003 002f 2
E: 19129.598254 0003 0036 312
E: 19129.598254 0000 0000 0
E: 19129.605215 0003 002f 1
E: 19129.605215 0003 0036 362
E: 19129.605215 0003 002f 2
E: 19129.605215 0003 0035 2198
E: 19129.605215 0003 0036 313
E: 19129.605215 0003 003a 17
E: 19129.605215 0000 0000 0
E: 19129.612178 0003 002f 1
E: 19129.612178 0003 0036 363
E: 19129.612178 0003 002f 2
E: 19129.612178 0003 0035 2197
E: 19129.612178 0003 0036 314
E: 19129.612178 0000 0000 0
E: 19129.619102 0003 002f 1
E: 19129.619102 0003 0036 364
E: 19129.619102 0003 002f 2
E: 19129.619102 0003 0035 2196
E: 19129.619102 0003 0036 315
E: 19129.619102 0003 003a 16
E: 19129.619102 0000 0000 0
E: 19129.626193 0003 002f 1
E: 19129.626193 0003 0035 1569
E: 19129.626193 0003 0036 366
E: 19129.626193 0003 001c 4
E: 19129.626193 0003 0030 252
E: 19129.626193 0003 002f 2
E: 19129.626193 0003 0035 2195
E: 19129.626193 0003 0036 317
E: 19129.626193 0003 003a 15
E: 19129.626193 0003 0030 252
E: 19129.626193 0000 0000 0
E: 19129.633416 0003 001c 3
E: 19129.633416 0003 002f 1
E: 19129.633416 0003 0035 1571
E: 19129.633416 0003 0036 371
E: 19129.633416 0003 001c 4
E: 19129.633416 0003 0031 252
E: 19129.633416 0003 002f 2
E: 19129.633416 0003 0035 2191
E: 19129.633416 0003 0036 327
E: 19129.633416 0000 0000 0
E: 19129.640522 0003 002f 0
E: 19129.640522 0003 003a 23
E: 19129.640522 0003 001c 3
E: 19129.640522 0003 002f 1
E: 19129.640522 0003 0035 1574
E: 19129.640522 0003 0036 386
E: 19129.640522 0003 003a 21
E: 19129.640522 0003 001c 4
E: 19129.640522 0003 0031 189
E: 19129.640522 0003 002f 2
E: 19129.640522 0003 0035 2179
E: 19129.640522 0003 0036 349
E: 19129.640522 0003 001c 3
E: 19129.640522 0003 0030 189
E: 19129.640522 0003 0018 23
E: 19129.640522 0000 0000 0
E: 19129.647682 0003 002f 1
E: 19129.647682 0003 0035 1576
E: 19129.647682 0003 0036 412
E: 19129.647682 0003 003a 20
E: 19129.647682 0003 001c 4
E: 19129.647682 0003 002f 2
E: 19129.647682 0003 0035 2162
E: 19129.647682 0003 0036 381
E: 19129.647682 0003 001c 3
E: 19129.647682 0000 0000 0
E: 19129.654743 0003 002f 1
E: 19129.654743 0003 0035 1573
E: 19129.654743 0003 0036 474
E: 19129.654743 0003 0030 189
E: 19129.654743 0003 002f 2
E: 19129.654743 0003 0035 2134
E: 19129.654743 0003 0036 440
E: 19129.654743 0003 001c 4
E: 19129.654743 0003 0030 252
E: 19129.654743 0000 0000 0
E: 19129.661685 0003 002f 0
E: 19129.661685 0003 003a 22
E: 19129.661685 0003 001c 3
E: 19129.661685 0003 002f 1
E: 19129.661685 0003 0035 1562
E: 19129.661685 0003 0036 536
E: 19129.661685 0003 003a 19
E: 19129.661685 0003 002f 2
E: 19129.661685 0003 0035 2113
E: 19129.661685 0003 0036 502
E: 19129.661685 0003 003a 16
E: 19129.661685 0003 001c 4
E: 19129.661685 0003 0031 126
E: 19129.661685 0003 0018 22
E: 19129.661685 0000 0000 0
E: 19129.668535 0003 002f 0
E: 19129.668535 0003 003a 21
E: 19129.668535 0003 001c 3
E: 19129.668535 0003 002f 1
E: 19129.668535 0003 0035 1548
E: 19129.668535 0003 0036 587
E: 19129.668535 0003 003a 18
E: 19129.668535 0003 001c 4
E: 19129.668535 0003 0030 252
E: 19129.668535 0003 002f 2
E: 19129.668535 0003 0035 2097
E: 19129.668535 0003 0036 554
E: 19129.668535 0003 0018 21
E: 19129.668535 0000 0000 0
E: 19129.675420 0003 002f 0
E: 19129.675420 0003 0036 893
E: 19129.675420 0003 001c 3
E: 19129.675420 0003 002f 1
E: 19129.675420 0003 0035 1534
E: 19129.675420 0003 0036 632
E: 19129.675420 0003 001c 4
E: 19129.675420 0003 002f 2
E: 19129.675420 0003 0035 2079
E: 19129.675420 0003 0036 601
E: 19129.675420 0003 003a 15
E: 19129.675420 0003 0001 893
E: 19129.675420 0000 0000 0
E: 19129.682433 0003 002f 0
E: 19129.682433 0003 0036 894
E: 19129.682433 0003 003a 19
E: 19129.682433 0003 001c 3
E: 19129.682433 0003 002f 1
E: 19129.682433 0003 0035 1520
E: 19129.682433 0003 0036 678
E: 19129.682433 0003 003a 17
E: 19129.682433 0003 001c 4
E: 19129.682433 0003 002f 2
E: 19129.682433 0003 0035 2063
E: 19129.682433 0003 0036 644
E: 19129.682433 0003 0031 189
E: 19129.682433 0003 0001 894
E: 19129.682433 0003 0018 19
E: 19129.682433 0000 0000 0
E: 19129.689096 0003 002f 0
E: 19129.689096 0003 0036 895
E: 19129.689096 0003 001c 3
E: 19129.689096 0003 002f 1
E: 19129.689096 0003 0035 1509
E: 19129.689096 0003 0036 717
E: 19129.689096 0003 0030 189
E: 19129.689096 0003 0031 126
E: 19129.689096 0003 002f 2
E: 19129.689096 0003 0035 2049
E: 19129.689096 0003 0036 681
E: 19129.689096 0003 001c 2
E: 19129.689096 0003 0030 126
E: 19129.689096 0003 0031 126
E: 19129.689096 0003 0001 895
E: 19129.689096 0000 0000 0
E: 19129.695815 0003 002f 0
E: 19129.695815 0003 003a 18
E: 19129.695815 0003 001c 3
E: 19129.695815 0003 002f 1
E: 19129.695815 0003 0035 1497
E: 19129.695815 0003 0036 764
E: 19129.695815 0003 003a 18
E: 19129.695815 0003 0031 189
E: 19129.695815 0003 002f 2
E: 19129.695815 0003 0035 2037
E: 19129.695815 0003 0036 726
E: 19129.695815 0003 003a 14
E: 19129.695815 0003 001c 2
E: 19129.695815 0003 0018 18
E: 19129.695815 0000 0000 0
E: 19129.702702 0003 002f 0
E: 19129.702702 0003 0036 894
E: 19129.702702 0003 003a 19
E: 19129.702702 0003 001c 3
E: 19129.702702 0003 002f 1
E: 19129.702702 0003 0035 1487
E: 19129.702702 0003 0036 813
E: 19129.702702 0003 003a 17
E: 19129.702702 0003 001c 4
E: 19129.702702 0003 0030 252
E: 19129.702702 0003 002f 2
E: 19129.702702 0003 0035 2027
E: 19129.702702 0003 0036 770
E: 19129.702702 0003 003a 13
E: 19129.702702 0003 001c 3
E: 19129.702702 0003 0030 189
E: 19129.702702 0003 0031 189
E: 19129.702702 0003 0001 894
E: 19129.702702 0003 0018 19
E: 19129.702702 0000 0000 0
E: 19129.709637 0003 002f 0
E: 19129.709637 0003 0036 892
E: 19129.709637 0003 002f 1
E: 19129.709637 0003 0035 1480
E: 19129.709637 0003 0036 860
E: 19129.709637 0003 001c 4
E: 19129.709637 0003 002f 2
E: 19129.709637 0003 0035 2017
E: 19129.709637 0003 0036 813
E: 19129.709637 0003 003a 12
E: 19129.709637 0003 001c 3
E: 19129.709637 0003 0001 892
E: 19129.709637 0000 0000 0
E: 19129.716476 0003 002f 0
E: 19129.716476 0003 0035 840
E: 19129.716476 0003 0036 889
E: 19129.716476 0003 002f 1
E: 19129.716476 0003 0035 1472
E: 19129.716476 0003 0036 899
E: 19129.716476 0003 003a 19
E: 19129.716476 0003 001c 4
E: 19129.716476 0003 002f 2
E: 19129.716476 0003 0035 2008
E: 19129.716476 0003 0036 854
E: 19129.716476 0003 003a 13
E: 19129.716476 0003 001c 3
E: 19129.716476 0003 0031 126
E: 19129.716476 0003 0000 840
E: 19129.716476 0003 0001 889
E: 19129.716476 0000 0000 0
E: 19129.723432 0003 002f 0
E: 19129.723432 0003 0035 841
E: 19129.723432 0003 0036 886
E: 19129.723432 0003 003a 20
E: 19129.723432 0003 002f 1
E: 19129.723432 0003 0035 1464
E: 19129.723432 0003 0036 947
E: 19129.723432 0003 003a 17
E: 19129.723432 0003 001c 4
E: 19129.723432 0003 002f 2
E: 19129.723432 0003 0035 2000
E: 19129.723432 0003 0036 907
E: 19129.723432 0003 003a 12
E: 19129.723432 0003 001c 3
E: 19129.723432 0003 0000 841
E: 19129.723432 0003 0001 886
E: 19129.723432 0003 0018 20
E: 19129.723432 0000 0000 0
E: 19129.730296 0003 002f 0
E: 19129.730296 0003 0036 884
E: 19129.730296 0003 002f 1
E: 19129.730296 0003 0035 1453
E: 19129.730296 0003 0036 1001
E: 19129.730296 0003 003a 18
E: 19129.730296 0003 001c 4
E: 19129.730296 0003 002f 2
E: 19129.730296 0003 0035 1991
E: 19129.730296 0003 0036 964
E: 19129.730296 0003 003a 11
E: 19129.730296 0003 001c 3
E: 19129.730296 0003 0031 189
E: 19129.730296 0003 0001 884
E: 19129.730296 0000 0000 0
E: 19129.737242 0003 002f 0
E: 19129.737242 0003 0036 882
E: 19129.737242 0003 003a 22
E: 19129.737242 0003 002f 1
E: 19129.737242 0003 0035 1445
E: 19129.737242 0003 0036 1048
E: 19129.737242 0003 003a 19
E: 19129.737242 0003 001c 4
E: 19129.737242 0003 002f 2
E: 19129.737242 0003 0035 1982
E: 19129.737242 0003 0036 1012
E: 19129.737242 0003 003a 12
E: 19129.737242 0003 001c 3
E: 19129.737242 0003 0031 126
E: 19129.737242 0003 0001 882
E: 19129.737242 0003 0018 22
E: 19129.737242 0000 0000 0
E: 19129.744286 0003 002f 0
E: 19129.744286 0003 0036 881
E: 19129.744286 0003 002f 1
E: 19129.744286 0003 0035 1438
E: 19129.744286 0003 0036 1092
E: 19129.744286 0003 001c 4
E: 19129.744286 0003 002f 2
E: 19129.744286 0003 0035 1973
E: 19129.744286 0003 0036 1060
E: 19129.744286 0003 003a 13
E: 19129.744286 0003 001c 3
E: 19129.744286 0003 0031 189
E: 19129.744286 0003 0001 881
E: 19129.744286 0000 0000 0
E: 19129.751503 0003 002f 1
E: 19129.751503 0003 0035 1434
E: 19129.751503 0003 0036 1134
E: 19129.751503 0003 001c 4
E: 19129.751503 0003 002f 2
E: 19129.751503 0003 0035 1964
E: 19129.751503 0003 0036 1106
E: 19129.751503 0003 003a 12
E: 19129.751503 0003 001c 3
E: 19129.751503 0000 0000 0
E: 19129.758494 0003 002f 0
E: 19129.758494 0003 003a 23
E: 19129.758494 0003 002f 1
E: 19129.758494 0003 0035 1430
E: 19129.758494 0003 0036 1171
E: 19129.758494 0003 001c 4
E: 19129.758494 0003 002f 2
E: 19129.758494 0003 0035 1956
E: 19129.758494 0003 0036 1145
E: 19129.758494 0003 001c 3
E: 19129.758494 0003 0018 23
E: 19129.758494 0000 0000 0
E: 19129.765437 0003 002f 1
E: 19129.765437 0003 0035 1424
E: 19129.765437 0003 0036 1214
E: 19129.765437 0003 001c 4
E: 19129.765437 0003 0031 126
E: 19129.765437 0003 002f 2
E: 19129.765437 0003 0035 1947
E: 19129.765437 0003 0036 1186
E: 19129.765437 0003 003a 13
E: 19129.765437 0003 001c 3
E: 19129.765437 0000 0000 0
E: 19129.772477 0003 002f 1
E: 19129.772477 0003 0035 1417
E: 19129.772477 0003 0036 1251
E: 19129.772477 0003 001c 4
E: 19129.772477 0003 0031 189
E: 19129.772477 0003 002f 2
E: 19129.772477 0003 0035 1940
E: 19129.772477 0003 0036 1221
E: 19129.772477 0003 001c 3
E: 19129.772477 0003 0031 126
E: 19129.772477 0000 0000 0
E: 19129.779485 0003 002f 1
E: 19129.779485 0003 0035 1413
E: 19129.779485 0003 0036 1276
E: 19129.779485 0003 001c 4
E: 19129.779485 0003 002f 2
E: 19129.779485 0003 0035 1937
E: 19129.779485 0003 0036 1245
E: 19129.779485 0003 001c 3
E: 19129.779485 0000 0000 0
E: 19129.786589 0003 002f 0
E: 19129.786589 0003 003a 24
E: 19129.786589 0003 002f 1
E: 19129.786589 0003 0035 1409
E: 19129.786589 0003 0036 1296
E: 19129.786589 0003 0030 189
E: 19129.786589 0003 002f 2
E: 19129.786589 0003 0035 1932
E: 19129.786589 0003 0036 1268
E: 19129.786589 0003 001c 4
E: 19129.786589 0003 0030 252
E: 19129.786589 0003 0031 189
E: 19129.786589 0003 0018 24
E: 19129.786589 0000 0000 0
E: 19129.795134 0003 002f 0
E: 19129.795134 0003 003a 23
E: 19129.795134 0003 001c 3
E: 19129.795134 0003 002f 1
E: 19129.795134 0003 0035 1405
E: 19129.795134 0003 0036 1318
E: 19129.795134 0003 002f 2
E: 19129.795134 0003 0035 1926
E: 19129.795134 0003 0036 1293
E: 19129.795134 0003 003a 12
E: 19129.795134 0003 001c 4
E: 19129.795134 0003 0018 23
E: 19129.795134 0000 0000 0
E: 19129.802248 0003 002f 0
E: 19129.802248 0003 003a 24
E: 19129.802248 0003 001c 3
E: 19129.802248 0003 002f 1
E: 19129.802248 0003 0035 1399
E: 19129.802248 0003 0036 1344
E: 19129.802248 0003 002f 2
E: 19129.802248 0003 0035 1916
E: 19129.802248 0003 0036 1318
E: 19129.802248 0003 003a 13
E: 19129.802248 0003 001c 4
E: 19129.802248 0003 0018 24
E: 19129.802248 0000 0000 0
E: 19129.809259 0003 001c 3
E: 19129.809259 0003 002f 1
E: 19129.809259 0003 0035 1392
E: 19129.809259 0003 0036 1379
E: 19129.809259 0003 003a 17
E: 19129.809259 0003 002f 2
E: 19129.809259 0003 0035 1903
E: 19129.809259 0003 0036 1344
E: 19129.809259 0003 003a 11
E: 19129.809259 0003 001c 4
E: 19129.809259 0000 0000 0
E: 19129.816189 0003 001c 3
E: 19129.816189 0003 002f 1
E: 19129.816189 0003 0035 1383
E: 19129.816189 0003 0036 1409
E: 19129.816189 0003 003a 18
E: 19129.816189 0003 002f 2
E: 19129.816189 0003 0035 1889
E: 19129.816189 0003 0036 1366
E: 19129.816189 0003 003a 12
E: 19129.816189 0003 001c 4
E: 19129.816189 0003 0031 126
E: 19129.816189 0000 0000 0
E: 19129.823071 0003 001c 3
E: 19129.823071 0003 002f 1
E: 19129.823071 0003 0035 1376
E: 19129.823071 0003 0036 1435
E: 19129.823071 0003 003a 17
E: 19129.823071 0003 002f 2
E: 19129.823071 0003 0035 1879
E: 19129.823071 0003 0036 1384
E: 19129.823071 0003 003a 13
E: 19129.823071 0003 001c 4
E: 19129.823071 0000 0000 0
E: 19129.829944 0003 001c 3
E: 19129.829944 0003 002f 1
E: 19129.829944 0003 0035 1369
E: 19129.829944 0003 0036 1458
E: 19129.829944 0003 003a 18
E: 19129.829944 0003 002f 2
E: 19129.829944 0003 0035 1872
E: 19129.829944 0003 0036 1401
E: 19129.829944 0003 003a 12
E: 19129.829944 0003 001c 4
E: 19129.829944 0000 0000 0
E: 19129.836845 0003 001c 3
E: 19129.836845 0003 002f 1
E: 19129.836845 0003 0035 1363
E: 19129.836845 0003 0036 1478
E: 19129.836845 0003 001c 4
E: 19129.836845 0003 0030 252
E: 19129.836845 0003 002f 2
E: 19129.836845 0003 0035 1868
E: 19129.836845 0003 0036 1416
E: 19129.836845 0000 0000 0
E: 19129.843782 0003 001c 3
E: 19129.843782 0003 002f 1
E: 19129.843782 0003 0035 1358
E: 19129.843782 0003 0036 1495
E: 19129.843782 0003 001c 4
E: 19129.843782 0003 002f 2
E: 19129.843782 0003 0035 1864
E: 19129.843782 0003 0036 1433
E: 19129.843782 0003 0031 189
E: 19129.843782 0000 0000 0
E: 19129.850747 0003 001c 3
E: 19129.850747 0003 002f 1
E: 19129.850747 0003 0035 1354
E: 19129.850747 0003 0036 1508
E: 19129.850747 0003 001c 4
E: 19129.850747 0003 002f 2
E: 19129.850747 0003 0035 1861
E: 19129.850747 0003 0036 1447
E: 19129.850747 0000 0000 0
E: 19129.857771 0003 001c 3
E: 19129.857771 0003 002f 1
E: 19129.857771 0003 0035 1352
E: 19129.857771 0003 0036 1518
E: 19129.857771 0003 001c 4
E: 19129.857771 0003 002f 2
E: 19129.857771 0003 0035 1858
E: 19129.857771 0003 0036 1456
E: 19129.857771 0000 0000 0
E: 19129.864741 0003 001c 3
E: 19129.864741 0003 002f 1
E: 19129.864741 0003 0035 1349
E: 19129.864741 0003 0036 1527
E: 19129.864741 0003 001c 4
E: 19129.864741 0003 002f 2
E: 19129.864741 0003 0035 1854
E: 19129.864741 0003 0036 1463
E: 19129.864741 0000 0000 0
E: 19129.871712 0003 001c 3
E: 19129.871712 0003 002f 1
E: 19129.871712 0003 0035 1347
E: 19129.871712 0003 0036 1535
E: 19129.871712 0003 001c 4
E: 19129.871712 0003 002f 2
E: 19129.871712 0003 0035 1852
E: 19129.871712 0003 0036 1470
E: 19129.871712 0000 0000 0
E: 19129.878700 0003 001c 3
E: 19129.878700 0003 002f 1
E: 19129.878700 0003 0035 1345
E: 19129.878700 0003 0036 1541
E: 19129.878700 0003 001c 4
E: 19129.878700 0003 002f 2
E: 19129.878700 0003 0035 1851
E: 19129.878700 0003 0036 1475
E: 19129.878700 0000 0000 0
E: 19129.885646 0003 001c 3
E: 19129.885646 0003 002f 1
E: 19129.885646 0003 0035 1344
E: 19129.885646 0003 0036 1545
E: 19129.885646 0003 001c 4
E: 19129.885646 0003 002f 2
E: 19129.885646 0003 0035 1849
E: 19129.885646 0003 0036 1479
E: 19129.885646 0003 003a 13
E: 19129.885646 0003 001c 3
E: 19129.885646 0003 0030 189
E: 19129.885646 0000 0000 0
E: 19129.892611 0003 002f 1
E: 19129.892611 0003 0035 1343
E: 19129.892611 0003 0036 1547
E: 19129.892611 0003 001c 4
E: 19129.892611 0003 002f 2
E: 19129.892611 0003 0035 1847
E: 19129.892611 0003 0036 1481
E: 19129.892611 0003 001c 3
E: 19129.892611 0000 0000 0
E: 19129.899525 0003 002f 1
E: 19129.899525 0003 0035 1342
E: 19129.899525 0003 0036 1548
E: 19129.899525 0003 001c 4
E: 19129.899525 0003 002f 2
E: 19129.899525 0003 0035 1846
E: 19129.899525 0003 0036 1484
E: 19129.899525 0003 003a 12
E: 19129.899525 0003 001c 3
E: 19129.899525 0000 0000 0
E: 19129.906446 0003 002f 1
E: 19129.906446 0003 0035 1341
E: 19129.906446 0003 0036 1549
E: 19129.906446 0003 001c 4
E: 19129.906446 0003 002f 2
E: 19129.906446 0003 0035 1845
E: 19129.906446 0003 0036 1485
E: 19129.906446 0003 001c 3
E: 19129.906446 0000 0000 0
E: 19129.913393 0003 002f 1
E: 19129.913393 0003 0036 1550
E: 19129.913393 0003 001c 4
E: 19129.913393 0003 002f 2
E: 19129.913393 0003 0035 1844
E: 19129.913393 0003 0036 1486
E: 19129.913393 0003 003a 11
E: 19129.913393 0003 001c 3
E: 19129.913393 0000 0000 0
E: 19129.920317 0003 002f 1
E: 19129.920317 0003 0036 1551
E: 19129.920317 0003 001c 4
E: 19129.920317 0003 002f 2
E: 19129.920317 0003 0035 1843
E: 19129.920317 0003 0036 1487
E: 19129.920317 0003 003a 12
E: 19129.920317 0003 001c 3
E: 19129.920317 0000 0000 0
E: 19129.927212 0003 002f 1
E: 19129.927212 0003 0036 1552
E: 19129.927212 0003 0030 189
E: 19129.927212 0003 001c 2
E: 19129.927212 0003 002f 2
E: 19129.927212 0003 0031 126
E: 19129.927212 0000 0000 0
E: 19129.934022 0003 001c 3
E: 19129.934022 0003 001c 2
E: 19129.934022 0000 0000 0
E: 19129.940794 0003 001c 3
E: 19129.940794 0003 0036 1486
E: 19129.940794 0003 001c 2
E: 19129.940794 0000 0000 0
E: 19129.947580 0003 001c 3
E: 19129.947580 0003 0035 1845
E: 19129.947580 0003 0036 1482
E: 19129.947580 0000 0000 0
E: 19129.954368 0003 002f 1
E: 19129.954368 0003 0036 1550
E: 19129.954368 0003 002f 2
E: 19129.954368 0003 0035 1848
E: 19129.954368 0003 0036 1474
E: 19129.954368 0000 0000 0
E: 19129.961132 0003 002f 1
E: 19129.961132 0003 0035 1342
E: 19129.961132 0003 0036 1543
E: 19129.961132 0003 003a 19
E: 19129.961132 0003 002f 2
E: 19129.961132 0003 0035 1852
E: 19129.961132 0003 0036 1461
E: 19129.961132 0000 0000 0
E: 19129.973937 0003 002f 1
E: 19129.973937 0003 0035 1349
E: 19129.973937 0003 0036 1502
E: 19129.973937 0003 003a 18
E: 19129.973937 0003 002f 2
E: 19129.973937 0003 0035 1859
E: 19129.973937 0003 0036 1420
E: 19129.973937 0003 001c 4
E: 19129.973937 0003 0030 252
E: 19129.973937 0003 0031 189
E: 19129.973937 0000 0000 0
E: 19129.980974 0003 001c 3
E: 19129.980974 0003 002f 1
E: 19129.980974 0003 0035 1353
E: 19129.980974 0003 0036 1465
E: 19129.980974 0003 001c 4
E: 19129.980974 0003 0030 252
E: 19129.980974 0003 002f 2
E: 19129.980974 0003 0035 1862
E: 19129.980974 0003 0036 1391
E: 19129.980974 0003 003a 14
E: 19129.980974 0000 0000 0
E: 19129.987954 0003 001c 3
E: 19129.987954 0003 002f 1
E: 19129.987954 0003 0035 1356
E: 19129.987954 0003 0036 1420
E: 19129.987954 0003 003a 19
E: 19129.987954 0003 001c 4
E: 19129.987954 0003 002f 2
E: 19129.987954 0003 0035 1866
E: 19129.987954 0003 0036 1356
E: 19129.987954 0003 003a 13
E: 19129.987954 0000 0000 0
E: 19129.994960 0003 002f 0
E: 19129.994960 0003 003a 23
E: 19129.994960 0003 001c 3
E: 19129.994960 0003 002f 1
E: 19129.994960 0003 0035 1358
E: 19129.994960 0003 0036 1354
E: 19129.994960 0003 003a 18
E: 19129.994960 0003 001c 4
E: 19129.994960 0003 002f 2
E: 19129.994960 0003 0035 1875
E: 19129.994960 0003 0036 1301
E: 19129.994960 0003 0018 23
E: 19129.994960 0000 0000 0
E: 19130.001791 0003 001c 3
E: 19130.001791 0003 002f 1
E: 19130.001791 0003 0035 1360
E: 19130.001791 0003 0036 1284
E: 19130.001791 0003 0030 189
E: 19130.001791 0003 002f 2
E: 19130.001791 0003 0035 1885
E: 19130.001791 0003 0036 1231
E: 19130.001791 0003 0030 189
E: 19130.001791 0000 0000 0
E: 19130.008723 0003 002f 0
E: 19130.008723 0003 003a 22
E: 19130.008723 0003 002f 1
E: 19130.008723 0003 0035 1362
E: 19130.008723 0003 0036 1218
E: 19130.008723 0003 003a 19
E: 19130.008723 0003 001c 4
E: 19130.008723 0003 0030 252
E: 19130.008723 0003 002f 2
E: 19130.008723 0003 0035 1898
E: 19130.008723 0003 0036 1168
E: 19130.008723 0003 0030 252
E: 19130.008723 0003 0031 126
E: 19130.008723 0003 0018 22
E: 19130.008723 0000 0000 0
E: 19130.015577 0003 001c 3
E: 19130.015577 0003 002f 1
E: 19130.015577 0003 0035 1367
E: 19130.015577 0003 0036 1152
E: 19130.015577 0003 003a 18
E: 19130.015577 0003 0030 189
E: 19130.015577 0003 002f 2
E: 19130.015577 0003 0035 1913
E: 19130.015577 0003 0036 1103
E: 19130.015577 0003 003a 12
E: 19130.015577 0003 001c 4
E: 19130.015577 0003 0031 189
E: 19130.015577 0000 0000 0
E: 19130.022447 0003 002f 0
E: 19130.022447 0003 0036 880
E: 19130.022447 0003 003a 20
E: 19130.022447 0003 001c 3
E: 19130.022447 0003 002f 1
E: 19130.022447 0003 0035 1379
E: 19130.022447 0003 0036 1084
E: 19130.022447 0003 001c 4
E: 19130.022447 0003 0030 252
E: 19130.022447 0003 002f 2
E: 19130.022447 0003 0035 1935
E: 19130.022447 0003 0036 1033
E: 19130.022447 0003 003a 13
E: 19130.022447 0003 001c 3
E: 19130.022447 0003 0030 189
E: 19130.022447 0003 0031 126
E: 19130.022447 0003 0001 880
E: 19130.022447 0003 0018 20
E: 19130.022447 0000 0000 0
E: 19130.029368 0003 002f 0
E: 19130.029368 0003 003a 19
E: 19130.029368 0003 002f 1
E: 19130.029368 0003 0035 1393
E: 19130.029368 0003 0036 1017
E: 19130.029368 0003 001c 4
E: 19130.029368 0003 002f 2
E: 19130.029368 0003 0035 1954
E: 19130.029368 0003 0036 963
E: 19130.029368 0003 003a 12
E: 19130.029368 0003 001c 3
E: 19130.029368 0003 0018 19
E: 19130.029368 0000 0000 0
E: 19130.036183 0003 002f 0
E: 19130.036183 0003 0036 879
E: 19130.036183 0003 002f 1
E: 19130.036183 0003 0035 1408
E: 19130.036183 0003 0036 941
E: 19130.036183 0003 003a 17
E: 19130.036183 0003 0030 189
E: 19130.036183 0003 002f 2
E: 19130.036183 0003 0035 1976
E: 19130.036183 0003 0036 885
E: 19130.036183 0003 003a 14
E: 19130.036183 0003 001c 2
E: 19130.036183 0003 0001 879
E: 19130.036183 0000 0000 0
E: 19130.043024 0003 002f 0
E: 19130.043024 0003 003a 18
E: 19130.043024 0003 001c 3
E: 19130.043024 0003 002f 1
E: 19130.043024 0003 0035 1422
E: 19130.043024 0003 0036 863
E: 19130.043024 0003 003a 18
E: 19130.043024 0003 002f 2
E: 19130.043024 0003 0035 1996
E: 19130.043024 0003 0036 812
E: 19130.043024 0003 003a 15
E: 19130.043024 0003 001c 2
E: 19130.043024 0003 0030 126
E: 19130.043024 0003 0018 18
E: 19130.043024 0000 0000 0
E: 19130.049791 0003 002f 0
E: 19130.049791 0003 0036 881
E: 19130.049791 0003 003a 20
E: 19130.049791 0003 001c 3
E: 19130.049791 0003 002f 1
E: 19130.049791 0003 0035 1438
E: 19130.049791 0003 0036 789
E: 19130.049791 0003 002f 2
E: 19130.049791 0003 0035 2015
E: 19130.049791 0003 0036 742
E: 19130.049791 0003 003a 13
E: 19130.049791 0003 001c 2
E: 19130.049791 0003 0030 189
E: 19130.049791 0003 0001 881
E: 19130.049791 0003 0018 20
E: 19130.049791 0000 0000 0
E: 19130.056568 0003 002f 0
E: 19130.056568 0003 0036 883
E: 19130.056568 0003 003a 21
E: 19130.056568 0003 001c 3
E: 19130.056568 0003 002f 1
E: 19130.056568 0003 0035 1455
E: 19130.056568 0003 0036 721
E: 19130.056568 0003 002f 2
E: 19130.056568 0003 0035 2033
E: 19130.056568 0003 0036 681
E: 19130.056568 0003 003a 15
E: 19130.056568 0003 0001 883
E: 19130.056568 0003 0018 21
E: 19130.056568 0000 0000 0
E: 19130.063358 0003 002f 0
E: 19130.063358 0003 0036 885
E: 19130.063358 0003 003a 22
E: 19130.063358 0003 002f 1
E: 19130.063358 0003 0035 1471
E: 19130.063358 0003 0036 662
E: 19130.063358 0003 003a 19
E: 19130.063358 0003 0031 126
E: 19130.063358 0003 002f 2
E: 19130.063358 0003 0035 2056
E: 19130.063358 0003 0036 622
E: 19130.063358 0003 0001 885
E: 19130.063358 0003 0018 22
E: 19130.063358 0000 0000 0
E: 19130.070230 0003 002f 0
E: 19130.070230 0003 0036 886
E: 19130.070230 0003 002f 1
E: 19130.070230 0003 0035 1484
E: 19130.070230 0003 0036 610
E: 19130.070230 0003 003a 18
E: 19130.070230 0003 0031 189
E: 19130.070230 0003 002f 2
E: 19130.070230 0003 0035 2082
E: 19130.070230 0003 0036 561
E: 19130.070230 0003 0031 189
E: 19130.070230 0003 0001 886
E: 19130.070230 0000 0000 0
E: 19130.077096 0003 002f 0
E: 19130.077096 0003 003a 23
E: 19130.077096 0003 002f 1
E: 19130.077096 0003 0035 1496
E: 19130.077096 0003 0036 563
E: 19130.077096 0003 003a 20
E: 19130.077096 0003 002f 2
E: 19130.077096 0003 0035 2106
E: 19130.077096 0003 0036 504
E: 19130.077096 0003 0031 126
E: 19130.077096 0003 0018 23
E: 19130.077096 0000 0000 0
E: 19130.083895 0003 002f 1
E: 19130.083895 0003 0035 1508
E: 19130.083895 0003 0036 518
E: 19130.083895 0003 001c 4
E: 19130.083895 0003 0030 252
E: 19130.083895 0003 002f 2
E: 19130.083895 0003 0035 2124
E: 19130.083895 0003 0036 450
E: 19130.083895 0003 0030 252
E: 19130.083895 0000 0000 0
E: 19130.090901 0003 002f 0
E: 19130.090901 0003 003a 24
E: 19130.090901 0003 001c 3
E: 19130.090901 0003 002f 1
E: 19130.090901 0003 0035 1518
E: 19130.090901 0003 0036 476
E: 19130.090901 0003 003a 18
E: 19130.090901 0003 001c 5
E: 19130.090901 0003 0030 315
E: 19130.090901 0003 002f 2
E: 19130.090901 0003 0035 2141
E: 19130.090901 0003 0036 407
E: 19130.090901 0003 003a 14
E: 19130.090901 0003 001c 3
E: 19130.090901 0003 0030 189
E: 19130.090901 0003 0031 189
E: 19130.090901 0003 0018 24
E: 19130.090901 0000 0000 0
E: 19130.097802 0003 002f 1
E: 19130.097802 0003 0035 1524
E: 19130.097802 0003 0036 449
E: 19130.097802 0003 001c 4
E: 19130.097802 0003 0030 252
E: 19130.097802 0003 002f 2
E: 19130.097802 0003 0035 2152
E: 19130.097802 0003 0036 376
E: 19130.097802 0003 001c 3
E: 19130.097802 0000 0000 0
E: 19130.104829 0003 002f 1
E: 19130.104829 0003 0035 1527
E: 19130.104829 0003 0036 426
E: 19130.104829 0003 001c 4
E: 19130.104829 0003 0031 252
E: 19130.104829 0003 002f 2
E: 19130.104829 0003 0035 2163
E: 19130.104829 0003 0036 346
E: 19130.104829 0003 0030 252
E: 19130.104829 0000 0000 0
E: 19130.111747 0003 001c 3
E: 19130.111747 0003 002f 1
E: 19130.111747 0003 0035 1528
E: 19130.111747 0003 0036 410
E: 19130.111747 0003 001c 4
E: 19130.111747 0003 0031 189
E: 19130.111747 0003 002f 2
E: 19130.111747 0003 0035 2168
E: 19130.111747 0003 0036 325
E: 19130.111747 0003 003a 15
E: 19130.111747 0003 001c 3
E: 19130.111747 0003 0030 189
E: 19130.111747 0000 0000 0
E: 19130.118676 0003 002f 1
E: 19130.118676 0003 0035 1529
E: 19130.118676 0003 0036 401
E: 19130.118676 0003 001c 4
E: 19130.118676 0003 002f 2
E: 19130.118676 0003 0035 2170
E: 19130.118676 0003 0036 321
E: 19130.118676 0003 0030 252
E: 19130.118676 0000 0000 0
E: 19130.125613 0003 001c 3
E: 19130.125613 0003 002f 1
E: 19130.125613 0003 0036 398
E: 19130.125613 0003 003a 19
E: 19130.125613 0003 001c 4
E: 19130.125613 0003 002f 2
E: 19130.125613 0003 0035 2168
E: 19130.125613 0003 001c 3
E: 19130.125613 0003 0030 189
E: 19130.125613 0000 0000 0
E: 19130.132633 0003 002f 1
E: 19130.132633 0003 0035 1528
E: 19130.132633 0003 001c 4
E: 19130.132633 0003 0031 252
E: 19130.132633 0003 002f 2
E: 19130.132633 0003 0035 2167
E: 19130.132633 0003 0036 323
E: 19130.132633 0003 003a 16
E: 19130.132633 0003 0030 252
E: 19130.132633 0000 0000 0
E: 19130.139835 0003 001c 3
E: 19130.139835 0003 002f 1
E: 19130.139835 0003 0035 1526
E: 19130.139835 0003 0036 400
E: 19130.139835 0003 001c 5
E: 19130.139835 0003 0030 315
E: 19130.139835 0003 002f 2
E: 19130.139835 0003 0035 2164
E: 19130.139835 0003 0036 326
E: 19130.139835 0003 001c 4
E: 19130.139835 0000 0000 0
E: 19130.146966 0003 001c 3
E: 19130.146966 0003 002f 1
E: 19130.146966 0003 0035 1525
E: 19130.146966 0003 0036 403
E: 19130.146966 0003 003a 18
E: 19130.146966 0003 001c 5
E: 19130.146966 0003 002f 2
E: 19130.146966 0003 0035 2158
E: 19130.146966 0003 0036 330
E: 19130.146966 0003 003a 15
E: 19130.146966 0003 001c 3
E: 19130.146966 0003 0030 189
E: 19130.146966 0000 0000 0
E: 19130.154022 0003 002f 1
E: 19130.154022 0003 0036 406
E: 19130.154022 0003 001c 4
E: 19130.154022 0003 0030 252
E: 19130.154022 0003 0031 189
E: 19130.154022 0003 002f 2
E: 19130.154022 0003 0035 2149
E: 19130.154022 0003 0036 337
E: 19130.154022 0003 0030 252
E: 19130.154022 0000 0000 0
E: 19130.161076 0003 001c 3
E: 19130.161076 0003 002f 1
E: 19130.161076 0003 0036 410
E: 19130.161076 0003 003a 19
E: 19130.161076 0003 001c 4
E: 19130.161076 0003 002f 2
E: 19130.161076 0003 0035 2136
E: 19130.161076 0003 0036 349
E: 19130.161076 0003 003a 16
E: 19130.161076 0000 0000 0
E: 19130.168096 0003 002f 0
E: 19130.168096 0003 003a 23
E: 19130.168096 0003 001c 3
E: 19130.168096 0003 002f 1
E: 19130.168096 0003 0035 1524
E: 19130.168096 0003 0036 415
E: 19130.168096 0003 003a 18
E: 19130.168096 0003 001c 4
E: 19130.168096 0003 002f 2
E: 19130.168096 0003 0035 2122
E: 19130.168096 0003 0036 365
E: 19130.168096 0003 0031 126
E: 19130.168096 0003 0018 23
E: 19130.168096 0000 0000 0
E: 19130.175138 0003 001c 3
E: 19130.175138 0003 002f 1
E: 19130.175138 0003 0035 1521
E: 19130.175138 0003 0036 430
E: 19130.175138 0003 003a 20
E: 19130.175138 0003 001c 4
E: 19130.175138 0003 002f 2
E: 19130.175138 0003 0035 2103
E: 19130.175138 0003 0036 392
E: 19130.175138 0000 0000 0
E: 19130.182082 0003 001c 3
E: 19130.182082 0003 002f 1
E: 19130.182082 0003 0035 1514
E: 19130.182082 0003 0036 460
E: 19130.182082 0003 003a 21
E: 19130.182082 0003 0030 189
E: 19130.182082 0003 002f 2
E: 19130.182082 0003 0035 2086
E: 19130.182082 0003 0036 423
E: 19130.182082 0003 003a 15
E: 19130.182082 0003 0030 189
E: 19130.182082 0003 0031 189
E: 19130.182082 0000 0000 0
E: 19130.188926 0003 002f 0
E: 19130.188926 0003 003a 22
E: 19130.188926 0003 002f 1
E: 19130.188926 0003 0035 1504
E: 19130.188926 0003 0036 507
E: 19130.188926 0003 003a 20
E: 19130.188926 0003 002f 2
E: 19130.188926 0003 0035 2066
E: 19130.188926 0003 0036 471
E: 19130.188926 0003 0018 22
E: 19130.188926 0000 0000 0
E: 19130.195772 0003 002f 0
E: 19130.195772 0003 0036 887
E: 19130.195772 0003 002f 1
E: 19130.195772 0003 0035 1493
E: 19130.195772 0003 0036 556
E: 19130.195772 0003 0031 126
E: 19130.195772 0003 002f 2
E: 19130.195772 0003 0035 2049
E: 19130.195772 0003 0036 524
E: 19130.195772 0003 0031 126
E: 19130.195772 0003 0001 887
E: 19130.195772 0000 0000 0
E: 19130.202455 0003 002f 0
E: 19130.202455 0003 0036 888
E: 19130.202455 0003 003a 21
E: 19130.202455 0003 002f 1
E: 19130.202455 0003 0035 1482
E: 19130.202455 0003 0036 608
E: 19130.202455 0003 003a 18
E: 19130.202455 0003 0031 189
E: 19130.202455 0003 002f 2
E: 19130.202455 0003 0035 2035
E: 19130.202455 0003 0036 576
E: 19130.202455 0003 001c 2
E: 19130.202455 0003 0030 126
E: 19130.202455 0003 0001 888
E: 19130.202455 0003 0018 21
E: 19130.202455 0000 0000 0
E: 19130.215100 0003 002f 0
E: 19130.215100 0003 0036 890
E: 19130.215100 0003 003a 19
E: 19130.215100 0003 001c 3
E: 19130.215100 0003 002f 1
E: 19130.215100 0003 0035 1458
E: 19130.215100 0003 0036 717
E: 19130.215100 0003 001c 4
E: 19130.215100 0003 0030 252
E: 19130.215100 0003 002f 2
E: 19130.215100 0003 0035 2012
E: 19130.215100 0003 0036 679
E: 19130.215100 0003 001c 3
E: 19130.215100 0003 0030 189
E: 19130.215100 0003 0001 890
E: 19130.215100 0003 0018 19
E: 19130.215100 0000 0000 0
E: 19130.222101 0003 002f 1
E: 19130.222101 0003 0035 1441
E: 19130.222101 0003 0036 800
E: 19130.222101 0003 001c 4
E: 19130.222101 0003 002f 2
E: 19130.222101 0003 0035 1995
E: 19130.222101 0003 0036 749
E: 19130.222101 0003 003a 12
E: 19130.222101 0003 001c 3
E: 19130.222101 0003 0031 189
E: 19130.222101 0000 0000 0
E: 19130.229143 0003 002f 0
E: 19130.229143 0003 0036 888
E: 19130.229143 0003 003a 20
E: 19130.229143 0003 002f 1
E: 19130.229143 0003 0035 1424
E: 19130.229143 0003 0036 876
E: 19130.229143 0003 003a 17
E: 19130.229143 0003 001c 4
E: 19130.229143 0003 002f 2
E: 19130.229143 0003 0035 1975
E: 19130.229143 0003 0036 820
E: 19130.229143 0003 001c 3
E: 19130.229143 0003 0031 126
E: 19130.229143 0003 0001 888
E: 19130.229143 0003 0018 20
E: 19130.229143 0000 0000 0
E: 19130.236071 0003 002f 0
E: 19130.236071 0003 0036 885
E: 19130.236071 0003 003a 21
E: 19130.236071 0003 002f 1
E: 19130.236071 0003 0035 1408
E: 19130.236071 0003 0036 950
E: 19130.236071 0003 0030 189
E: 19130.236071 0003 002f 2
E: 19130.236071 0003 0035 1952
E: 19130.236071 0003 0036 888
E: 19130.236071 0003 003a 11
E: 19130.236071 0003 001c 4
E: 19130.236071 0003 0030 252
E: 19130.236071 0003 0031 189
E: 19130.236071 0003 0001 885
E: 19130.236071 0003 0018 21
E: 19130.236071 0000 0000 0
E: 19130.242849 0003 002f 0
E: 19130.242849 0003 0036 882
E: 19130.242849 0003 003a 22
E: 19130.242849 0003 001c 3
E: 19130.242849 0003 002f 1
E: 19130.242849 0003 0035 1383
E: 19130.242849 0003 0036 1037
E: 19130.242849 0003 002f 2
E: 19130.242849 0003 0035 1919
E: 19130.242849 0003 0036 975
E: 19130.242849 0003 003a 12
E: 19130.242849 0003 0030 189
E: 19130.242849 0003 0031 126
E: 19130.242849 0003 0001 882
E: 19130.242849 0003 0018 22
E: 19130.242849 0000 0000 0
E: 19130.249638 0003 002f 0
E: 19130.249638 0003 0036 880
E: 19130.249638 0003 003a 23
E: 19130.249638 0003 002f 1
E: 19130.249638 0003 0035 1356
E: 19130.249638 0003 0036 1131
E: 19130.249638 0003 003a 19
E: 19130.249638 0003 002f 2
E: 19130.249638 0003 0035 1883
E: 19130.249638 0003 0036 1066
E: 19130.249638 0003 001c 2
E: 19130.249638 0003 0001 880
E: 19130.249638 0003 0018 23
E: 19130.249638 0000 0000 0
E: 19130.256553 0003 002f 0
E: 19130.256553 0003 0036 879
E: 19130.256553 0003 001c 3
E: 19130.256553 0003 002f 1
E: 19130.256553 0003 0035 1334
E: 19130.256553 0003 0036 1206
E: 19130.256553 0003 001c 4
E: 19130.256553 0003 0030 252
E: 19130.256553 0003 002f 2
E: 19130.256553 0003 0035 1856
E: 19130.256553 0003 0036 1141
E: 19130.256553 0003 003a 13
E: 19130.256553 0003 001c 3
E: 19130.256553 0003 0031 189
E: 19130.256553 0003 0001 879
E: 19130.256553 0000 0000 0
E: 19130.263491 0003 002f 1
E: 19130.263491 0003 0035 1319
E: 19130.263491 0003 0036 1275
E: 19130.263491 0003 003a 20
E: 19130.263491 0003 001c 4
E: 19130.263491 0003 002f 2
E: 19130.263491 0003 0035 1837
E: 19130.263491 0003 0036 1207
E: 19130.263491 0003 001c 3
E: 19130.263491 0003 0031 126
E: 19130.263491 0000 0000 0
E: 19130.270434 0003 002f 1
E: 19130.270434 0003 0035 1306
E: 19130.270434 0003 0036 1336
E: 19130.270434 0003 001c 4
E: 19130.270434 0003 002f 2
E: 19130.270434 0003 0035 1822
E: 19130.270434 0003 0036 1267
E: 19130.270434 0003 003a 12
E: 19130.270434 0003 001c 3
E: 19130.270434 0003 0031 189
E: 19130.270434 0000 0000 0
E: 19130.277477 0003 002f 0
E: 19130.277477 0003 003a 24
E: 19130.277477 0003 002f 1
E: 19130.277477 0003 0035 1294
E: 19130.277477 0003 0036 1392
E: 19130.277477 0003 001c 4
E: 19130.277477 0003 002f 2
E: 19130.277477 0003 0035 1808
E: 19130.277477 0003 0036 1318
E: 19130.277477 0003 003a 13
E: 19130.277477 0003 001c 3
E: 19130.277477 0003 0018 24
E: 19130.277477 0000 0000 0
E: 19130.284560 0003 002f 1
E: 19130.284560 0003 0035 1281
E: 19130.284560 0003 0036 1442
E: 19130.284560 0003 001c 4
E: 19130.284560 0003 002f 2
E: 19130.284560 0003 0035 1793
E: 19130.284560 0003 0036 1365
E: 19130.284560 0003 003a 14
E: 19130.284560 0003 001c 3
E: 19130.284560 0003 0031 126
E: 19130.284560 0000 0000 0
E: 19130.291592 0003 002f 1
E: 19130.291592 0003 0035 1271
E: 19130.291592 0003 0036 1478
E: 19130.291592 0003 003a 19
E: 19130.291592 0003 001c 4
E: 19130.291592 0003 002f 2
E: 19130.291592 0003 0035 1783
E: 19130.291592 0003 0036 1398
E: 19130.291592 0003 003a 13
E: 19130.291592 0003 001c 3
E: 19130.291592 0000 0000 0
E: 19130.298643 0003 002f 0
E: 19130.298643 0003 003a 23
E: 19130.298643 0003 002f 1
E: 19130.298643 0003 0035 1264
E: 19130.298643 0003 0036 1516
E: 19130.298643 0003 001c 4
E: 19130.298643 0003 002f 2
E: 19130.298643 0003 0035 1773
E: 19130.298643 0003 0036 1434
E: 19130.298643 0003 003a 11
E: 19130.298643 0003 001c 3
E: 19130.298643 0003 0031 189
E: 19130.298643 0003 0018 23
E: 19130.298643 0000 0000 0
E: 19130.305698 0003 002f 0
E: 19130.305698 0003 003a 24
E: 19130.305698 0003 002f 1
E: 19130.305698 0003 0035 1259
E: 19130.305698 0003 0036 1550
E: 19130.305698 0003 001c 4
E: 19130.305698 0003 002f 2
E: 19130.305698 0003 0035 1765
E: 19130.305698 0003 0036 1466
E: 19130.305698 0003 001c 3
E: 19130.305698 0003 0018 24
E: 19130.305698 0000 0000 0
E: 19130.312780 0003 002f 1
E: 19130.312780 0003 0036 1573
E: 19130.312780 0003 001c 4
E: 19130.312780 0003 002f 2
E: 19130.312780 0003 0035 1760
E: 19130.312780 0003 0036 1487
E: 19130.312780 0003 001c 3
E: 19130.312780 0000 0000 0
E: 19130.319816 0003 002f 1
E: 19130.319816 0003 0036 1585
E: 19130.319816 0003 001c 4
E: 19130.319816 0003 002f 2
E: 19130.319816 0003 0035 1758
E: 19130.319816 0003 0036 1496
E: 19130.319816 0003 001c 3
E: 19130.319816 0000 0000 0
E: 19130.326643 0003 002f 0
E: 19130.326643 0003 003a 23
E: 19130.326643 0003 002f 1
E: 19130.326643 0003 0035 1261
E: 19130.326643 0003 0036 1591
E: 19130.326643 0003 001c 4
E: 19130.326643 0003 0031 126
E: 19130.326643 0003 002f 2
E: 19130.326643 0003 0035 1759
E: 19130.326643 0003 0036 1500
E: 19130.326643 0003 001c 3
E: 19130.326643 0003 0018 23
E: 19130.326643 0000 0000 0
E: 19130.333762 0003 002f 0
E: 19130.333762 0003 003a 24
E: 19130.333762 0003 002f 1
E: 19130.333762 0003 0035 1262
E: 19130.333762 0003 0036 1593
E: 19130.333762 0003 001c 4
E: 19130.333762 0003 0031 189
E: 19130.333762 0003 002f 2
E: 19130.333762 0003 0035 1762
E: 19130.333762 0003 001c 3
E: 19130.333762 0003 0018 24
E: 19130.333762 0000 0000 0
E: 19130.340810 0003 002f 1
E: 19130.340810 0003 0036 1592
E: 19130.340810 0003 001c 4
E: 19130.340810 0003 002f 2
E: 19130.340810 0003 0035 1766
E: 19130.340810 0003 0036 1497
E: 19130.340810 0003 001c 3
E: 19130.340810 0000 0000 0
E: 19130.347861 0003 002f 1
E: 19130.347861 0003 0035 1263
E: 19130.347861 0003 0036 1586
E: 19130.347861 0003 001c 4
E: 19130.347861 0003 002f 2
E: 19130.347861 0003 0035 1771
E: 19130.347861 0003 0036 1488
E: 19130.347861 0003 003a 12
E: 19130.347861 0003 001c 3
E: 19130.347861 0000 0000 0
E: 19130.354862 0003 002f 1
E: 19130.354862 0003 0035 1268
E: 19130.354862 0003 0036 1571
E: 19130.354862 0003 003a 20
E: 19130.354862 0003 001c 4
E: 19130.354862 0003 002f 2
E: 19130.354862 0003 0035 1778
E: 19130.354862 0003 0036 1471
E: 19130.354862 0003 001c 3
E: 19130.354862 0003 0031 126
E: 19130.354862 0000 0000 0
E: 19130.361894 0003 002f 1
E: 19130.361894 0003 0035 1281
E: 19130.361894 0003 0036 1532
E: 19130.361894 0003 003a 19
E: 19130.361894 0003 001c 4
E: 19130.361894 0003 002f 2
E: 19130.361894 0003 0035 1794
E: 19130.361894 0003 0036 1435
E: 19130.361894 0003 003a 13
E: 19130.361894 0003 0030 252
E: 19130.361894 0003 0031 189
E: 19130.361894 0000 0000 0
E: 19130.368968 0003 001c 3
E: 19130.368968 0003 002f 1
E: 19130.368968 0003 0035 1305
E: 19130.368968 0003 0036 1456
E: 19130.368968 0003 003a 20
E: 19130.368968 0003 001c 4
E: 19130.368968 0003 002f 2
E: 19130.368968 0003 0035 1820
E: 19130.368968 0003 0036 1376
E: 19130.368968 0000 0000 0
E: 19130.375789 0003 001c 3
E: 19130.375789 0003 002f 1
E: 19130.375789 0003 0035 1318
E: 19130.375789 0003 0036 1388
E: 19130.375789 0003 0030 189
E: 19130.375789 0003 002f 2
E: 19130.375789 0003 0035 1841
E: 19130.375789 0003 0036 1319
E: 19130.375789 0003 003a 14
E: 19130.375789 0003 0030 189
E: 19130.375789 0003 0031 126
E: 19130.375789 0000 0000 0
E: 19130.382539 0003 002f 0
E: 19130.382539 0003 003a 23
E: 19130.382539 0003 002f 1
E: 19130.382539 0003 0035 1330
E: 19130.382539 0003 0036 1317
E: 19130.382539 0003 003a 17
E: 19130.382539 0003 0031 126
E: 19130.382539 0003 002f 2
E: 19130.382539 0003 0035 1855
E: 19130.382539 0003 0036 1255
E: 19130.382539 0003 001c 2
E: 19130.382539 0003 0018 23
E: 19130.382539 0000 0000 0
E: 19130.389408 0003 002f 0
E: 19130.389408 0003 003a 22
E: 19130.389408 0003 001c 3
E: 19130.389408 0003 002f 1
E: 19130.389408 0003 0035 1342
E: 19130.389408 0003 0036 1245
E: 19130.389408 0003 003a 19
E: 19130.389408 0003 001c 4
E: 19130.389408 0003 0030 252
E: 19130.389408 0003 0031 189
E: 19130.389408 0003 002f 2
E: 19130.389408 0003 0035 1872
E: 19130.389408 0003 0036 1182
E: 19130.389408 0003 003a 13
E: 19130.389408 0003 0030 252
E: 19130.389408 0003 0018 22
E: 19130.389408 0000 0000 0
E: 19130.396264 0003 001c 3
E: 19130.396264 0003 002f 1
E: 19130.396264 0003 0035 1358
E: 19130.396264 0003 0036 1173
E: 19130.396264 0003 003a 17
E: 19130.396264 0003 0030 189
E: 19130.396264 0003 002f 2
E: 19130.396264 0003 0035 1894
E: 19130.396264 0003 0036 1102
E: 19130.396264 0003 001c 4
E: 19130.396264 0003 0031 189
E: 19130.396264 0000 0000 0
E: 19130.403203 0003 002f 0
E: 19130.403203 0003 003a 21
E: 19130.403203 0003 001c 3
E: 19130.403203 0003 002f 1
E: 19130.403203 0003 0035 1377
E: 19130.403203 0003 0036 1099
E: 19130.403203 0003 003a 18
E: 19130.403203 0003 001c 4
E: 19130.403203 0003 0030 252
E: 19130.403203 0003 002f 2
E: 19130.403203 0003 0035 1922
E: 19130.403203 0003 0036 1020
E: 19130.403203 0003 001c 3
E: 19130.403203 0003 0030 189
E: 19130.403203 0003 0031 126
E: 19130.403203 0003 0018 21
E: 19130.403203 0000 0000 0
E: 19130.410204 0003 002f 0
E: 19130.410204 0003 003a 20
E: 19130.410204 0003 002f 1
E: 19130.410204 0003 0035 1396
E: 19130.410204 0003 0036 1036
E: 19130.410204 0003 003a 19
E: 19130.410204 0003 001c 4
E: 19130.410204 0003 002f 2
E: 19130.410204 0003 0035 1945
E: 19130.410204 0003 0036 947
E: 19130.410204 0003 003a 12
E: 19130.410204 0003 001c 3
E: 19130.410204 0003 0031 189
E: 19130.410204 0003 0018 20
E: 19130.410204 0000 0000 0
E: 19130.416935 0003 002f 0
E: 19130.416935 0003 003a 19
E: 19130.416935 0003 002f 1
E: 19130.416935 0003 0035 1417
E: 19130.416935 0003 0036 960
E: 19130.416935 0003 003a 18
E: 19130.416935 0003 0030 189
E: 19130.416935 0003 002f 2
E: 19130.416935 0003 0035 1973
E: 19130.416935 0003 0036 859
E: 19130.416935 0003 003a 15
E: 19130.416935 0003 001c 2
E: 19130.416935 0003 0030 126
E: 19130.416935 0003 0031 126
E: 19130.416935 0003 0018 19
E: 19130.416935 0000 0000 0
E: 19130.423684 0003 002f 0
E: 19130.423684 0003 0036 880
E: 19130.423684 0003 001c 3
E: 19130.423684 0003 002f 1
E: 19130.423684 0003 0035 1439
E: 19130.423684 0003 0036 873
E: 19130.423684 0003 002f 2
E: 19130.423684 0003 0035 1997
E: 19130.423684 0003 0036 769
E: 19130.423684 0003 003a 14
E: 19130.423684 0003 001c 2
E: 19130.423684 0003 0030 189
E: 19130.423684 0003 0001 880
E: 19130.423684 0000 0000 0
E: 19130.430387 0003 002f 0
E: 19130.430387 0003 0036 882
E: 19130.430387 0003 003a 20
E: 19130.430387 0003 001c 3
E: 19130.430387 0003 002f 1
E: 19130.430387 0003 0035 1454
E: 19130.430387 0003 0036 802
E: 19130.430387 0003 003a 19
E: 19130.430387 0003 002f 2
E: 19130.430387 0003 0035 2018
E: 19130.430387 0003 0036 698
E: 19130.430387 0003 003a 15
E: 19130.430387 0003 0001 882
E: 19130.430387 0003 0018 20
E: 19130.430387 0000 0000 0
E: 19130.437161 0003 002f 0
E: 19130.437161 0003 0036 884
E: 19130.437161 0003 003a 21
E: 19130.437161 0003 002f 1
E: 19130.437161 0003 0035 1474
E: 19130.437161 0003 0036 736
E: 19130.437161 0003 002f 2
E: 19130.437161 0003 0035 2036
E: 19130.437161 0003 0036 638
E: 19130.437161 0003 0001 884
E: 19130.437161 0003 0018 21
E: 19130.437161 0000 0000 0
E: 19130.444078 0003 002f 0
E: 19130.444078 0003 0036 886
E: 19130.444078 0003 003a 22
E: 19130.444078 0003 002f 1
E: 19130.444078 0003 0035 1492
E: 19130.444078 0003 0036 684
E: 19130.444078 0003 003a 18
E: 19130.444078 0003 001c 4
E: 19130.444078 0003 0030 252
E: 19130.444078 0003 002f 2
E: 19130.444078 0003 0035 2058
E: 19130.444078 0003 0036 585
E: 19130.444078 0003 0030 252
E: 19130.444078 0003 0001 886
E: 19130.444078 0003 0018 22
E: 19130.444078 0000 0000 0
E: 19130.451012 0003 002f 0
E: 19130.451012 0003 0036 887
E: 19130.451012 0003 001c 3
E: 19130.451012 0003 002f 1
E: 19130.451012 0003 0035 1510
E: 19130.451012 0003 0036 642
E: 19130.451012 0003 001c 5
E: 19130.451012 0003 0030 315
E: 19130.451012 0003 0031 126
E: 19130.451012 0003 002f 2
E: 19130.451012 0003 0035 2079
E: 19130.451012 0003 0036 541
E: 19130.451012 0003 001c 3
E: 19130.451012 0003 0030 189
E: 19130.451012 0003 0031 189
E: 19130.451012 0003 0001 887
E: 19130.451012 0000 0000 0
E: 19130.457826 0003 002f 0
E: 19130.457826 0003 0036 888
E: 19130.457826 0003 002f 1
E: 19130.457826 0003 0035 1521
E: 19130.457826 0003 0036 617
E: 19130.457826 0003 001c 4
E: 19130.457826 0003 0030 252
E: 19130.457826 0003 002f 2
E: 19130.457826 0003 0035 2096
E: 19130.457826 0003 0036 504
E: 19130.457826 0003 001c 3
E: 19130.457826 0003 0001 888
E: 19130.457826 0000 0000 0
E: 19130.464612 0003 002f 1
E: 19130.464612 0003 0035 1526
E: 19130.464612 0003 0036 606
E: 19130.464612 0003 001c 4
E: 19130.464612 0003 002f 2
E: 19130.464612 0003 0035 2106
E: 19130.464612 0003 0036 479
E: 19130.464612 0003 001c 3
E: 19130.464612 0003 0031 126
E: 19130.464612 0000 0000 0
E: 19130.471374 0003 002f 1
E: 19130.471374 0003 0035 1527
E: 19130.471374 0003 0036 604
E: 19130.471374 0003 001c 4
E: 19130.471374 0003 002f 2
E: 19130.471374 0003 0035 2108
E: 19130.471374 0003 0036 469
E: 19130.471374 0003 001c 3
E: 19130.471374 0000 0000 0
E: 19130.478208 0003 002f 1
E: 19130.478208 0003 003a 19
E: 19130.478208 0003 001c 4
E: 19130.478208 0003 002f 2
E: 19130.478208 0003 0036 468
E: 19130.478208 0003 001c 3
E: 19130.478208 0003 0031 189
E: 19130.478208 0000 0000 0
E: 19130.485042 0003 002f 1
E: 19130.485042 0003 0036 605
E: 19130.485042 0003 001c 4
E: 19130.485042 0003 002f 2
E: 19130.485042 0003 0035 2106
E: 19130.485042 0003 0036 469
E: 19130.485042 0003 001c 3
E: 19130.485042 0000 0000 0
E: 19130.491867 0003 002f 1
E: 19130.491867 0003 0036 606
E: 19130.491867 0003 001c 4
E: 19130.491867 0003 002f 2
E: 19130.491867 0003 0035 2105
E: 19130.491867 0003 0036 471
E: 19130.491867 0003 001c 3
E: 19130.491867 0000 0000 0
E: 19130.498697 0003 002f 1
E: 19130.498697 0003 0036 607
E: 19130.498697 0003 001c 4
E: 19130.498697 0003 002f 2
E: 19130.498697 0003 0035 2103
E: 19130.498697 0003 0036 473
E: 19130.498697 0003 001c 3
E: 19130.498697 0000 0000 0
E: 19130.505647 0003 002f 1
E: 19130.505647 0003 0036 608
E: 19130.505647 0003 001c 5
E: 19130.505647 0003 0030 315
E: 19130.505647 0003 002f 2
E: 19130.505647 0003 0035 2101
E: 19130.505647 0003 0036 476
E: 19130.505647 0003 001c 3
E: 19130.505647 0000 0000 0
E: 19130.512553 0003 002f 1
E: 19130.512553 0003 0036 609
E: 19130.512553 0003 003a 18
E: 19130.512553 0003 001c 4
E: 19130.512553 0003 0030 252
E: 19130.512553 0003 002f 2
E: 19130.512553 0003 0035 2097
E: 19130.512553 0003 0036 483
E: 19130.512553 0003 0030 252
E: 19130.512553 0000 0000 0
E: 19130.519512 0003 002f 0
E: 19130.519512 0003 0036 889
E: 19130.519512 0003 001c 3
E: 19130.519512 0003 002f 1
E: 19130.519512 0003 0035 1526
E: 19130.519512 0003 0036 613
E: 19130.519512 0003 001c 4
E: 19130.519512 0003 0031 189
E: 19130.519512 0003 002f 2
E: 19130.519512 0003 0035 2087
E: 19130.519512 0003 0036 498
E: 19130.519512 0003 0001 889
E: 19130.519512 0000 0000 0
E: 19130.526419 0003 002f 0
E: 19130.526419 0003 0036 890
E: 19130.526419 0003 003a 21
E: 19130.526419 0003 001c 3
E: 19130.526419 0003 002f 1
E: 19130.526419 0003 0035 1521
E: 19130.526419 0003 0036 629
E: 19130.526419 0003 003a 19
E: 19130.526419 0003 001c 4
E: 19130.526419 0003 002f 2
E: 19130.526419 0003 0035 2066
E: 19130.526419 0003 0036 526
E: 19130.526419 0003 0031 126
E: 19130.526419 0003 0001 890
E: 19130.526419 0003 0018 21
E: 19130.526419 0000 0000 0
E: 19130.533211 0003 002f 0
E: 19130.533211 0003 0036 891
E: 19130.533211 0003 003a 20
E: 19130.533211 0003 001c 3
E: 19130.533211 0003 002f 1
E: 19130.533211 0003 0035 1506
E: 19130.533211 0003 0036 675
E: 19130.533211 0003 0030 189
E: 19130.533211 0003 0031 126
E: 19130.533211 0003 002f 2
E: 19130.533211 0003 0035 2038
E: 19130.533211 0003 0036 567
E: 19130.533211 0003 001c 2
E: 19130.533211 0003 0030 126
E: 19130.533211 0003 0001 891
E: 19130.533211 0003 0018 20
E: 19130.533211 0000 0000 0
E: 19130.540040 0003 002f 0
E: 19130.540040 0003 0036 892
E: 19130.540040 0003 003a 19
E: 19130.540040 0003 001c 3
E: 19130.540040 0003 002f 1
E: 19130.540040 0003 0035 1484
E: 19130.540040 0003 0036 752
E: 19130.540040 0003 003a 18
E: 19130.540040 0003 001c 4
E: 19130.540040 0003 0030 252
E: 19130.540040 0003 0031 189
E: 19130.540040 0003 002f 2
E: 19130.540040 0003 0035 2008
E: 19130.540040 0003 0036 624
E: 19130.540040 0003 001c 3
E: 19130.540040 0003 0030 189
E: 19130.540040 0003 0031 189
E: 19130.540040 0003 0001 892
E: 19130.540040 0003 0018 19
E: 19130.540040 0000 0000 0
E: 19130.546957 0003 002f 1
E: 19130.546957 0003 0035 1465
E: 19130.546957 0003 0036 825
E: 19130.546957 0003 003a 19
E: 19130.546957 0003 001c 4
E: 19130.546957 0003 002f 2
E: 19130.546957 0003 0035 1989
E: 19130.546957 0003 0036 681
E: 19130.546957 0003 001c 3
E: 19130.546957 0003 0031 126
E: 19130.546957 0000 0000 0
E: 19130.554017 0003 002f 0
E: 19130.554017 0003 0036 891
E: 19130.554017 0003 002f 1
E: 19130.554017 0003 0035 1450
E: 19130.554017 0003 0036 902
E: 19130.554017 0003 003a 18
E: 19130.554017 0003 001c 4
E: 19130.554017 0003 002f 2
E: 19130.554017 0003 0035 1967
E: 19130.554017 0003 0036 749
E: 19130.554017 0003 003a 13
E: 19130.554017 0003 0030 252
E: 19130.554017 0003 0031 189
E: 19130.554017 0003 0001 891
E: 19130.554017 0000 0000 0
E: 19130.560949 0003 002f 0
E: 19130.560949 0003 0036 889
E: 19130.560949 0003 003a 21
E: 19130.560949 0003 001c 3
E: 19130.560949 0003 002f 1
E: 19130.560949 0003 0035 1436
E: 19130.560949 0003 0036 973
E: 19130.560949 0003 001c 4
E: 19130.560949 0003 002f 2
E: 19130.560949 0003 0035 1947
E: 19130.560949 0003 0036 814
E: 19130.560949 0003 003a 14
E: 19130.560949 0003 001c 3
E: 19130.560949 0003 0030 189
E: 19130.560949 0003 0031 126
E: 19130.560949 0003 0001 889
E: 19130.560949 0003 0018 21
E: 19130.560949 0000 0000 0
E: 19130.567932 0003 002f 0
E: 19130.567932 0003 0036 887
E: 19130.567932 0003 003a 22
E: 19130.567932 0003 002f 1
E: 19130.567932 0003 0035 1420
E: 19130.567932 0003 0036 1055
E: 19130.567932 0003 001c 4
E: 19130.567932 0003 002f 2
E: 19130.567932 0003 0035 1919
E: 19130.567932 0003 0036 897
E: 19130.567932 0003 003a 12
E: 19130.567932 0003 0030 252
E: 19130.567932 0003 0031 189
E: 19130.567932 0003 0001 887
E: 19130.567932 0003 0018 22
E: 19130.567932 0000 0000 0
E: 19130.574816 0003 002f 0
E: 19130.574816 0003 0036 886
E: 19130.574816 0003 001c 3
E: 19130.574816 0003 002f 1
E: 19130.574816 0003 0035 1405
E: 19130.574816 0003 0036 1144
E: 19130.574816 0003 003a 17
E: 19130.574816 0003 0030 189
E: 19130.574816 0003 002f 2
E: 19130.574816 0003 0035 1890
E: 19130.574816 0003 0036 987
E: 19130.574816 0003 003a 13
E: 19130.574816 0003 001c 4
E: 19130.574816 0003 0001 886
E: 19130.574816 0000 0000 0
E: 19130.581639 0003 002f 0
E: 19130.581639 0003 0036 885
E: 19130.581639 0003 003a 23
E: 19130.581639 0003 001c 3
E: 19130.581639 0003 002f 1
E: 19130.581639 0003 0035 1393
E: 19130.581639 0003 0036 1215
E: 19130.581639 0003 003a 18
E: 19130.581639 0003 002f 2
E: 19130.581639 0003 0035 1869
E: 19130.581639 0003 0036 1057
E: 19130.581639 0003 003a 14
E: 19130.581639 0003 0030 189
E: 19130.581639 0003 0031 126
E: 19130.581639 0003 0001 885
E: 19130.581639 0003 0018 23
E: 19130.581639 0000 0000 0
E: 19130.588638 0003 002f 0
E: 19130.588638 0003 0036 884
E: 19130.588638 0003 002f 1
E: 19130.588638 0003 0035 1383
E: 19130.588638 0003 0036 1280
E: 19130.588638 0003 003a 19
E: 19130.588638 0003 001c 4
E: 19130.588638 0003 0030 252
E: 19130.588638 0003 002f 2
E: 19130.588638 0003 0035 1855
E: 19130.588638 0003 0036 1121
E: 19130.588638 0003 001c 3
E: 19130.588638 0003 0031 189
E: 19130.588638 0003 0001 884
E: 19130.588638 0000 0000 0
E: 19130.595483 0003 002f 0
E: 19130.595483 0003 0036 883
E: 19130.595483 0003 002f 1
E: 19130.595483 0003 0035 1374
E: 19130.595483 0003 0036 1335
E: 19130.595483 0003 001c 4
E: 19130.595483 0003 002f 2
E: 19130.595483 0003 0035 1844
E: 19130.595483 0003 0036 1176
E: 19130.595483 0003 001c 3
E: 19130.595483 0003 0031 126
E: 19130.595483 0003 0001 883
E: 19130.595483 0000 0000 0
E: 19130.602364 0003 002f 0
E: 19130.602364 0003 003a 24
E: 19130.602364 0003 002f 1
E: 19130.602364 0003 0035 1367
E: 19130.602364 0003 0036 1382
E: 19130.602364 0003 003a 18
E: 19130.602364 0003 0030 189
E: 19130.602364 0003 0031 126
E: 19130.602364 0003 002f 2
E: 19130.602364 0003 0035 1837
E: 19130.602364 0003 0036 1223
E: 19130.602364 0003 0018 24
E: 19130.602364 0000 0000 0
E: 19130.609146 0003 002f 1
E: 19130.609146 0003 0035 1361
E: 19130.609146 0003 0036 1423
E: 19130.609146 0003 003a 17
E: 19130.609146 0003 001c 4
E: 19130.609146 0003 0030 252
E: 19130.609146 0003 0031 189
E: 19130.609146 0003 002f 2
E: 19130.609146 0003 0035 1830
E: 19130.609146 0003 0036 1261
E: 19130.609146 0003 0030 252
E: 19130.609146 0000 0000 0
E: 19130.616145 0003 001c 3
E: 19130.616145 0003 002f 1
E: 19130.616145 0003 0035 1355
E: 19130.616145 0003 0036 1456
E: 19130.616145 0003 003a 18
E: 19130.616145 0003 001c 4
E: 19130.616145 0003 002f 2
E: 19130.616145 0003 0035 1821
E: 19130.616145 0003 0036 1291
E: 19130.616145 0003 003a 15
E: 19130.616145 0003 001c 3
E: 19130.616145 0003 0030 189
E: 19130.616145 0003 0031 189
E: 19130.616145 0000 0000 0
E: 19130.623206 0003 002f 1
E: 19130.623206 0003 0035 1350
E: 19130.623206 0003 0036 1482
E: 19130.623206 0003 003a 19
E: 19130.623206 0003 001c 4
E: 19130.623206 0003 002f 2
E: 19130.623206 0003 0035 1813
E: 19130.623206 0003 0036 1315
E: 19130.623206 0003 0030 252
E: 19130.623206 0000 0000 0
E: 19130.630220 0003 001c 3
E: 19130.630220 0003 002f 1
E: 19130.630220 0003 0035 1347
E: 19130.630220 0003 0036 1499
E: 19130.630220 0003 001c 4
E: 19130.630220 0003 002f 2
E: 19130.630220 0003 0035 1805
E: 19130.630220 0003 0036 1329
E: 19130.630220 0003 003a 14
E: 19130.630220 0003 001c 3
E: 19130.630220 0003 0030 189
E: 19130.630220 0000 0000 0
E: 19130.637213 0003 002f 1
E: 19130.637213 0003 0035 1344
E: 19130.637213 0003 0036 1511
E: 19130.637213 0003 003a 18
E: 19130.637213 0003 001c 4
E: 19130.637213 0003 002f 2
E: 19130.637213 0003 0035 1798
E: 19130.637213 0003 0036 1340
E: 19130.637213 0003 001c 3
E: 19130.637213 0000 0000 0
E: 19130.644237 0003 002f 1
E: 19130.644237 0003 0035 1340
E: 19130.644237 0003 0036 1519
E: 19130.644237 0003 001c 4
E: 19130.644237 0003 002f 2
E: 19130.644237 0003 0035 1794
E: 19130.644237 0003 0036 1347
E: 19130.644237 0003 001c 3
E: 19130.644237 0000 0000 0
E: 19130.651282 0003 002f 1
E: 19130.651282 0003 0035 1337
E: 19130.651282 0003 0036 1524
E: 19130.651282 0003 001c 4
E: 19130.651282 0003 002f 2
E: 19130.651282 0003 0035 1791
E: 19130.651282 0003 0036 1351
E: 19130.651282 0003 001c 3
E: 19130.651282 0000 0000 0
E: 19130.658408 0003 002f 1
E: 19130.658408 0003 0035 1334
E: 19130.658408 0003 0036 1527
E: 19130.658408 0003 001c 4
E: 19130.658408 0003 002f 2
E: 19130.658408 0003 0035 1790
E: 19130.658408 0003 0036 1353
E: 19130.658408 0003 0030 252
E: 19130.658408 0000 0000 0
E: 19130.665490 0003 001c 3
E: 19130.665490 0003 002f 1
E: 19130.665490 0003 0035 1332
E: 19130.665490 0003 0036 1530
E: 19130.665490 0003 001c 4
E: 19130.665490 0003 002f 2
E: 19130.665490 0003 0035 1789
E: 19130.665490 0003 0036 1355
E: 19130.665490 0000 0000 0
E: 19130.672558 0003 001c 3
E: 19130.672558 0003 002f 1
E: 19130.672558 0003 0035 1330
E: 19130.672558 0003 0036 1533
E: 19130.672558 0003 003a 17
E: 19130.672558 0003 001c 4
E: 19130.672558 0003 002f 2
E: 19130.672558 0003 0036 1357
E: 19130.672558 0000 0000 0
E: 19130.679639 0003 001c 3
E: 19130.679639 0003 002f 1
E: 19130.679639 0003 0035 1328
E: 19130.679639 0003 0036 1537
E: 19130.679639 0003 003a 15
E: 19130.679639 0003 001c 4
E: 19130.679639 0003 002f 2
E: 19130.679639 0003 0035 1788
E: 19130.679639 0003 0036 1359
E: 19130.679639 0003 003a 13
E: 19130.679639 0000 0000 0
E: 19130.686728 0003 001c 3
E: 19130.686728 0003 002f 1
E: 19130.686728 0003 0035 1327
E: 19130.686728 0003 0036 1540
E: 19130.686728 0003 003a 13
E: 19130.686728 0003 001c 4
E: 19130.686728 0003 002f 2
E: 19130.686728 0003 0036 1361
E: 19130.686728 0003 003a 12
E: 19130.686728 0000 0000 0
E: 19130.693728 0003 002f 0
E: 19130.693728 0003 003a 23
E: 19130.693728 0003 001c 3
E: 19130.693728 0003 002f 1
E: 19130.693728 0003 0036 1544
E: 19130.693728 0003 003a 10
E: 19130.693728 0003 001c 4
E: 19130.693728 0003 002f 2
E: 19130.693728 0003 0036 1363
E: 19130.693728 0003 003a 9
E: 19130.693728 0003 0018 23
E: 19130.693728 0000 0000 0
E: 19130.700508 0003 001c 3
E: 19130.700508 0003 001c 1
E: 19130.700508 0003 002f 1
E: 19130.700508 0003 0030 63
E: 19130.700508 0003 0031 63
E: 19130.700508 0003 001c 3
E: 19130.700508 0003 002f 2
E: 19130.700508 0003 0030 189
E: 19130.700508 0003 0031 126
E: 19130.700508 0000 0000 0
E: 19130.710274 0003 002f 1
E: 19130.710274 0003 0039 -1
E: 19130.710274 0003 002f 2
E: 19130.710274 0003 0039 -1
E: 19130.710274 0001 0145 1
E: 19130.710274 0001 014e 0
E: 19130.710274 0000 0000 0
E: 19131.086954 0003 002f 0
E: 19131.086954 0003 003a 24
E: 19131.086954 0003 0018 24
E: 19131.086954 0000 0000 0
E: 19131.087454 0003 002f 0
E: 19131.087454 0003 0039 -1
E: 19131.087454 0003 002f 1
E: 19131.087454 0003 0039 -1
E: 19131.087454 0003 002f 2
E: 19131.087454 0003 0039 -1
E: 19131.087454 0003 002f 3
E: 19131.087454 0003 0039 -1
E: 19131.087454 0003 002f 4
E: 19131.087454 0003 0039 -1
