E: 21415.107375 0003 002f 0
E: 21415.107375 0003 0030 0
E: 21415.107375 0003 0031 0
E: 21415.107375 0003 0032 0
E: 21415.107375 0003 0033 0
E: 21415.107375 0003 0034 0
E: 21415.107375 0003 0035 579
E: 21415.107375 0003 0036 675
E: 21415.107375 0003 0037 0
E: 21415.107375 0003 0038 0
E: 21415.107375 0003 0039 289
E: 21415.107375 0003 003a 16
E: 21415.107375 0003 003b 0
E: 21415.107375 0003 002f 1
E: 21415.107375 0003 0039 -1
E: 21415.107375 0003 002f 2
E: 21415.107375 0003 0039 -1
E: 21415.107375 0003 002f 3
E: 21415.107375 0003 0039 -1
E: 21415.107375 0003 002f 4
E: 21415.107375 0003 0039 -1
E: 21415.107375 0003 002f 5
E: 21415.107375 0003 0039 -1
E: 21415.107375 0003 002f 6
E: 21415.107375 0003 0039 -1
E: 21415.107375 0003 002f 7
E: 21415.107375 0003 0039 -1
E: 21415.107375 0003 002f 8
E: 21415.107375 0003 0039 -1
E: 21415.107375 0003 002f 9
E: 21415.107375 0003 0039 -1
E: 21415.107375 0003 002f 10
E: 21415.107375 0003 0039 -1
E: 21415.107375 0003 002f 11
E: 21415.107375 0003 0039 -1
E: 21415.107375 0003 002f 12
E: 21415.107375 0003 0039 -1
E: 21415.107375 0003 002f 13
E: 21415.107375 0003 0039 -1
E: 21415.107375 0003 002f 14
E: 21415.107375 0003 0039 -1
E: 21415.107375 0003 002f 0
E: 21415.107375 0001 0145 1
E: 21415.107375 0001 014a 1
E: 21415.107375 0000 0000 0
E: 21415.115489 0003 0035 580
E: 21415.115492 0003 003a 17
E: 21415.115515 0003 0000 580
E: 21415.115518 0003 0018 17
E: 21415.115520 0000 0000 0
E: 21415.124996 0003 0035 581
E: 21415.124998 0003 0036 677
E: 21415.125047 0003 0000 581
E: 21415.125049 0003 0001 677
E: 21415.125052 0000 0000 0
E: 21415.134579 0003 0035 583
E: 21415.134582 0003 003a 16
E: 21415.134605 0003 0000 583
E: 21415.134607 0003 0018 16
E: 21415.134610 0000 0000 0
E: 21415.144106 0003 003a 17
E: 21415.144131 0003 0018 17
E: 21415.144134 0000 0000 0
E: 21415.153544 0003 0035 585
E: 21415.153546 0003 0036 679
E: 21415.153548 0003 003a 13
E: 21415.153571 0003 0000 585
E: 21415.153573 0003 0001 679
E: 21415.153575 0003 0018 13
E: 21415.153577 0000 0000 0
E: 21415.162947 0003 0035 587
E: 21415.162950 0003 0036 678
E: 21415.162952 0003 003a 5
E: 21415.162975 0003 0000 587
E: 21415.162976 0003 0001 678
E: 21415.162978 0003 0018 5
E: 21415.162980 0000 0000 0
E: 21415.171104 0003 0039 -1
E: 21415.171125 0001 014a 0
E: 21415.171126 0001 0145 0
E: 21415.171129 0003 0018 0
E: 21415.171131 0000 0000 0
E: 21417.167229 0003 0039 290
E: 21417.167253 0003 0035 613
E: 21417.167266 0003 0036 671
E: 21417.167278 0003 003a 20
E: 21417.167453 0001 014a 1
E: 21417.167462 0001 0145 1
E: 21417.167487 0003 0000 613
E: 21417.167499 0003 0001 671
E: 21417.167511 0003 0018 20
E: 21417.167526 0000 0000 0
E: 21417.176098 0003 0035 611
E: 21417.176100 0003 0036 664
E: 21417.176102 0003 003a 22
E: 21417.176125 0003 0000 611
E: 21417.176127 0003 0001 664
E: 21417.176129 0003 0018 22
E: 21417.176131 0000 0000 0
E: 21417.185661 0003 0035 605
E: 21417.185663 0003 0036 663
E: 21417.185665 0003 003a 26
E: 21417.185688 0003 0000 605
E: 21417.185690 0003 0001 663
E: 21417.185692 0003 0018 26
E: 21417.185694 0000 0000 0
E: 21417.195200 0003 0036 661
E: 21417.195203 0003 003a 25
E: 21417.195227 0003 0001 661
E: 21417.195228 0003 0018 25
E: 21417.195230 0001 0110 1
E: 21417.195232 0000 0000 0
E: 21417.204692 0003 0036 660
E: 21417.204717 0003 0001 660
E: 21417.204721 0000 0000 0
E: 21417.223994 0003 0036 654
E: 21417.223996 0003 003a 27
E: 21417.224019 0003 0001 654
E: 21417.224021 0003 0018 27
E: 21417.224024 0000 0000 0
E: 21417.233691 0003 0036 653
E: 21417.233693 0003 003a 26
E: 21417.233717 0003 0001 653
E: 21417.233718 0003 0018 26
E: 21417.233721 0000 0000 0
E: 21417.243234 0003 003a 27
E: 21417.243272 0003 0018 27
E: 21417.243275 0000 0000 0
E: 21417.252978 0003 003a 28
E: 21417.253021 0003 0018 28
E: 21417.253025 0000 0000 0
E: 21417.262667 0003 0035 604
E: 21417.262671 0003 0036 652
E: 21417.262674 0003 003a 27
E: 21417.262707 0003 0000 604
E: 21417.262709 0003 0001 652
E: 21417.262712 0003 0018 27
E: 21417.262715 0000 0000 0
E: 21417.272330 0003 0036 653
E: 21417.272333 0003 003a 26
E: 21417.272359 0003 0001 653
E: 21417.272360 0003 0018 26
E: 21417.272363 0000 0000 0
E: 21417.282009 0003 0035 601
E: 21417.282013 0003 0036 651
E: 21417.282049 0003 0000 601
E: 21417.282051 0003 0001 651
E: 21417.282055 0000 0000 0
E: 21417.291754 0003 0035 599
E: 21417.291760 0003 003a 27
E: 21417.291813 0003 0000 599
E: 21417.291818 0003 0018 27
E: 21417.291824 0000 0000 0
E: 21417.301283 0003 0035 595
E: 21417.301287 0003 0036 655
E: 21417.301291 0003 003a 26
E: 21417.301316 0003 0000 595
E: 21417.301318 0003 0001 655
E: 21417.301320 0003 0018 26
E: 21417.301322 0000 0000 0
E: 21417.310821 0003 0035 584
E: 21417.310825 0003 0036 660
E: 21417.310827 0003 003a 23
E: 21417.310852 0003 0000 584
E: 21417.310854 0003 0001 660
E: 21417.310856 0003 0018 23
E: 21417.310858 0000 0000 0
E: 21417.320489 0003 0035 566
E: 21417.320492 0003 0036 671
E: 21417.320494 0003 003a 10
E: 21417.320518 0003 0000 566
E: 21417.320519 0003 0001 671
E: 21417.320521 0003 0018 10
E: 21417.320524 0000 0000 0
E: 21417.328653 0003 0039 -1
E: 21417.328675 0001 014a 0
E: 21417.328676 0001 0145 0
E: 21417.328679 0003 0018 0
E: 21417.328680 0001 0110 0
E: 21417.328682 0000 0000 0
E: 21417.329182 0003 002f 0
E: 21417.329182 0003 0039 -1
E: 21417.329182 0003 002f 1
E: 21417.329182 0003 0039 -1
E: 21417.329182 0003 002f 2
E: 21417.329182 0003 0039 -1
E: 21417.329182 0003 002f 3
E: 21417.329182 0003 0039 -1
E: 21417.329182 0003 002f 4
E: 21417.329182 0003 0039 -1
E: 21417.329182 0003 002f 5
E: 21417.329182 0003 0039 -1
E: 21417.329182 0003 002f 6
E: 21417.329182 0003 0039 -1
E: 21417.329182 0003 002f 7
E: 21417.329182 0003 0039 -1
E: 21417.329182 0003 002f 8
E: 21417.329182 0003 0039 -1
E: 21417.329182 0003 002f 9
E: 21417.329182 0003 0039 -1
E: 21417.329182 0003 002f 10
E: 21417.329182 0003 0039 -1
E: 21417.329182 0003 002f 11
E: 21417.329182 0003 0039 -1
E: 21417.329182 0003 002f 12
E: 21417.329182 0003 0039 -1
E: 21417.329182 0003 002f 13
E: 21417.329182 0003 0039 -1
E: 21417.329182 0003 002f 14
E: 21417.329182 0003 0039 -1
