E: 953.628766 0003 002f 0
E: 953.628766 0003 0030 0
E: 953.628766 0003 0031 0
E: 953.628766 0003 0032 0
E: 953.628766 0003 0033 0
E: 953.628766 0003 0034 0
E: 953.628766 0003 0035 516
E: 953.628766 0003 0036 43
E: 953.628766 0003 0037 0
E: 953.628766 0003 0038 0
E: 953.628766 0003 0039 139
E: 953.628766 0003 003a 25
E: 953.628766 0003 003b 0
E: 953.628766 0003 002f 1
E: 953.628766 0003 0030 0
E: 953.628766 0003 0031 0
E: 953.628766 0003 0032 0
E: 953.628766 0003 0033 0
E: 953.628766 0003 0034 0
E: 953.628766 0003 0035 745
E: 953.628766 0003 0036 37
E: 953.628766 0003 0037 0
E: 953.628766 0003 0038 0
E: 953.628766 0003 0039 140
E: 953.628766 0003 003a 29
E: 953.628766 0003 003b 0
E: 953.628766 0003 002f 2
E: 953.628766 0003 0039 -1
E: 953.628766 0003 002f 3
E: 953.628766 0003 0039 -1
E: 953.628766 0003 002f 4
E: 953.628766 0003 0039 -1
E: 953.628766 0003 002f 5
E: 953.628766 0003 0039 -1
E: 953.628766 0003 002f 6
E: 953.628766 0003 0039 -1
E: 953.628766 0003 002f 7
E: 953.628766 0003 0039 -1
E: 953.628766 0003 002f 8
E: 953.628766 0003 0039 -1
E: 953.628766 0003 002f 9
E: 953.628766 0003 0039 -1
E: 953.628766 0003 002f 10
E: 953.628766 0003 0039 -1
E: 953.628766 0003 002f 11
E: 953.628766 0003 0039 -1
E: 953.628766 0003 002f 12
E: 953.628766 0003 0039 -1
E: 953.628766 0003 002f 13
E: 953.628766 0003 0039 -1
E: 953.628766 0003 002f 14
E: 953.628766 0003 0039 -1
E: 953.628766 0003 002f 1
E: 953.628766 0001 014a 1
E: 953.628766 0001 014d 1
E: 953.628766 0000 0000 0
E: 953.638985 0003 002f 0
E: 953.638986 0003 0035 517
E: 953.638988 0003 0036 157
E: 953.638990 0003 003a 24
E: 953.638994 0003 002f 1
E: 953.638995 0003 0035 733
E: 953.638997 0003 0036 157
E: 953.638998 0003 003a 21
E: 953.639021 0003 0000 517
E: 953.639023 0003 0001 157
E: 953.639025 0003 0018 24
E: 953.639027 0000 0000 0
E: 953.648387 0003 002f 0
E: 953.648390 0003 0035 547
E: 953.648393 0003 0036 377
E: 953.648396 0003 003a 13
E: 953.648399 0003 002f 1
E: 953.648401 0003 0039 -1
E: 953.648433 0001 0145 1
E: 953.648436 0001 014d 0
E: 953.648441 0003 0000 547
E: 953.648444 0003 0001 377
E: 953.648447 0003 0018 13
E: 953.648451 0000 0000 0
E: 953.656562 0003 002f 0
E: 953.656564 0003 0039 -1
E: 953.656587 0001 014a 0
E: 953.656589 0001 0145 0
E: 953.656591 0003 0018 0
E: 953.656593 0000 0000 0
E: 953.657093 0003 002f 0
E: 953.657093 0003 0039 -1
E: 953.657093 0003 002f 1
E: 953.657093 0003 0039 -1
E: 953.657093 0003 002f 2
E: 953.657093 0003 0039 -1
E: 953.657093 0003 002f 3
E: 953.657093 0003 0039 -1
E: 953.657093 0003 002f 4
E: 953.657093 0003 0039 -1
E: 953.657093 0003 002f 5
E: 953.657093 0003 0039 -1
E: 953.657093 0003 002f 6
E: 953.657093 0003 0039 -1
E: 953.657093 0003 002f 7
E: 953.657093 0003 0039 -1
E: 953.657093 0003 002f 8
E: 953.657093 0003 0039 -1
E: 953.657093 0003 002f 9
E: 953.657093 0003 0039 -1
E: 953.657093 0003 002f 10
E: 953.657093 0003 0039 -1
E: 953.657093 0003 002f 11
E: 953.657093 0003 0039 -1
E: 953.657093 0003 002f 12
E: 953.657093 0003 0039 -1
E: 953.657093 0003 002f 13
E: 953.657093 0003 0039 -1
E: 953.657093 0003 002f 14
E: 953.657093 0003 0039 -1
