# device: Cypress-APA-Trackpad-(cyapa)
# bit: 0B 00 00 00 00 00 00 00
# key: 00 00 00 00 00 00 00 00 00 00 00 00 00 00 00 00 00 00 00 00 00 00 00 00 00 00 00 00 00 00 00 00 00 00 01 00 00 00 00 00 20 E5 00 00 00 00 00 00 00 00 00 00 00 00 00 00 00 00 00 00 00 00 00 00 00 00 00 00 00 00 00 00 00 00 00 00 00 00 00 00 00 00 00 00 00 00 00 00 00 00 00 00 00 00 00 00
# rel: 00 00 00 00 00 00 00 00
# abs: 03 00 00 01 00 80 60 06
# led: 00 00 00 00 00 00 00 00
# prp: 05 00 00 00 00 00 00 00
# absinfo: 0 0 1280 0 0 13
# absinfo: 1 0 680 0 0 12
# absinfo: 24 0 255 0 0 0
# absinfo: 47 0 14 0 0 0
# absinfo: 53 0 1280 0 0 13
# absinfo: 54 0 680 0 0 12
# absinfo: 57 0 65535 0 0 0
# absinfo: 58 0 255 0 0 0
E: 10161.371264 0003 002f 0
E: 10161.371264 0003 0030 0
E: 10161.371264 0003 0031 0
E: 10161.371264 0003 0032 0
E: 10161.371264 0003 0033 0
E: 10161.371264 0003 0034 0
E: 10161.371264 0003 0035 648
E: 10161.371264 0003 0036 289
E: 10161.371264 0003 0037 0
E: 10161.371264 0003 0038 0
E: 10161.371264 0003 0039 5160
E: 10161.371264 0003 003a 14
E: 10161.371264 0003 003b 0
E: 10161.371264 0003 002f 1
E: 10161.371264 0003 0039 -1
E: 10161.371264 0003 002f 2
E: 10161.371264 0003 0039 -1
E: 10161.371264 0003 002f 3
E: 10161.371264 0003 0039 -1
E: 10161.371264 0003 002f 4
E: 10161.371264 0003 0039 -1
E: 10161.371264 0003 002f 5
E: 10161.371264 0003 0039 -1
E: 10161.371264 0003 002f 6
E: 10161.371264 0003 0039 -1
E: 10161.371264 0003 002f 7
E: 10161.371264 0003 0039 -1
E: 10161.371264 0003 002f 8
E: 10161.371264 0003 0039 -1
E: 10161.371264 0003 002f 9
E: 10161.371264 0003 0039 -1
E: 10161.371264 0003 002f 10
E: 10161.371264 0003 0039 -1
E: 10161.371264 0003 002f 11
E: 10161.371264 0003 0039 -1
E: 10161.371264 0003 002f 12
E: 10161.371264 0003 0039 -1
E: 10161.371264 0003 002f 13
E: 10161.371264 0003 0039 -1
E: 10161.371264 0003 002f 14
E: 10161.371264 0003 0039 -1
E: 10161.371264 0003 002f 0
E: 10161.371264 0001 0145 1
E: 10161.371264 0001 014a 1
E: 10161.371264 0000 0000 0
E: 10161.380477 0003 0035 646
E: 10161.380483 0003 003a 19
E: 10161.380526 0003 0000 646
E: 10161.380531 0003 0018 19
E: 10161.380535 0000 0000 0
E: 10161.391433 0003 003a 20
E: 10161.391437 0003 002f 1
E: 10161.391439 0003 0039 5161
E: 10161.391441 0003 0035 701
E: 10161.391443 0003 0036 59
E: 10161.391445 0003 003a 22
E: 10161.391466 0001 0145 0
E: 10161.391469 0001 014d 1
E: 10161.391473 0003 0018 20
E: 10161.391476 0000 0000 0
E: 10161.403168 0003 002f 0
E: 10161.403171 0003 0035 644
E: 10161.403174 0003 0036 295
E: 10161.403176 0003 003a 22
E: 10161.403183 0003 002f 1
E: 10161.403184 0003 0035 691
E: 10161.403187 0003 0036 72
E: 10161.403189 0003 003a 27
E: 10161.403216 0003 0000 644
E: 10161.403218 0003 0001 295
E: 10161.403220 0003 0018 22
E: 10161.403223 0000 0000 0
E: 10161.414865 0003 002f 0
E: 10161.414867 0003 0035 638
E: 10161.414869 0003 0036 316
E: 10161.414871 0003 003a 23
E: 10161.414875 0003 002f 1
E: 10161.414877 0003 0035 685
E: 10161.414888 0003 0036 85
E: 10161.414889 0003 003a 29
E: 10161.414914 0003 0000 638
E: 10161.414916 0003 0001 316
E: 10161.414918 0003 0018 23
E: 10161.414920 0000 0000 0
E: 10161.425873 0003 002f 0
E: 10161.425876 0003 0035 636
E: 10161.425878 0003 0036 340
E: 10161.425883 0003 002f 1
E: 10161.425884 0003 0035 677
E: 10161.425886 0003 0036 112
E: 10161.425889 0003 003a 31
E: 10161.425914 0003 0000 636
E: 10161.425916 0003 0001 340
E: 10161.425919 0000 0000 0
E: 10161.437575 0003 002f 0
E: 10161.437578 0003 0036 376
E: 10161.437580 0003 003a 22
E: 10161.437584 0003 002f 1
E: 10161.437586 0003 0035 667
E: 10161.437588 0003 0036 144
E: 10161.437590 0003 003a 32
E: 10161.437615 0003 0001 376
E: 10161.437617 0003 0018 22
E: 10161.437620 0000 0000 0
E: 10161.448155 0003 002f 0
E: 10161.448158 0003 0035 634
E: 10161.448160 0003 0036 414
E: 10161.448164 0003 002f 1
E: 10161.448166 0003 0035 662
E: 10161.448168 0003 0036 185
E: 10161.448170 0003 003a 33
E: 10161.448194 0003 0000 634
E: 10161.448196 0003 0001 414
E: 10161.448199 0000 0000 0
E: 10161.459791 0003 002f 0
E: 10161.459794 0003 0035 633
E: 10161.459796 0003 0036 461
E: 10161.459801 0003 002f 1
E: 10161.459802 0003 0035 653
E: 10161.459804 0003 0036 222
E: 10161.459806 0003 003a 32
E: 10161.459831 0003 0000 633
E: 10161.459833 0003 0001 461
E: 10161.459836 0000 0000 0
E: 10161.470638 0003 002f 0
E: 10161.470641 0003 0036 505
E: 10161.470643 0003 003a 20
E: 10161.470648 0003 002f 1
E: 10161.470649 0003 0035 649
E: 10161.470651 0003 0036 266
E: 10161.470653 0003 003a 33
E: 10161.470678 0003 0001 505
E: 10161.470680 0003 0018 20
E: 10161.470683 0000 0000 0
E: 10161.481610 0003 002f 0
E: 10161.481614 0003 0036 546
E: 10161.481616 0003 003a 22
E: 10161.481621 0003 002f 1
E: 10161.481622 0003 0035 644
E: 10161.481624 0003 0036 302
E: 10161.481626 0003 003a 31
E: 10161.481652 0003 0001 546
E: 10161.481654 0003 0018 22
E: 10161.481656 0000 0000 0
E: 10161.492591 0003 002f 0
E: 10161.492594 0003 0035 635
E: 10161.492597 0003 0036 582
E: 10161.492599 0003 003a 20
E: 10161.492604 0003 002f 1
E: 10161.492605 0003 0035 643
E: 10161.492609 0003 0036 338
E: 10161.492612 0003 003a 32
E: 10161.492650 0003 0000 635
E: 10161.492653 0003 0001 582
E: 10161.492656 0003 0018 20
E: 10161.492659 0000 0000 0
E: 10161.504427 0003 002f 0
E: 10161.504430 0003 0035 639
E: 10161.504432 0003 0036 610
E: 10161.504438 0003 002f 1
E: 10161.504439 0003 0035 641
E: 10161.504442 0003 0036 369
E: 10161.504444 0003 003a 31
E: 10161.504473 0003 0000 639
E: 10161.504475 0003 0001 610
E: 10161.504478 0000 0000 0
E: 10161.515611 0003 002f 0
E: 10161.515614 0003 0035 641
E: 10161.515617 0003 0036 664
E: 10161.515619 0003 003a 16
E: 10161.515623 0003 002f 1
E: 10161.515624 0003 0035 638
E: 10161.515626 0003 0036 398
E: 10161.515628 0003 003a 26
E: 10161.515652 0003 0000 641
E: 10161.515654 0003 0001 664
E: 10161.515656 0003 0018 16
E: 10161.515658 0000 0000 0
E: 10161.527871 0003 002f 0
E: 10161.527874 0003 0035 644
E: 10161.527885 0003 0036 675
E: 10161.527887 0003 003a 10
E: 10161.527891 0003 002f 1
E: 10161.527893 0003 0035 636
E: 10161.527895 0003 0036 411
E: 10161.527896 0003 003a 15
E: 10161.527921 0003 0000 644
E: 10161.527923 0003 0001 675
E: 10161.527925 0003 0018 10
E: 10161.527928 0000 0000 0
E: 10161.535937 0003 002f 0
E: 10161.535940 0003 0039 -1
E: 10161.535945 0003 002f 1
E: 10161.535947 0003 0039 -1
E: 10161.535991 0001 014a 0
E: 10161.535995 0001 014d 0
E: 10161.535998 0003 0018 0
E: 10161.536001 0000 0000 0
E: 10161.536501 0003 002f 0
E: 10161.536501 0003 0039 -1
E: 10161.536501 0003 002f 1
E: 10161.536501 0003 0039 -1
E: 10161.536501 0003 002f 2
E: 10161.536501 0003 0039 -1
E: 10161.536501 0003 002f 3
E: 10161.536501 0003 0039 -1
E: 10161.536501 0003 002f 4
E: 10161.536501 0003 0039 -1
E: 10161.536501 0003 002f 5
E: 10161.536501 0003 0039 -1
E: 10161.536501 0003 002f 6
E: 10161.536501 0003 0039 -1
E: 10161.536501 0003 002f 7
E: 10161.536501 0003 0039 -1
E: 10161.536501 0003 002f 8
E: 10161.536501 0003 0039 -1
E: 10161.536501 0003 002f 9
E: 10161.536501 0003 0039 -1
E: 10161.536501 0003 002f 10
E: 10161.536501 0003 0039 -1
E: 10161.536501 0003 002f 11
E: 10161.536501 0003 0039 -1
E: 10161.536501 0003 002f 12
E: 10161.536501 0003 0039 -1
E: 10161.536501 0003 002f 13
E: 10161.536501 0003 0039 -1
E: 10161.536501 0003 002f 14
E: 10161.536501 0003 0039 -1
