# device: Elan Touchpad
# bit: 0B 00 00 00 00 00 00 00
# key: 00 00 00 00 00 00 00 00 00 00 00 00 00 00 00 00 00 00 00 00 00 00 00 00 00 00 00 00 00 00 00 00 00 00 01 00 00 00 00 00 20 E5 00 00 00 00 00 00 00 00 00 00 00 00 00 00 00 00 00 00 00 00 00 00 00 00 00 00 00 00 00 00 00 00 00 00 00 00 00 00 00 00 00 00 00 00 00 00 00 00 00 00 00 00 00 00
# rel: 00 00 00 00 00 00 00 00
# abs: 03 00 00 11 00 80 63 06
# led: 00 00 00 00 00 00 00 00
# prp: 05 00 00 00 00 00 00 00
# absinfo: 0 0 3029 0 0 31
# absinfo: 1 0 1645 0 0 31
# absinfo: 24 0 255 0 0 0
# absinfo: 28 0 15 0 0 0
# absinfo: 47 0 4 0 0 0
# absinfo: 48 0 2460 0 0 0
# absinfo: 49 0 2385 0 0 0
# absinfo: 53 0 3029 0 0 31
# absinfo: 54 0 1645 0 0 31
# absinfo: 57 0 65535 0 0 0
# absinfo: 58 0 255 0 0 0
E: 29660.965252 0003 002f 0
E: 29660.965252 0003 0030 276
E: 29660.965252 0003 0031 222
E: 29660.965252 0003 0032 0
E: 29660.965252 0003 0033 0
E: 29660.965252 0003 0034 0
E: 29660.965252 0003 0035 1633
E: 29660.965252 0003 0036 1417
E: 29660.965252 0003 0037 0
E: 29660.965252 0003 0038 0
E: 29660.965252 0003 0039 217
E: 29660.965252 0003 003a 42
E: 29660.965252 0003 003b 0
E: 29660.965252 0003 002f 1
E: 29660.965252 0003 0030 207
E: 29660.965252 0003 0031 148
E: 29660.965252 0003 0032 0
E: 29660.965252 0003 0033 0
E: 29660.965252 0003 0034 0
E: 29660.965252 0003 0035 1087
E: 29660.965252 0003 0036 1470
E: 29660.965252 0003 0037 0
E: 29660.965252 0003 0038 0
E: 29660.965252 0003 0039 218
E: 29660.965252 0003 003a 43
E: 29660.965252 0003 003b 0
E: 29660.965252 0003 002f 2
E: 29660.965252 0003 0039 -1
E: 29660.965252 0003 002f 3
E: 29660.965252 0003 0039 -1
E: 29660.965252 0003 002f 4
E: 29660.965252 0003 0039 -1
E: 29660.965252 0003 002f 1
E: 29660.965252 0001 014a 1
E: 29660.965252 0001 014d 1
E: 29660.965252 0000 0000 0
E: 29660.966628 0003 002f 0
E: 29660.966628 0003 0035 1631
E: 29660.966628 0003 0036 1416
E: 29660.966628 0003 0030 222
E: 29660.966628 0003 0031 207
E: 29660.966628 0003 001c 4
E: 29660.966628 0003 002f 1
E: 29660.966628 0003 0030 276
E: 29660.966628 0003 0000 1631
E: 29660.966628 0003 0001 1416
E: 29660.966628 0000 0000 0
E: 29660.973716 0003 002f 0
E: 29660.973716 0003 0035 1630
E: 29660.973716 0003 0036 1415
E: 29660.973716 0003 003a 43
E: 29660.973716 0003 001c 3
E: 29660.973716 0003 001c 4
E: 29660.973716 0003 0000 1630
E: 29660.973716 0003 0001 1415
E: 29660.973716 0003 0018 43
E: 29660.973716 0000 0000 0
E: 29660.983446 0003 0035 1631
E: 29660.983446 0003 0036 1412
E: 29660.983446 0003 001c 3
E: 29660.983446 0003 002f 1
E: 29660.983446 0003 0035 1088
E: 29660.983446 0003 0036 1466
E: 29660.983446 0003 003a 44
E: 29660.983446 0003 001c 4
E: 29660.983446 0003 0031 222
E: 29660.983446 0003 0000 1631
E: 29660.983446 0003 0001 1412
E: 29660.983446 0000 0000 0
E: 29660.993171 0003 002f 0
E: 29660.993171 0003 0035 1632
E: 29660.993171 0003 0036 1408
E: 29660.993171 0003 003a 44
E: 29660.993171 0003 001c 3
E: 29660.993171 0003 002f 1
E: 29660.993171 0003 0035 1091
E: 29660.993171 0003 0036 1462
E: 29660.993171 0003 003a 45
E: 29660.993171 0003 001c 4
E: 29660.993171 0003 0000 1632
E: 29660.993171 0003 0001 1408
E: 29660.993171 0003 0018 44
E: 29660.993171 0000 0000 0
E: 29661.003070 0003 002f 0
E: 29661.003070 0003 0035 1633
E: 29661.003070 0003 0036 1404
E: 29661.003070 0003 003a 45
E: 29661.003070 0003 001c 3
E: 29661.003070 0003 002f 1
E: 29661.003070 0003 0035 1094
E: 29661.003070 0003 0036 1457
E: 29661.003070 0003 001c 4
E: 29661.003070 0003 0000 1633
E: 29661.003070 0003 0001 1404
E: 29661.003070 0003 0018 45
E: 29661.003070 0000 0000 0
E: 29661.012838 0003 002f 0
E: 29661.012838 0003 0035 1634
E: 29661.012838 0003 0036 1400
E: 29661.012838 0003 001c 3
E: 29661.012838 0003 002f 1
E: 29661.012838 0003 0035 1099
E: 29661.012838 0003 0036 1450
E: 29661.012838 0003 001c 4
E: 29661.012838 0003 0000 1634
E: 29661.012838 0003 0001 1400
E: 29661.012838 0000 0000 0
E: 29661.022625 0003 002f 0
E: 29661.022625 0003 0035 1636
E: 29661.022625 0003 0036 1393
E: 29661.022625 0003 001c 3
E: 29661.022625 0003 0030 207
E: 29661.022625 0003 0031 148
E: 29661.022625 0003 002f 1
E: 29661.022625 0003 0035 1105
E: 29661.022625 0003 0036 1439
E: 29661.022625 0003 003a 46
E: 29661.022625 0003 001c 4
E: 29661.022625 0003 0000 1636
E: 29661.022625 0003 0001 1393
E: 29661.022625 0000 0000 0
E: 29661.032409 0003 002f 0
E: 29661.032409 0003 0035 1639
E: 29661.032409 0003 0036 1384
E: 29661.032409 0003 001c 3
E: 29661.032409 0003 002f 1
E: 29661.032409 0003 0035 1113
E: 29661.032409 0003 0036 1424
E: 29661.032409 0003 003a 45
E: 29661.032409 0003 001c 4
E: 29661.032409 0003 0000 1639
E: 29661.032409 0003 0001 1384
E: 29661.032409 0000 0000 0
E: 29661.042213 0003 002f 0
E: 29661.042213 0003 0035 1644
E: 29661.042213 0003 0036 1371
E: 29661.042213 0003 001c 3
E: 29661.042213 0003 002f 1
E: 29661.042213 0003 0035 1123
E: 29661.042213 0003 0036 1406
E: 29661.042213 0003 001c 4
E: 29661.042213 0003 0000 1644
E: 29661.042213 0003 0001 1371
E: 29661.042213 0000 0000 0
E: 29661.051965 0003 002f 0
E: 29661.051965 0003 0035 1650
E: 29661.051965 0003 0036 1354
E: 29661.051965 0003 001c 2
E: 29661.051965 0003 0030 222
E: 29661.051965 0003 0031 138
E: 29661.051965 0003 002f 1
E: 29661.051965 0003 0035 1133
E: 29661.051965 0003 0036 1386
E: 29661.051965 0003 001c 3
E: 29661.051965 0003 0030 207
E: 29661.051965 0003 0031 148
E: 29661.051965 0003 0000 1650
E: 29661.051965 0003 0001 1354
E: 29661.051965 0000 0000 0
E: 29661.061742 0003 002f 0
E: 29661.061742 0003 0035 1657
E: 29661.061742 0003 0036 1317
E: 29661.061742 0003 001c 2
E: 29661.061742 0003 002f 1
E: 29661.061742 0003 0035 1143
E: 29661.061742 0003 0036 1362
E: 29661.061742 0003 001c 3
E: 29661.061742 0003 0000 1657
E: 29661.061742 0003 0001 1317
E: 29661.061742 0000 0000 0
E: 29661.071470 0003 002f 0
E: 29661.071470 0003 0035 1663
E: 29661.071470 0003 0036 1265
E: 29661.071470 0003 001c 2
E: 29661.071470 0003 002f 1
E: 29661.071470 0003 0035 1151
E: 29661.071470 0003 0036 1327
E: 29661.071470 0003 001c 3
E: 29661.071470 0003 0030 222
E: 29661.071470 0003 0031 207
E: 29661.071470 0003 0000 1663
E: 29661.071470 0003 0001 1265
E: 29661.071470 0000 0000 0
E: 29661.081315 0003 002f 0
E: 29661.081315 0003 0035 1670
E: 29661.081315 0003 0036 1211
E: 29661.081315 0003 0030 207
E: 29661.081315 0003 0031 148
E: 29661.081315 0003 002f 1
E: 29661.081315 0003 0035 1161
E: 29661.081315 0003 0036 1271
E: 29661.081315 0003 0000 1670
E: 29661.081315 0003 0001 1211
E: 29661.081315 0000 0000 0
E: 29661.091387 0003 002f 0
E: 29661.091387 0003 0035 1677
E: 29661.091387 0003 0036 1134
E: 29661.091387 0003 003a 46
E: 29661.091387 0003 0030 222
E: 29661.091387 0003 0031 207
E: 29661.091387 0003 002f 1
E: 29661.091387 0003 0035 1168
E: 29661.091387 0003 0036 1207
E: 29661.091387 0003 0030 207
E: 29661.091387 0003 0031 148
E: 29661.091387 0003 0000 1677
E: 29661.091387 0003 0001 1134
E: 29661.091387 0003 0018 46
E: 29661.091387 0000 0000 0
E: 29661.100869 0003 002f 0
E: 29661.100869 0003 0035 1681
E: 29661.100869 0003 0036 1059
E: 29661.100869 0003 0030 207
E: 29661.100869 0003 0031 148
E: 29661.100869 0003 002f 1
E: 29661.100869 0003 0035 1173
E: 29661.100869 0003 0036 1113
E: 29661.100869 0003 0030 222
E: 29661.100869 0003 0031 207
E: 29661.100869 0003 0000 1681
E: 29661.100869 0003 0001 1059
E: 29661.100869 0000 0000 0
E: 29661.110607 0003 002f 0
E: 29661.110607 0003 0035 1690
E: 29661.110607 0003 0036 992
E: 29661.110607 0003 0030 222
E: 29661.110607 0003 0031 207
E: 29661.110607 0003 002f 1
E: 29661.110607 0003 0035 1176
E: 29661.110607 0003 0036 1039
E: 29661.110607 0003 0030 207
E: 29661.110607 0003 0031 148
E: 29661.110607 0003 0000 1690
E: 29661.110607 0003 0001 992
E: 29661.110607 0000 0000 0
E: 29661.120446 0003 002f 0
E: 29661.120446 0003 0035 1687
E: 29661.120446 0003 0036 934
E: 29661.120446 0003 002f 1
E: 29661.120446 0003 0035 1172
E: 29661.120446 0003 0036 965
E: 29661.120446 0003 003a 46
E: 29661.120446 0003 0030 222
E: 29661.120446 0003 0031 207
E: 29661.120446 0003 0000 1687
E: 29661.120446 0003 0001 934
E: 29661.120446 0000 0000 0
E: 29661.130220 0003 002f 0
E: 29661.130220 0003 0035 1689
E: 29661.130220 0003 0036 881
E: 29661.130220 0003 0030 207
E: 29661.130220 0003 0031 148
E: 29661.130220 0003 002f 1
E: 29661.130220 0003 0035 1184
E: 29661.130220 0003 0036 895
E: 29661.130220 0003 0030 207
E: 29661.130220 0003 0031 148
E: 29661.130220 0003 0000 1689
E: 29661.130220 0003 0001 881
E: 29661.130220 0000 0000 0
E: 29661.140019 0003 002f 0
E: 29661.140019 0003 0035 1697
E: 29661.140019 0003 0036 806
E: 29661.140019 0003 003a 48
E: 29661.140019 0003 0030 222
E: 29661.140019 0003 0031 207
E: 29661.140019 0003 002f 1
E: 29661.140019 0003 0035 1188
E: 29661.140019 0003 0036 817
E: 29661.140019 0003 003a 48
E: 29661.140019 0003 0030 222
E: 29661.140019 0003 0031 207
E: 29661.140019 0003 0000 1697
E: 29661.140019 0003 0001 806
E: 29661.140019 0003 0018 48
E: 29661.140019 0000 0000 0
E: 29661.149794 0003 002f 0
E: 29661.149794 0003 0035 1711
E: 29661.149794 0003 0036 738
E: 29661.149794 0003 0030 207
E: 29661.149794 0003 0031 148
E: 29661.149794 0003 002f 1
E: 29661.149794 0003 0035 1204
E: 29661.149794 0003 0036 745
E: 29661.149794 0003 003a 46
E: 29661.149794 0003 001c 2
E: 29661.149794 0003 0030 148
E: 29661.149794 0003 0031 138
E: 29661.149794 0003 0000 1711
E: 29661.149794 0003 0001 738
E: 29661.149794 0000 0000 0
E: 29661.159483 0003 002f 0
E: 29661.159483 0003 0035 1734
E: 29661.159483 0003 0036 649
E: 29661.159483 0003 003a 49
E: 29661.159483 0003 001c 3
E: 29661.159483 0003 0030 222
E: 29661.159483 0003 0031 207
E: 29661.159483 0003 002f 1
E: 29661.159483 0003 0035 1210
E: 29661.159483 0003 0036 648
E: 29661.159483 0003 001c 2
E: 29661.159483 0003 0030 222
E: 29661.159483 0003 0000 1734
E: 29661.159483 0003 0001 649
E: 29661.159483 0003 0018 49
E: 29661.159483 0000 0000 0
E: 29661.169250 0003 002f 0
E: 29661.169250 0003 0035 1757
E: 29661.169250 0003 0036 592
E: 29661.169250 0003 001c 4
E: 29661.169250 0003 0030 276
E: 29661.169250 0003 0031 148
E: 29661.169250 0003 002f 1
E: 29661.169250 0003 0035 1224
E: 29661.169250 0003 0036 590
E: 29661.169250 0003 001c 3
E: 29661.169250 0003 0030 207
E: 29661.169250 0003 0031 148
E: 29661.169250 0003 0000 1757
E: 29661.169250 0003 0001 592
E: 29661.169250 0000 0000 0
E: 29661.179053 0003 002f 0
E: 29661.179053 0003 0035 1776
E: 29661.179053 0003 0036 519
E: 29661.179053 0003 0030 222
E: 29661.179053 0003 0031 207
E: 29661.179053 0003 002f 1
E: 29661.179053 0003 0035 1253
E: 29661.179053 0003 0036 513
E: 29661.179053 0003 003a 48
E: 29661.179053 0003 001c 4
E: 29661.179053 0003 0030 276
E: 29661.179053 0003 0031 222
E: 29661.179053 0003 0000 1776
E: 29661.179053 0003 0001 519
E: 29661.179053 0000 0000 0
E: 29661.188920 0003 002f 0
E: 29661.188920 0003 0035 1797
E: 29661.188920 0003 0036 457
E: 29661.188920 0003 001c 3
E: 29661.188920 0003 002f 1
E: 29661.188920 0003 0035 1268
E: 29661.188920 0003 0036 445
E: 29661.188920 0003 003a 46
E: 29661.188920 0003 001c 4
E: 29661.188920 0003 0031 148
E: 29661.188920 0003 0000 1797
E: 29661.188920 0003 0001 457
E: 29661.188920 0000 0000 0
E: 29661.198639 0003 002f 0
E: 29661.198639 0003 0035 1815
E: 29661.198639 0003 0036 413
E: 29661.198639 0003 001c 3
E: 29661.198639 0003 002f 1
E: 29661.198639 0003 0035 1290
E: 29661.198639 0003 0036 389
E: 29661.198639 0003 003a 49
E: 29661.198639 0003 0030 222
E: 29661.198639 0003 0031 207
E: 29661.198639 0003 0000 1815
E: 29661.198639 0003 0001 413
E: 29661.198639 0000 0000 0
E: 29661.208475 0003 002f 0
E: 29661.208475 0003 0035 1824
E: 29661.208475 0003 0036 354
E: 29661.208475 0003 003a 46
E: 29661.208475 0003 002f 1
E: 29661.208475 0003 0035 1306
E: 29661.208475 0003 0036 328
E: 29661.208475 0003 003a 46
E: 29661.208475 0003 0000 1824
E: 29661.208475 0003 0001 354
E: 29661.208475 0003 0018 46
E: 29661.208475 0000 0000 0
E: 29661.218156 0003 002f 0
E: 29661.218156 0003 0036 318
E: 29661.218156 0003 003a 45
E: 29661.218156 0003 002f 1
E: 29661.218156 0003 0035 1319
E: 29661.218156 0003 0036 297
E: 29661.218156 0003 003a 45
E: 29661.218156 0003 0030 207
E: 29661.218156 0003 0031 148
E: 29661.218156 0003 0001 318
E: 29661.218156 0003 0018 45
E: 29661.218156 0000 0000 0
E: 29661.228032 0003 002f 0
E: 29661.228032 0003 0035 1827
E: 29661.228032 0003 0036 297
E: 29661.228032 0003 003a 42
E: 29661.228032 0003 001c 2
E: 29661.228032 0003 0030 148
E: 29661.228032 0003 0031 138
E: 29661.228032 0003 002f 1
E: 29661.228032 0003 0035 1325
E: 29661.228032 0003 0036 270
E: 29661.228032 0003 003a 43
E: 29661.228032 0003 001c 3
E: 29661.228032 0003 0030 222
E: 29661.228032 0003 0031 207
E: 29661.228032 0003 0000 1827
E: 29661.228032 0003 0001 297
E: 29661.228032 0003 0018 42
E: 29661.228032 0000 0000 0
E: 29661.237816 0003 002f 0
E: 29661.237816 0003 0035 1837
E: 29661.237816 0003 0036 278
E: 29661.237816 0003 003a 35
E: 29661.237816 0003 001c 2
E: 29661.237816 0003 002f 1
E: 29661.237816 0003 0035 1317
E: 29661.237816 0003 0036 247
E: 29661.237816 0003 003a 38
E: 29661.237816 0003 001c 3
E: 29661.237816 0003 0000 1837
E: 29661.237816 0003 0001 278
E: 29661.237816 0003 0018 35
E: 29661.237816 0000 0000 0
E: 29661.247605 0003 002f 0
E: 29661.247605 0003 0035 1846
E: 29661.247605 0003 0036 260
E: 29661.247605 0003 001c 1
E: 29661.247605 0003 0030 74
E: 29661.247605 0003 0031 69
E: 29661.247605 0003 002f 1
E: 29661.247605 0003 0030 74
E: 29661.247605 0003 0031 69
E: 29661.247605 0003 0000 1846
E: 29661.247605 0003 0001 260
E: 29661.247605 0000 0000 0
E: 29661.257323 0003 002f 0
E: 29661.257323 0003 0039 -1
E: 29661.257323 0003 002f 1
E: 29661.257323 0003 0039 -1
E: 29661.257323 0001 014a 0
E: 29661.257323 0001 014d 0
E: 29661.257323 0003 0018 0
E: 29661.257323 0000 0000 0
E: 29661.619286 0003 002f 0
E: 29661.619286 0003 0039 219
E: 29661.619286 0003 0035 1259
E: 29661.619286 0003 0036 541
E: 29661.619286 0003 003a 39
E: 29661.619286 0003 001c 3
E: 29661.619286 0003 0030 222
E: 29661.619286 0003 0031 207
E: 29661.619286 0001 014a 1
E: 29661.619286 0001 0145 1
E: 29661.619286 0003 0000 1259
E: 29661.619286 0003 0001 541
E: 29661.619286 0003 0018 39
E: 29661.619286 0000 0000 0
E: 29661.623650 0003 0035 1265
E: 29661.623650 0003 0036 539
E: 29661.623650 0003 003a 42
E: 29661.623650 0003 0000 1265
E: 29661.623650 0003 0001 539
E: 29661.623650 0003 0018 42
E: 29661.623650 0000 0000 0
E: 29661.629132 0003 0035 1273
E: 29661.629132 0003 0036 535
E: 29661.629132 0003 003a 44
E: 29661.629132 0003 002f 1
E: 29661.629132 0003 0039 220
E: 29661.629132 0003 0035 764
E: 29661.629132 0003 0036 587
E: 29661.629132 0003 003a 43
E: 29661.629132 0003 001c 2
E: 29661.629132 0003 0030 148
E: 29661.629132 0003 0031 138
E: 29661.629132 0001 0145 0
E: 29661.629132 0001 014d 1
E: 29661.629132 0003 0000 1273
E: 29661.629132 0003 0001 535
E: 29661.629132 0003 0018 44
E: 29661.629132 0000 0000 0
E: 29661.638880 0003 002f 0
E: 29661.638880 0003 0035 1285
E: 29661.638880 0003 0036 530
E: 29661.638880 0003 001c 4
E: 29661.638880 0003 0030 276
E: 29661.638880 0003 0031 222
E: 29661.638880 0003 002f 1
E: 29661.638880 0003 003a 45
E: 29661.638880 0003 001c 3
E: 29661.638880 0003 0030 207
E: 29661.638880 0003 0031 148
E: 29661.638880 0003 0000 1285
E: 29661.638880 0003 0001 530
E: 29661.638880 0000 0000 0
E: 29661.648653 0003 002f 0
E: 29661.648653 0003 0035 1302
E: 29661.648653 0003 0036 526
E: 29661.648653 0003 003a 45
E: 29661.648653 0003 001c 4
E: 29661.648653 0003 002f 1
E: 29661.648653 0003 0035 770
E: 29661.648653 0003 0036 586
E: 29661.648653 0003 003a 48
E: 29661.648653 0003 001c 3
E: 29661.648653 0003 0030 222
E: 29661.648653 0003 0031 207
E: 29661.648653 0003 0000 1302
E: 29661.648653 0003 0001 526
E: 29661.648653 0003 0018 45
E: 29661.648653 0000 0000 0
E: 29661.658442 0003 002f 0
E: 29661.658442 0003 0035 1323
E: 29661.658442 0003 0036 522
E: 29661.658442 0003 003a 46
E: 29661.658442 0003 0030 222
E: 29661.658442 0003 0031 207
E: 29661.658442 0003 002f 1
E: 29661.658442 0003 0035 785
E: 29661.658442 0003 0036 583
E: 29661.658442 0003 003a 49
E: 29661.658442 0003 001c 4
E: 29661.658442 0003 0030 276
E: 29661.658442 0003 0031 222
E: 29661.658442 0003 0000 1323
E: 29661.658442 0003 0001 522
E: 29661.658442 0003 0018 46
E: 29661.658442 0000 0000 0
E: 29661.668227 0003 002f 0
E: 29661.668227 0003 0035 1359
E: 29661.668227 0003 0036 516
E: 29661.668227 0003 003a 49
E: 29661.668227 0003 001c 3
E: 29661.668227 0003 002f 1
E: 29661.668227 0003 0035 818
E: 29661.668227 0003 0036 577
E: 29661.668227 0003 0030 222
E: 29661.668227 0003 0031 207
E: 29661.668227 0003 0000 1359
E: 29661.668227 0003 0001 516
E: 29661.668227 0003 0018 49
E: 29661.668227 0000 0000 0
E: 29661.677997 0003 002f 0
E: 29661.677997 0003 0035 1411
E: 29661.677997 0003 0036 511
E: 29661.677997 0003 003a 50
E: 29661.677997 0003 002f 1
E: 29661.677997 0003 0035 864
E: 29661.677997 0003 0036 569
E: 29661.677997 0003 003a 50
E: 29661.677997 0003 001c 2
E: 29661.677997 0003 0031 138
E: 29661.677997 0003 0000 1411
E: 29661.677997 0003 0001 511
E: 29661.677997 0003 0018 50
E: 29661.677997 0000 0000 0
E: 29661.687789 0003 002f 0
E: 29661.687789 0003 0035 1474
E: 29661.687789 0003 0036 509
E: 29661.687789 0003 001c 3
E: 29661.687789 0003 002f 1
E: 29661.687789 0003 0035 917
E: 29661.687789 0003 0036 564
E: 29661.687789 0003 001c 4
E: 29661.687789 0003 0030 276
E: 29661.687789 0003 0031 222
E: 29661.687789 0003 0000 1474
E: 29661.687789 0003 0001 509
E: 29661.687789 0000 0000 0
E: 29661.697506 0003 002f 0
E: 29661.697506 0003 0035 1546
E: 29661.697506 0003 0036 507
E: 29661.697506 0003 001c 3
E: 29661.697506 0003 002f 1
E: 29661.697506 0003 0035 991
E: 29661.697506 0003 0036 554
E: 29661.697506 0003 0030 222
E: 29661.697506 0003 0031 207
E: 29661.697506 0003 0000 1546
E: 29661.697506 0003 0001 507
E: 29661.697506 0000 0000 0
E: 29661.707352 0003 002f 0
E: 29661.707352 0003 0035 1615
E: 29661.707352 0003 0036 509
E: 29661.707352 0003 001c 4
E: 29661.707352 0003 0030 276
E: 29661.707352 0003 0031 222
E: 29661.707352 0003 002f 1
E: 29661.707352 0003 0035 1056
E: 29661.707352 0003 0036 549
E: 29661.707352 0003 003a 49
E: 29661.707352 0003 001c 3
E: 29661.707352 0003 0000 1615
E: 29661.707352 0003 0001 509
E: 29661.707352 0000 0000 0
E: 29661.717127 0003 002f 0
E: 29661.717127 0003 0035 1674
E: 29661.717127 0003 0036 515
E: 29661.717127 0003 0030 222
E: 29661.717127 0003 0031 207
E: 29661.717127 0003 002f 1
E: 29661.717127 0003 0035 1131
E: 29661.717127 0003 0036 542
E: 29661.717127 0003 0000 1674
E: 29661.717127 0003 0001 515
E: 29661.717127 0000 0000 0
E: 29661.726905 0003 002f 0
E: 29661.726905 0003 0035 1763
E: 29661.726905 0003 0036 512
E: 29661.726905 0003 002f 1
E: 29661.726905 0003 0035 1210
E: 29661.726905 0003 0036 532
E: 29661.726905 0003 001c 2
E: 29661.726905 0003 0031 138
E: 29661.726905 0003 0000 1763
E: 29661.726905 0003 0001 512
E: 29661.726905 0000 0000 0
E: 29661.736632 0003 002f 0
E: 29661.736632 0003 0035 1828
E: 29661.736632 0003 0036 516
E: 29661.736632 0003 001c 3
E: 29661.736632 0003 002f 1
E: 29661.736632 0003 0035 1300
E: 29661.736632 0003 0036 512
E: 29661.736632 0003 003a 50
E: 29661.736632 0003 0031 207
E: 29661.736632 0003 0000 1828
E: 29661.736632 0003 0001 516
E: 29661.736632 0000 0000 0
E: 29661.746477 0003 002f 0
E: 29661.746477 0003 0035 1936
E: 29661.746477 0003 0036 513
E: 29661.746477 0003 001c 4
E: 29661.746477 0003 0030 276
E: 29661.746477 0003 0031 222
E: 29661.746477 0003 002f 1
E: 29661.746477 0003 0035 1390
E: 29661.746477 0003 0036 499
E: 29661.746477 0003 001c 3
E: 29661.746477 0003 0000 1936
E: 29661.746477 0003 0001 513
E: 29661.746477 0000 0000 0
E: 29661.756148 0003 002f 0
E: 29661.756148 0003 0035 1994
E: 29661.756148 0003 0036 516
E: 29661.756148 0003 0030 222
E: 29661.756148 0003 0031 207
E: 29661.756148 0003 002f 1
E: 29661.756148 0003 0035 1472
E: 29661.756148 0003 0036 485
E: 29661.756148 0003 003a 51
E: 29661.756148 0003 0000 1994
E: 29661.756148 0003 0001 516
E: 29661.756148 0000 0000 0
E: 29661.766041 0003 002f 0
E: 29661.766041 0003 0035 2098
E: 29661.766041 0003 0036 511
E: 29661.766041 0003 003a 49
E: 29661.766041 0003 001c 4
E: 29661.766041 0003 0030 276
E: 29661.766041 0003 0031 222
E: 29661.766041 0003 002f 1
E: 29661.766041 0003 0035 1539
E: 29661.766041 0003 0036 473
E: 29661.766041 0003 003a 50
E: 29661.766041 0003 001c 3
E: 29661.766041 0003 0000 2098
E: 29661.766041 0003 0001 511
E: 29661.766041 0003 0018 49
E: 29661.766041 0000 0000 0
E: 29661.775815 0003 002f 0
E: 29661.775815 0003 0035 2180
E: 29661.775815 0003 0036 510
E: 29661.775815 0003 0030 222
E: 29661.775815 0003 0031 207
E: 29661.775815 0003 002f 1
E: 29661.775815 0003 0035 1627
E: 29661.775815 0003 0036 461
E: 29661.775815 0003 003a 51
E: 29661.775815 0003 0000 2180
E: 29661.775815 0003 0001 510
E: 29661.775815 0000 0000 0
E: 29661.785546 0003 002f 0
E: 29661.785546 0003 0035 2256
E: 29661.785546 0003 0036 511
E: 29661.785546 0003 001c 4
E: 29661.785546 0003 0030 276
E: 29661.785546 0003 0031 222
E: 29661.785546 0003 002f 1
E: 29661.785546 0003 0035 1694
E: 29661.785546 0003 0036 459
E: 29661.785546 0003 003a 50
E: 29661.785546 0003 001c 3
E: 29661.785546 0003 0000 2256
E: 29661.785546 0003 0001 511
E: 29661.785546 0000 0000 0
E: 29661.795380 0003 002f 0
E: 29661.795380 0003 0035 2309
E: 29661.795380 0003 0036 517
E: 29661.795380 0003 003a 46
E: 29661.795380 0003 0030 222
E: 29661.795380 0003 0031 207
E: 29661.795380 0003 002f 1
E: 29661.795380 0003 0035 1772
E: 29661.795380 0003 0036 458
E: 29661.795380 0003 0000 2309
E: 29661.795380 0003 0001 517
E: 29661.795380 0003 0018 46
E: 29661.795380 0000 0000 0
E: 29661.805095 0003 002f 0
E: 29661.805095 0003 0035 2354
E: 29661.805095 0003 0036 519
E: 29661.805095 0003 002f 1
E: 29661.805095 0003 0035 1813
E: 29661.805095 0003 0036 460
E: 29661.805095 0003 003a 49
E: 29661.805095 0003 001c 2
E: 29661.805095 0003 0031 138
E: 29661.805095 0003 0000 2354
E: 29661.805095 0003 0001 519
E: 29661.805095 0000 0000 0
E: 29661.814837 0003 002f 0
E: 29661.814837 0003 0035 2402
E: 29661.814837 0003 0036 524
E: 29661.814837 0003 003a 45
E: 29661.814837 0003 001c 3
E: 29661.814837 0003 002f 1
E: 29661.814837 0003 0035 1851
E: 29661.814837 0003 0036 459
E: 29661.814837 0003 001c 4
E: 29661.814837 0003 0030 276
E: 29661.814837 0003 0031 222
E: 29661.814837 0003 0000 2402
E: 29661.814837 0003 0001 524
E: 29661.814837 0003 0018 45
E: 29661.814837 0000 0000 0
E: 29661.824673 0003 002f 0
E: 29661.824673 0003 0035 2446
E: 29661.824673 0003 0036 533
E: 29661.824673 0003 003a 42
E: 29661.824673 0003 001c 3
E: 29661.824673 0003 002f 1
E: 29661.824673 0003 0035 1909
E: 29661.824673 0003 0036 463
E: 29661.824673 0003 003a 48
E: 29661.824673 0003 0030 222
E: 29661.824673 0003 0031 207
E: 29661.824673 0003 0000 2446
E: 29661.824673 0003 0001 533
E: 29661.824673 0003 0018 42
E: 29661.824673 0000 0000 0
E: 29661.834516 0003 002f 0
E: 29661.834516 0003 0035 2490
E: 29661.834516 0003 0036 542
E: 29661.834516 0003 003a 37
E: 29661.834516 0003 0030 207
E: 29661.834516 0003 0031 148
E: 29661.834516 0003 002f 1
E: 29661.834516 0003 0035 1945
E: 29661.834516 0003 0036 466
E: 29661.834516 0003 003a 45
E: 29661.834516 0003 0000 2490
E: 29661.834516 0003 0001 542
E: 29661.834516 0003 0018 37
E: 29661.834516 0000 0000 0
E: 29661.844193 0003 002f 0
E: 29661.844193 0003 0035 2532
E: 29661.844193 0003 0036 551
E: 29661.844193 0003 001c 1
E: 29661.844193 0003 0030 74
E: 29661.844193 0003 0031 69
E: 29661.844193 0003 002f 1
E: 29661.844193 0003 0035 1978
E: 29661.844193 0003 0036 469
E: 29661.844193 0003 001c 2
E: 29661.844193 0003 0030 148
E: 29661.844193 0003 0031 138
E: 29661.844193 0003 0000 2532
E: 29661.844193 0003 0001 551
E: 29661.844193 0000 0000 0
E: 29661.854089 0003 002f 0
E: 29661.854089 0003 0035 2575
E: 29661.854089 0003 0036 560
E: 29661.854089 0003 001c 1
E: 29661.854089 0003 002f 1
E: 29661.854089 0003 0035 1980
E: 29661.854089 0003 0036 463
E: 29661.854089 0003 003a 39
E: 29661.854089 0003 001c 2
E: 29661.854089 0003 0000 2575
E: 29661.854089 0003 0001 560
E: 29661.854089 0000 0000 0
E: 29661.863821 0003 002f 0
E: 29661.863821 0003 0039 -1
E: 29661.863821 0003 002f 1
E: 29661.863821 0003 0036 457
E: 29661.863821 0003 001c 1
E: 29661.863821 0003 0030 74
E: 29661.863821 0003 0031 69
E: 29661.863821 0001 0145 1
E: 29661.863821 0001 014d 0
E: 29661.863821 0003 0000 1980
E: 29661.863821 0003 0001 457
E: 29661.863821 0003 0018 39
E: 29661.863821 0000 0000 0
E: 29661.873534 0003 0039 -1
E: 29661.873534 0001 014a 0
E: 29661.873534 0001 0145 0
E: 29661.873534 0003 0018 0
E: 29661.873534 0000 0000 0
E: 29662.167117 0003 002f 0
E: 29662.167117 0003 0039 221
E: 29662.167117 0003 0035 1441
E: 29662.167117 0003 0036 317
E: 29662.167117 0003 003a 46
E: 29662.167117 0003 001c 3
E: 29662.167117 0003 0030 222
E: 29662.167117 0003 0031 207
E: 29662.167117 0003 002f 1
E: 29662.167117 0003 0039 222
E: 29662.167117 0003 0035 1977
E: 29662.167117 0003 0036 309
E: 29662.167117 0003 003a 48
E: 29662.167117 0003 001c 2
E: 29662.167117 0003 0030 222
E: 29662.167117 0003 0031 138
E: 29662.167117 0001 014a 1
E: 29662.167117 0001 014d 1
E: 29662.167117 0003 0000 1441
E: 29662.167117 0003 0001 317
E: 29662.167117 0003 0018 46
E: 29662.167117 0000 0000 0
E: 29662.176890 0003 001c 3
E: 29662.176890 0003 001c 2
E: 29662.176890 0000 0000 0
E: 29662.186679 0003 002f 0
E: 29662.186679 0003 003a 48
E: 29662.186679 0003 001c 3
E: 29662.186679 0003 001c 2
E: 29662.186679 0003 0018 48
E: 29662.186679 0000 0000 0
E: 29662.196455 0003 003a 49
E: 29662.196455 0003 001c 3
E: 29662.196455 0003 002f 1
E: 29662.196455 0003 003a 49
E: 29662.196455 0003 001c 2
E: 29662.196455 0003 0018 49
E: 29662.196455 0000 0000 0
E: 29662.206245 0003 002f 0
E: 29662.206245 0003 0035 1442
E: 29662.206245 0003 0036 323
E: 29662.206245 0003 003a 50
E: 29662.206245 0003 001c 3
E: 29662.206245 0003 002f 1
E: 29662.206245 0003 0035 1978
E: 29662.206245 0003 0036 314
E: 29662.206245 0003 001c 2
E: 29662.206245 0003 0000 1442
E: 29662.206245 0003 0001 323
E: 29662.206245 0003 0018 50
E: 29662.206245 0000 0000 0
E: 29662.216057 0003 002f 0
E: 29662.216057 0003 0035 1443
E: 29662.216057 0003 0036 332
E: 29662.216057 0003 001c 3
E: 29662.216057 0003 002f 1
E: 29662.216057 0003 0035 1980
E: 29662.216057 0003 0036 320
E: 29662.216057 0003 003a 50
E: 29662.216057 0003 0031 207
E: 29662.216057 0003 0000 1443
E: 29662.216057 0003 0001 332
E: 29662.216057 0000 0000 0
E: 29662.225807 0003 002f 0
E: 29662.225807 0003 0036 344
E: 29662.225807 0003 003a 51
E: 29662.225807 0003 002f 1
E: 29662.225807 0003 0035 1983
E: 29662.225807 0003 0036 330
E: 29662.225807 0003 0001 344
E: 29662.225807 0003 0018 51
E: 29662.225807 0000 0000 0
E: 29662.235530 0003 002f 0
E: 29662.235530 0003 0035 1444
E: 29662.235530 0003 0036 361
E: 29662.235530 0003 002f 1
E: 29662.235530 0003 0035 1986
E: 29662.235530 0003 0036 344
E: 29662.235530 0003 0000 1444
E: 29662.235530 0003 0001 361
E: 29662.235530 0000 0000 0
E: 29662.245367 0003 002f 0
E: 29662.245367 0003 0035 1445
E: 29662.245367 0003 0036 384
E: 29662.245367 0003 002f 1
E: 29662.245367 0003 0035 1989
E: 29662.245367 0003 0036 364
E: 29662.245367 0003 0000 1445
E: 29662.245367 0003 0001 384
E: 29662.245367 0000 0000 0
E: 29662.255151 0003 002f 0
E: 29662.255151 0003 0036 418
E: 29662.255151 0003 0030 296
E: 29662.255151 0003 002f 1
E: 29662.255151 0003 0035 1990
E: 29662.255151 0003 0036 393
E: 29662.255151 0003 0030 296
E: 29662.255151 0003 0001 418
E: 29662.255151 0000 0000 0
E: 29662.264939 0003 002f 0
E: 29662.264939 0003 0035 1446
E: 29662.264939 0003 0036 461
E: 29662.264939 0003 0030 222
E: 29662.264939 0003 002f 1
E: 29662.264939 0003 0035 1991
E: 29662.264939 0003 0036 433
E: 29662.264939 0003 0030 222
E: 29662.264939 0003 0000 1446
E: 29662.264939 0003 0001 461
E: 29662.264939 0000 0000 0
E: 29662.274662 0003 002f 0
E: 29662.274662 0003 0035 1443
E: 29662.274662 0003 0036 518
E: 29662.274662 0003 002f 1
E: 29662.274662 0003 0035 1988
E: 29662.274662 0003 0036 482
E: 29662.274662 0003 0000 1443
E: 29662.274662 0003 0001 518
E: 29662.274662 0000 0000 0
E: 29662.284499 0003 002f 0
E: 29662.284499 0003 0035 1439
E: 29662.284499 0003 0036 595
E: 29662.284499 0003 003a 50
E: 29662.284499 0003 002f 1
E: 29662.284499 0003 0035 1979
E: 29662.284499 0003 0036 546
E: 29662.284499 0003 003a 49
E: 29662.284499 0003 001c 2
E: 29662.284499 0003 0031 138
E: 29662.284499 0003 0000 1439
E: 29662.284499 0003 0001 595
E: 29662.284499 0003 0018 50
E: 29662.284499 0000 0000 0
E: 29662.294284 0003 002f 0
E: 29662.294284 0003 0035 1436
E: 29662.294284 0003 0036 666
E: 29662.294284 0003 001c 3
E: 29662.294284 0003 002f 1
E: 29662.294284 0003 0035 1975
E: 29662.294284 0003 0036 603
E: 29662.294284 0003 001c 2
E: 29662.294284 0003 0000 1436
E: 29662.294284 0003 0001 666
E: 29662.294284 0000 0000 0
E: 29662.304059 0003 002f 0
E: 29662.304059 0003 0035 1431
E: 29662.304059 0003 0036 734
E: 29662.304059 0003 003a 49
E: 29662.304059 0003 001c 4
E: 29662.304059 0003 0030 276
E: 29662.304059 0003 0031 148
E: 29662.304059 0003 002f 1
E: 29662.304059 0003 0035 1970
E: 29662.304059 0003 0036 669
E: 29662.304059 0003 001c 3
E: 29662.304059 0003 0031 207
E: 29662.304059 0003 0000 1431
E: 29662.304059 0003 0001 734
E: 29662.304059 0003 0018 49
E: 29662.304059 0000 0000 0
E: 29662.313764 0003 002f 0
E: 29662.313764 0003 0035 1434
E: 29662.313764 0003 0036 788
E: 29662.313764 0003 0030 222
E: 29662.313764 0003 0031 207
E: 29662.313764 0003 002f 1
E: 29662.313764 0003 0035 1969
E: 29662.313764 0003 0036 737
E: 29662.313764 0003 003a 46
E: 29662.313764 0003 001c 2
E: 29662.313764 0003 0030 148
E: 29662.313764 0003 0031 138
E: 29662.313764 0003 0000 1434
E: 29662.313764 0003 0001 788
E: 29662.313764 0000 0000 0
E: 29662.323521 0003 002f 0
E: 29662.323521 0003 0036 863
E: 29662.323521 0003 003a 46
E: 29662.323521 0003 001c 4
E: 29662.323521 0003 0030 276
E: 29662.323521 0003 0031 222
E: 29662.323521 0003 002f 1
E: 29662.323521 0003 0035 1964
E: 29662.323521 0003 0036 800
E: 29662.323521 0003 001c 3
E: 29662.323521 0003 0030 222
E: 29662.323521 0003 0031 207
E: 29662.323521 0003 0001 863
E: 29662.323521 0003 0018 46
E: 29662.323521 0000 0000 0
E: 29662.333407 0003 002f 0
E: 29662.333407 0003 0036 928
E: 29662.333407 0003 001c 4
E: 29662.333407 0003 002f 1
E: 29662.333407 0003 0035 1961
E: 29662.333407 0003 0036 884
E: 29662.333407 0003 001c 3
E: 29662.333407 0003 0030 207
E: 29662.333407 0003 0031 148
E: 29662.333407 0003 0001 928
E: 29662.333407 0000 0000 0
E: 29662.343198 0003 002f 0
E: 29662.343198 0003 0035 1439
E: 29662.343198 0003 0036 996
E: 29662.343198 0003 003a 45
E: 29662.343198 0003 001c 4
E: 29662.343198 0003 002f 1
E: 29662.343198 0003 0035 1963
E: 29662.343198 0003 0036 939
E: 29662.343198 0003 003a 45
E: 29662.343198 0003 001c 3
E: 29662.343198 0003 0030 222
E: 29662.343198 0003 0031 207
E: 29662.343198 0003 0000 1439
E: 29662.343198 0003 0001 996
E: 29662.343198 0003 0018 45
E: 29662.343198 0000 0000 0
E: 29662.352974 0003 002f 0
E: 29662.352974 0003 0035 1444
E: 29662.352974 0003 0036 1053
E: 29662.352974 0003 001c 4
E: 29662.352974 0003 0031 148
E: 29662.352974 0003 002f 1
E: 29662.352974 0003 0035 1960
E: 29662.352974 0003 0036 1018
E: 29662.352974 0003 003a 44
E: 29662.352974 0003 001c 3
E: 29662.352974 0003 0030 207
E: 29662.352974 0003 0031 148
E: 29662.352974 0003 0000 1444
E: 29662.352974 0003 0001 1053
E: 29662.352974 0000 0000 0
E: 29662.362757 0003 002f 0
E: 29662.362757 0003 0035 1446
E: 29662.362757 0003 0036 1117
E: 29662.362757 0003 003a 43
E: 29662.362757 0003 0030 222
E: 29662.362757 0003 0031 207
E: 29662.362757 0003 002f 1
E: 29662.362757 0003 0035 1965
E: 29662.362757 0003 0036 1075
E: 29662.362757 0003 003a 42
E: 29662.362757 0003 001c 2
E: 29662.362757 0003 0030 148
E: 29662.362757 0003 0031 138
E: 29662.362757 0003 0000 1446
E: 29662.362757 0003 0001 1117
E: 29662.362757 0003 0018 43
E: 29662.362757 0000 0000 0
E: 29662.372488 0003 002f 0
E: 29662.372488 0003 0035 1455
E: 29662.372488 0003 0036 1175
E: 29662.372488 0003 001c 3
E: 29662.372488 0003 0030 207
E: 29662.372488 0003 0031 148
E: 29662.372488 0003 002f 1
E: 29662.372488 0003 0035 1963
E: 29662.372488 0003 0036 1145
E: 29662.372488 0003 003a 41
E: 29662.372488 0003 001c 2
E: 29662.372488 0003 0000 1455
E: 29662.372488 0003 0001 1175
E: 29662.372488 0000 0000 0
E: 29662.382316 0003 002f 0
E: 29662.382316 0003 0035 1464
E: 29662.382316 0003 0036 1233
E: 29662.382316 0003 001c 3
E: 29662.382316 0003 002f 1
E: 29662.382316 0003 0035 1961
E: 29662.382316 0003 0036 1215
E: 29662.382316 0003 001c 1
E: 29662.382316 0003 0030 74
E: 29662.382316 0003 0031 69
E: 29662.382316 0003 0000 1464
E: 29662.382316 0003 0001 1233
E: 29662.382316 0000 0000 0
E: 29662.392117 0003 002f 0
E: 29662.392117 0003 0035 1450
E: 29662.392117 0003 0036 1259
E: 29662.392117 0003 003a 35
E: 29662.392117 0003 001c 3
E: 29662.392117 0003 002f 1
E: 29662.392117 0003 0035 1959
E: 29662.392117 0003 0036 1285
E: 29662.392117 0003 001c 1
E: 29662.392117 0003 0000 1450
E: 29662.392117 0003 0001 1259
E: 29662.392117 0003 0018 35
E: 29662.392117 0000 0000 0
E: 29662.401860 0003 002f 0
E: 29662.401860 0003 0035 1437
E: 29662.401860 0003 0036 1283
E: 29662.401860 0003 0030 74
E: 29662.401860 0003 0031 69
E: 29662.401860 0003 002f 1
E: 29662.401860 0003 0039 -1
E: 29662.401860 0001 0145 1
E: 29662.401860 0001 014d 0
E: 29662.401860 0003 0000 1437
E: 29662.401860 0003 0001 1283
E: 29662.401860 0000 0000 0
E: 29662.411554 0003 002f 0
E: 29662.411554 0003 0039 -1
E: 29662.411554 0001 014a 0
E: 29662.411554 0001 0145 0
E: 29662.411554 0003 0018 0
E: 29662.411554 0000 0000 0
E: 29662.734467 0003 0039 223
E: 29662.734467 0003 0035 2390
E: 29662.734467 0003 0036 702
E: 29662.734467 0003 003a 44
E: 29662.734467 0003 001c 3
E: 29662.734467 0003 0030 222
E: 29662.734467 0003 0031 207
E: 29662.734467 0003 002f 1
E: 29662.734467 0003 0039 224
E: 29662.734467 0003 0035 1861
E: 29662.734467 0003 0036 602
E: 29662.734467 0003 003a 45
E: 29662.734467 0003 001c 4
E: 29662.734467 0003 0030 276
E: 29662.734467 0003 0031 148
E: 29662.734467 0001 014a 1
E: 29662.734467 0001 014d 1
E: 29662.734467 0003 0000 2390
E: 29662.734467 0003 0001 702
E: 29662.734467 0003 0018 44
E: 29662.734467 0000 0000 0
E: 29662.744242 0003 002f 0
E: 29662.744242 0003 0030 276
E: 29662.744242 0003 0031 222
E: 29662.744242 0003 001c 3
E: 29662.744242 0003 002f 1
E: 29662.744242 0003 0030 207
E: 29662.744242 0000 0000 0
E: 29662.754031 0003 001c 4
E: 29662.754031 0003 003a 46
E: 29662.754031 0003 001c 3
E: 29662.754031 0000 0000 0
E: 29662.763802 0003 002f 0
E: 29662.763802 0003 0035 2384
E: 29662.763802 0003 0036 701
E: 29662.763802 0003 003a 45
E: 29662.763802 0003 001c 4
E: 29662.763802 0003 002f 1
E: 29662.763802 0003 0035 1857
E: 29662.763802 0003 001c 3
E: 29662.763802 0003 0000 2384
E: 29662.763802 0003 0001 701
E: 29662.763802 0003 0018 45
E: 29662.763802 0000 0000 0
E: 29662.773535 0003 002f 0
E: 29662.773535 0003 0035 2371
E: 29662.773535 0003 0036 700
E: 29662.773535 0003 001c 4
E: 29662.773535 0003 002f 1
E: 29662.773535 0003 0035 1850
E: 29662.773535 0003 001c 3
E: 29662.773535 0003 0000 2371
E: 29662.773535 0003 0001 700
E: 29662.773535 0000 0000 0
E: 29662.783371 0003 002f 0
E: 29662.783371 0003 0035 2349
E: 29662.783371 0003 0036 699
E: 29662.783371 0003 0030 222
E: 29662.783371 0003 0031 207
E: 29662.783371 0003 002f 1
E: 29662.783371 0003 0035 1839
E: 29662.783371 0003 001c 2
E: 29662.783371 0003 0030 148
E: 29662.783371 0003 0031 138
E: 29662.783371 0003 0000 2349
E: 29662.783371 0003 0001 699
E: 29662.783371 0000 0000 0
E: 29662.793146 0003 002f 0
E: 29662.793146 0003 0035 2321
E: 29662.793146 0003 001c 3
E: 29662.793146 0003 002f 1
E: 29662.793146 0003 0035 1820
E: 29662.793146 0003 0036 605
E: 29662.793146 0003 003a 48
E: 29662.793146 0003 0030 222
E: 29662.793146 0003 0031 207
E: 29662.793146 0003 0000 2321
E: 29662.793146 0000 0000 0
E: 29662.802936 0003 002f 0
E: 29662.802936 0003 0035 2281
E: 29662.802936 0003 002f 1
E: 29662.802936 0003 0035 1781
E: 29662.802936 0003 0036 609
E: 29662.802936 0003 003a 49
E: 29662.802936 0003 001c 4
E: 29662.802936 0003 0030 276
E: 29662.802936 0003 0031 222
E: 29662.802936 0003 0000 2281
E: 29662.802936 0000 0000 0
E: 29662.812609 0003 002f 0
E: 29662.812609 0003 0035 2227
E: 29662.812609 0003 0036 704
E: 29662.812609 0003 003a 46
E: 29662.812609 0003 0030 276
E: 29662.812609 0003 0031 222
E: 29662.812609 0003 002f 1
E: 29662.812609 0003 0035 1727
E: 29662.812609 0003 0036 619
E: 29662.812609 0003 001c 3
E: 29662.812609 0003 0030 222
E: 29662.812609 0003 0031 207
E: 29662.812609 0003 0000 2227
E: 29662.812609 0003 0001 704
E: 29662.812609 0003 0018 46
E: 29662.812609 0000 0000 0
E: 29662.822398 0003 002f 0
E: 29662.822398 0003 0035 2156
E: 29662.822398 0003 0036 715
E: 29662.822398 0003 001c 4
E: 29662.822398 0003 002f 1
E: 29662.822398 0003 0035 1654
E: 29662.822398 0003 0036 635
E: 29662.822398 0003 0030 276
E: 29662.822398 0003 0031 222
E: 29662.822398 0003 0000 2156
E: 29662.822398 0003 0001 715
E: 29662.822398 0000 0000 0
E: 29662.832284 0003 002f 0
E: 29662.832284 0003 0035 2090
E: 29662.832284 0003 0036 724
E: 29662.832284 0003 001c 3
E: 29662.832284 0003 0030 207
E: 29662.832284 0003 0031 148
E: 29662.832284 0003 002f 1
E: 29662.832284 0003 0035 1575
E: 29662.832284 0003 0036 651
E: 29662.832284 0003 001c 4
E: 29662.832284 0003 0000 2090
E: 29662.832284 0003 0001 724
E: 29662.832284 0000 0000 0
E: 29662.842068 0003 002f 0
E: 29662.842068 0003 0035 2015
E: 29662.842068 0003 0036 727
E: 29662.842068 0003 001c 3
E: 29662.842068 0003 002f 1
E: 29662.842068 0003 0035 1519
E: 29662.842068 0003 0036 668
E: 29662.842068 0003 001c 2
E: 29662.842068 0003 0030 222
E: 29662.842068 0003 0031 138
E: 29662.842068 0003 0000 2015
E: 29662.842068 0003 0001 727
E: 29662.842068 0000 0000 0
E: 29662.851844 0003 002f 0
E: 29662.851844 0003 0035 1969
E: 29662.851844 0003 0036 733
E: 29662.851844 0003 001c 3
E: 29662.851844 0003 002f 1
E: 29662.851844 0003 0035 1459
E: 29662.851844 0003 0036 683
E: 29662.851844 0003 001c 4
E: 29662.851844 0003 0030 276
E: 29662.851844 0003 0031 222
E: 29662.851844 0003 0000 1969
E: 29662.851844 0003 0001 733
E: 29662.851844 0000 0000 0
E: 29662.861571 0003 002f 0
E: 29662.861571 0003 0035 1903
E: 29662.861571 0003 0036 736
E: 29662.861571 0003 003a 49
E: 29662.861571 0003 0030 276
E: 29662.861571 0003 002f 1
E: 29662.861571 0003 0035 1379
E: 29662.861571 0003 0036 702
E: 29662.861571 0003 003a 48
E: 29662.861571 0003 001c 3
E: 29662.861571 0003 0030 222
E: 29662.861571 0003 0031 207
E: 29662.861571 0003 0000 1903
E: 29662.861571 0003 0001 736
E: 29662.861571 0003 0018 49
E: 29662.861571 0000 0000 0
E: 29662.871412 0003 002f 0
E: 29662.871412 0003 0035 1821
E: 29662.871412 0003 0036 738
E: 29662.871412 0003 0030 207
E: 29662.871412 0003 002f 1
E: 29662.871412 0003 0035 1297
E: 29662.871412 0003 0036 722
E: 29662.871412 0003 0000 1821
E: 29662.871412 0003 0001 738
E: 29662.871412 0000 0000 0
E: 29662.881185 0003 002f 0
E: 29662.881185 0003 0035 1770
E: 29662.881185 0003 0036 743
E: 29662.881185 0003 001c 4
E: 29662.881185 0003 0030 276
E: 29662.881185 0003 002f 1
E: 29662.881185 0003 0035 1222
E: 29662.881185 0003 0036 737
E: 29662.881185 0003 003a 46
E: 29662.881185 0003 001c 3
E: 29662.881185 0003 0030 207
E: 29662.881185 0003 0031 148
E: 29662.881185 0003 0000 1770
E: 29662.881185 0003 0001 743
E: 29662.881185 0000 0000 0
E: 29662.890969 0003 002f 0
E: 29662.890969 0003 0035 1684
E: 29662.890969 0003 0036 744
E: 29662.890969 0003 0030 207
E: 29662.890969 0003 002f 1
E: 29662.890969 0003 0035 1171
E: 29662.890969 0003 0036 745
E: 29662.890969 0003 003a 48
E: 29662.890969 0003 0000 1684
E: 29662.890969 0003 0001 744
E: 29662.890969 0000 0000 0
E: 29662.900758 0003 002f 0
E: 29662.900758 0003 0035 1629
E: 29662.900758 0003 0036 747
E: 29662.900758 0003 002f 1
E: 29662.900758 0003 0035 1089
E: 29662.900758 0003 0036 757
E: 29662.900758 0003 003a 49
E: 29662.900758 0003 001c 4
E: 29662.900758 0003 0030 276
E: 29662.900758 0003 0031 222
E: 29662.900758 0003 0000 1629
E: 29662.900758 0003 0001 747
E: 29662.900758 0000 0000 0
E: 29662.910478 0003 002f 0
E: 29662.910478 0003 0035 1555
E: 29662.910478 0003 0036 755
E: 29662.910478 0003 003a 48
E: 29662.910478 0003 001c 3
E: 29662.910478 0003 0030 222
E: 29662.910478 0003 0031 207
E: 29662.910478 0003 002f 1
E: 29662.910478 0003 0035 1050
E: 29662.910478 0003 0036 769
E: 29662.910478 0003 0030 222
E: 29662.910478 0003 0031 207
E: 29662.910478 0003 0000 1555
E: 29662.910478 0003 0001 755
E: 29662.910478 0003 0018 48
E: 29662.910478 0000 0000 0
E: 29662.920318 0003 002f 0
E: 29662.920318 0003 0035 1515
E: 29662.920318 0003 0036 758
E: 29662.920318 0003 003a 45
E: 29662.920318 0003 001c 2
E: 29662.920318 0003 0030 148
E: 29662.920318 0003 0031 138
E: 29662.920318 0003 002f 1
E: 29662.920318 0003 0035 1003
E: 29662.920318 0003 0036 777
E: 29662.920318 0003 001c 3
E: 29662.920318 0003 0000 1515
E: 29662.920318 0003 0001 758
E: 29662.920318 0003 0018 45
E: 29662.920318 0000 0000 0
E: 29662.930111 0003 002f 0
E: 29662.930111 0003 0035 1496
E: 29662.930111 0003 0036 764
E: 29662.930111 0003 003a 43
E: 29662.930111 0003 001c 2
E: 29662.930111 0003 002f 1
E: 29662.930111 0003 0035 965
E: 29662.930111 0003 0036 787
E: 29662.930111 0003 003a 46
E: 29662.930111 0003 001c 3
E: 29662.930111 0003 0000 1496
E: 29662.930111 0003 0001 764
E: 29662.930111 0003 0018 43
E: 29662.930111 0000 0000 0
E: 29662.939877 0003 002f 0
E: 29662.939877 0003 0035 1454
E: 29662.939877 0003 0036 775
E: 29662.939877 0003 003a 39
E: 29662.939877 0003 0030 207
E: 29662.939877 0003 0031 148
E: 29662.939877 0003 002f 1
E: 29662.939877 0003 0035 929
E: 29662.939877 0003 0036 807
E: 29662.939877 0003 003a 43
E: 29662.939877 0003 001c 2
E: 29662.939877 0003 0031 138
E: 29662.939877 0003 0000 1454
E: 29662.939877 0003 0001 775
E: 29662.939877 0003 0018 39
E: 29662.939877 0000 0000 0
E: 29662.949661 0003 002f 0
E: 29662.949661 0003 0035 1408
E: 29662.949661 0003 0036 787
E: 29662.949661 0003 001c 1
E: 29662.949661 0003 0030 74
E: 29662.949661 0003 0031 69
E: 29662.949661 0003 002f 1
E: 29662.949661 0003 0035 893
E: 29662.949661 0003 0036 826
E: 29662.949661 0003 001c 2
E: 29662.949661 0003 0000 1408
E: 29662.949661 0003 0001 787
E: 29662.949661 0000 0000 0
E: 29662.959450 0003 002f 0
E: 29662.959450 0003 0035 1362
E: 29662.959450 0003 0036 799
E: 29662.959450 0003 001c 1
E: 29662.959450 0003 002f 1
E: 29662.959450 0003 0035 857
E: 29662.959450 0003 0036 846
E: 29662.959450 0003 0030 74
E: 29662.959450 0003 0031 69
E: 29662.959450 0003 0000 1362
E: 29662.959450 0003 0001 799
E: 29662.959450 0000 0000 0
E: 29662.969179 0003 002f 0
E: 29662.969179 0003 0039 -1
E: 29662.969179 0003 002f 1
E: 29662.969179 0003 0039 -1
E: 29662.969179 0001 014a 0
E: 29662.969179 0001 014d 0
E: 29662.969179 0003 0018 0
E: 29662.969179 0000 0000 0
E: 29662.969679 0003 002f 0
E: 29662.969679 0003 0039 -1
E: 29662.969679 0003 002f 1
E: 29662.969679 0003 0039 -1
E: 29662.969679 0003 002f 2
E: 29662.969679 0003 0039 -1
E: 29662.969679 0003 002f 3
E: 29662.969679 0003 0039 -1
E: 29662.969679 0003 002f 4
E: 29662.969679 0003 0039 -1
