{
  "active": false,
  "name": "testing_bundle_01",
  "note": "flying like an eagle",
  "resources": {
    "complete": {
      "type": "complete",
      "version": "1234.5678"
    },
    "firmware": {
      "type": "firmware",
      "version": "N/A"
    },
    "hwid": {
      "type": "hwid",
      "version": "N/A"
    },
    "netbootCmdline": {
      "type": "netboot_cmdline",
      "version": "N/A"
    },
    "netbootFirmware": {
      "type": "netboot_firmware",
      "version": "N/A"
    },
    "netbootKernel": {
      "type": "netboot_kernel",
      "version": "N/A"
    },
    "releaseImage": {
      "type": "release_image",
      "version": "N/A"
    },
    "testImage": {
      "type": "test_image",
      "version": "N/A"
    },
    "toolkit": {
      "type": "toolkit",
      "version": "5678.1234"
    }
  }
}
