{
  "project": "testing_project",
  "active_bundle_id": "testing_bundle_01",
  "bundles": [
    {
      "id": "testing_bundle_01",
      "note": "flying like an eagle",
      "payloads": "payload-01.json"
    },
    {
      "id": "testing_bundle_02",
      "note": "swimming like a whale",
      "payloads": "payload-02.json"
    },
    {
      "id": "empty_init_bundle",
      "note": "n/a",
      "payloads": "payload-none.json"
    },
    {
      "id": "testing_bundle_03",
      "note": "running like a leopard",
      "payloads": "payload-03.json"
    },
    {
      "id": "testing_bundle_04_with_中文",
      "note": "🐰",
      "payloads": "payload-04.json"
    }
  ],
  "services": {
    "http": {},
    "rsync": {},
    "shop_floor": {}
  }
}
