# device: Elan Touchpad
# bit: 0B 00 00 00 00 00 00 00
# key: 00 00 00 00 00 00 00 00 00 00 00 00 00 00 00 00 00 00 00 00 00 00 00 00 00 00 00 00 00 00 00 00 00 00 01 00 00 00 00 00 20 E5 00 00 00 00 00 00 00 00 00 00 00 00 00 00 00 00 00 00 00 00 00 00 00 00 00 00 00 00 00 00 00 00 00 00 00 00 00 00 00 00 00 00 00 00 00 00 00 00 00 00 00 00 00 00
# rel: 00 00 00 00 00 00 00 00
# abs: 03 00 00 11 00 80 63 06
# led: 00 00 00 00 00 00 00 00
# prp: 05 00 00 00 00 00 00 00
# absinfo: 0 0 3207 0 0 31
# absinfo: 1 0 1791 0 0 31
# absinfo: 24 0 255 0 0 0
# absinfo: 28 0 15 0 0 0
# absinfo: 47 0 4 0 0 0
# absinfo: 48 0 2430 0 0 0
# absinfo: 49 0 2400 0 0 0
# absinfo: 53 0 3207 0 0 31
# absinfo: 54 0 1791 0 0 31
# absinfo: 57 0 65535 0 0 0
# absinfo: 58 0 255 0 0 0
E: 713.944968 0003 002f 0
E: 713.944968 0003 0030 140
E: 713.944968 0003 0031 72
E: 713.944968 0003 0032 0
E: 713.944968 0003 0033 0
E: 713.944968 0003 0034 0
E: 713.944968 0003 0035 2132
E: 713.944968 0003 0036 1790
E: 713.944968 0003 0037 0
E: 713.944968 0003 0038 0
E: 713.944968 0003 0039 21
E: 713.944968 0003 003a 45
E: 713.944968 0003 003b 0
E: 713.944968 0003 002f 1
E: 713.944968 0003 0030 210
E: 713.944968 0003 0031 72
E: 713.944968 0003 0032 0
E: 713.944968 0003 0033 0
E: 713.944968 0003 0034 0
E: 713.944968 0003 0035 1334
E: 713.944968 0003 0036 1790
E: 713.944968 0003 0037 0
E: 713.944968 0003 0038 0
E: 713.944968 0003 0039 22
E: 713.944968 0003 003a 45
E: 713.944968 0003 003b 0
E: 713.944968 0003 002f 2
E: 713.944968 0003 0039 -1
E: 713.944968 0003 002f 3
E: 713.944968 0003 0039 -1
E: 713.944968 0003 002f 4
E: 713.944968 0003 0039 -1
E: 713.944968 0003 002f 1
E: 713.944968 0001 014a 1
E: 713.944968 0001 014d 1
E: 713.944968 0000 0000 0
E: 713.949148 0003 002f 0
E: 713.949148 0003 003a 47
E: 713.949148 0003 001c 2
E: 713.949148 0003 002f 1
E: 713.949148 0003 003a 47
E: 713.949148 0003 001c 3
E: 713.949148 0003 0031 144
E: 713.949148 0003 0018 47
E: 713.949148 0000 0000 0
E: 713.953504 0003 002f 0
E: 713.953504 0003 003a 49
E: 713.953504 0003 0030 210
E: 713.953504 0003 0031 144
E: 713.953504 0003 002f 1
E: 713.953504 0003 003a 49
E: 713.953504 0003 0018 49
E: 713.953504 0000 0000 0
E: 713.959269 0003 002f 0
E: 713.959269 0003 003a 51
E: 713.959269 0003 002f 1
E: 713.959269 0003 003a 50
E: 713.959269 0003 0018 51
E: 713.959269 0000 0000 0
E: 713.965240 0003 002f 0
E: 713.965240 0003 0035 2131
E: 713.965240 0003 0036 1778
E: 713.965240 0003 003a 53
E: 713.965240 0003 002f 1
E: 713.965240 0003 0035 1337
E: 713.965240 0003 0036 1772
E: 713.965240 0003 003a 53
E: 713.965240 0003 0000 2131
E: 713.965240 0003 0001 1778
E: 713.965240 0003 0018 53
E: 713.965240 0000 0000 0
E: 713.971583 0003 002f 0
E: 713.971583 0003 0035 2134
E: 713.971583 0003 0036 1746
E: 713.971583 0003 003a 54
E: 713.971583 0003 001c 2
E: 713.971583 0003 0030 144
E: 713.971583 0003 0031 140
E: 713.971583 0003 002f 1
E: 713.971583 0003 0035 1340
E: 713.971583 0003 0036 1726
E: 713.971583 0003 003a 54
E: 713.971583 0003 001c 3
E: 713.971583 0003 0000 2134
E: 713.971583 0003 0001 1746
E: 713.971583 0003 0018 54
E: 713.971583 0000 0000 0
E: 713.976654 0003 002f 0
E: 713.976654 0003 0035 2135
E: 713.976654 0003 0036 1639
E: 713.976654 0003 003a 57
E: 713.976654 0003 0030 216
E: 713.976654 0003 0031 210
E: 713.976654 0003 002f 1
E: 713.976654 0003 0035 1350
E: 713.976654 0003 0036 1619
E: 713.976654 0003 003a 56
E: 713.976654 0003 0030 216
E: 713.976654 0003 0031 210
E: 713.976654 0003 0000 2135
E: 713.976654 0003 0001 1639
E: 713.976654 0003 0018 57
E: 713.976654 0000 0000 0
E: 713.982602 0003 002f 0
E: 713.982602 0003 0035 2140
E: 713.982602 0003 0036 1588
E: 713.982602 0003 003a 58
E: 713.982602 0003 001c 4
E: 713.982602 0003 0030 280
E: 713.982602 0003 0031 216
E: 713.982602 0003 002f 1
E: 713.982602 0003 0035 1349
E: 713.982602 0003 0036 1578
E: 713.982602 0003 003a 57
E: 713.982602 0003 001c 3
E: 713.982602 0003 0000 2140
E: 713.982602 0003 0001 1588
E: 713.982602 0003 0018 58
E: 713.982602 0000 0000 0
E: 713.988395 0003 002f 0
E: 713.988395 0003 0035 2141
E: 713.988395 0003 0036 1553
E: 713.988395 0003 003a 59
E: 713.988395 0003 001c 4
E: 713.988395 0003 002f 1
E: 713.988395 0003 0035 1353
E: 713.988395 0003 0036 1547
E: 713.988395 0003 001c 3
E: 713.988395 0003 0000 2141
E: 713.988395 0003 0001 1553
E: 713.988395 0003 0018 59
E: 713.988395 0000 0000 0
E: 713.994174 0003 002f 0
E: 713.994174 0003 0035 2146
E: 713.994174 0003 0036 1513
E: 713.994174 0003 003a 58
E: 713.994174 0003 0030 216
E: 713.994174 0003 0031 210
E: 713.994174 0003 002f 1
E: 713.994174 0003 0035 1352
E: 713.994174 0003 0036 1511
E: 713.994174 0003 003a 58
E: 713.994174 0003 0000 2146
E: 713.994174 0003 0001 1513
E: 713.994174 0003 0018 58
E: 713.994174 0000 0000 0
E: 713.999995 0003 002f 0
E: 713.999995 0003 0035 2143
E: 713.999995 0003 0036 1486
E: 713.999995 0003 003a 56
E: 713.999995 0003 001c 2
E: 713.999995 0003 0030 144
E: 713.999995 0003 0031 140
E: 713.999995 0003 002f 1
E: 713.999995 0003 0035 1351
E: 713.999995 0003 0036 1477
E: 713.999995 0003 003a 56
E: 713.999995 0003 001c 3
E: 713.999995 0003 0000 2143
E: 713.999995 0003 0001 1486
E: 713.999995 0003 0018 56
E: 713.999995 0000 0000 0
E: 714.006222 0003 002f 0
E: 714.006222 0003 0035 2148
E: 714.006222 0003 0036 1447
E: 714.006222 0003 003a 58
E: 714.006222 0003 0030 216
E: 714.006222 0003 0031 210
E: 714.006222 0003 002f 1
E: 714.006222 0003 0035 1354
E: 714.006222 0003 0036 1435
E: 714.006222 0003 003a 57
E: 714.006222 0003 0000 2148
E: 714.006222 0003 0001 1447
E: 714.006222 0003 0018 58
E: 714.006222 0000 0000 0
E: 714.011178 0003 002f 0
E: 714.011178 0003 0035 2151
E: 714.011178 0003 0036 1405
E: 714.011178 0003 003a 57
E: 714.011178 0003 002f 1
E: 714.011178 0003 0035 1358
E: 714.011178 0003 0036 1396
E: 714.011178 0003 003a 56
E: 714.011178 0003 0000 2151
E: 714.011178 0003 0001 1405
E: 714.011178 0003 0018 57
E: 714.011178 0000 0000 0
E: 714.017606 0003 002f 0
E: 714.017606 0003 0035 2150
E: 714.017606 0003 0036 1368
E: 714.017606 0003 003a 58
E: 714.017606 0003 002f 1
E: 714.017606 0003 0035 1360
E: 714.017606 0003 0036 1359
E: 714.017606 0003 0000 2150
E: 714.017606 0003 0001 1368
E: 714.017606 0003 0018 58
E: 714.017606 0000 0000 0
E: 714.022707 0003 002f 0
E: 714.022707 0003 0035 2155
E: 714.022707 0003 0036 1326
E: 714.022707 0003 002f 1
E: 714.022707 0003 0035 1361
E: 714.022707 0003 0036 1310
E: 714.022707 0003 0000 2155
E: 714.022707 0003 0001 1326
E: 714.022707 0000 0000 0
E: 714.028501 0003 002f 0
E: 714.028501 0003 0035 2154
E: 714.028501 0003 0036 1293
E: 714.028501 0003 003a 57
E: 714.028501 0003 002f 1
E: 714.028501 0003 0035 1357
E: 714.028501 0003 0036 1276
E: 714.028501 0003 0000 2154
E: 714.028501 0003 0001 1293
E: 714.028501 0003 0018 57
E: 714.028501 0000 0000 0
E: 714.034294 0003 002f 0
E: 714.034294 0003 0035 2158
E: 714.034294 0003 0036 1257
E: 714.034294 0003 002f 1
E: 714.034294 0003 0035 1362
E: 714.034294 0003 0036 1241
E: 714.034294 0003 0000 2158
E: 714.034294 0003 0001 1257
E: 714.034294 0000 0000 0
E: 714.041614 0003 002f 0
E: 714.041614 0003 0035 2154
E: 714.041614 0003 0036 1217
E: 714.041614 0003 003a 58
E: 714.041614 0003 002f 1
E: 714.041614 0003 0036 1204
E: 714.041614 0003 003a 57
E: 714.041614 0003 0000 2154
E: 714.041614 0003 0001 1217
E: 714.041614 0003 0018 58
E: 714.041614 0000 0000 0
E: 714.046116 0003 002f 0
E: 714.046116 0003 0035 2156
E: 714.046116 0003 0036 1181
E: 714.046116 0003 003a 57
E: 714.046116 0003 002f 1
E: 714.046116 0003 0035 1359
E: 714.046116 0003 0036 1173
E: 714.046116 0003 003a 56
E: 714.046116 0003 0000 2156
E: 714.046116 0003 0001 1181
E: 714.046116 0003 0018 57
E: 714.046116 0000 0000 0
E: 714.052025 0003 002f 0
E: 714.052025 0003 0036 1144
E: 714.052025 0003 002f 1
E: 714.052025 0003 0035 1358
E: 714.052025 0003 0036 1130
E: 714.052025 0003 003a 57
E: 714.052025 0003 0001 1144
E: 714.052025 0000 0000 0
E: 714.057807 0003 002f 0
E: 714.057807 0003 0035 2157
E: 714.057807 0003 0036 1100
E: 714.057807 0003 002f 1
E: 714.057807 0003 0035 1361
E: 714.057807 0003 0036 1089
E: 714.057807 0003 0000 2157
E: 714.057807 0003 0001 1100
E: 714.057807 0000 0000 0
E: 714.063390 0003 002f 0
E: 714.063390 0003 0035 2154
E: 714.063390 0003 0036 1063
E: 714.063390 0003 003a 58
E: 714.063390 0003 002f 1
E: 714.063390 0003 0036 1053
E: 714.063390 0003 003a 56
E: 714.063390 0003 0000 2154
E: 714.063390 0003 0001 1063
E: 714.063390 0003 0018 58
E: 714.063390 0000 0000 0
E: 714.069773 0003 002f 0
E: 714.069773 0003 0035 2159
E: 714.069773 0003 0036 1028
E: 714.069773 0003 003a 57
E: 714.069773 0003 002f 1
E: 714.069773 0003 0035 1367
E: 714.069773 0003 0036 1012
E: 714.069773 0003 001c 2
E: 714.069773 0003 0031 140
E: 714.069773 0003 0000 2159
E: 714.069773 0003 0001 1028
E: 714.069773 0003 0018 57
E: 714.069773 0000 0000 0
E: 714.074828 0003 002f 0
E: 714.074828 0003 0035 2166
E: 714.074828 0003 0036 970
E: 714.074828 0003 003a 56
E: 714.074828 0003 001c 3
E: 714.074828 0003 002f 1
E: 714.074828 0003 0035 1361
E: 714.074828 0003 0036 957
E: 714.074828 0003 003a 57
E: 714.074828 0003 0031 210
E: 714.074828 0003 0000 2166
E: 714.074828 0003 0001 970
E: 714.074828 0003 0018 56
E: 714.074828 0000 0000 0
E: 714.080674 0003 002f 0
E: 714.080674 0003 0035 2160
E: 714.080674 0003 0036 934
E: 714.080674 0003 003a 58
E: 714.080674 0003 002f 1
E: 714.080674 0003 0035 1363
E: 714.080674 0003 0036 924
E: 714.080674 0003 0000 2160
E: 714.080674 0003 0001 934
E: 714.080674 0003 0018 58
E: 714.080674 0000 0000 0
E: 714.086477 0003 002f 0
E: 714.086477 0003 0035 2159
E: 714.086477 0003 0036 902
E: 714.086477 0003 002f 1
E: 714.086477 0003 0035 1366
E: 714.086477 0003 0036 895
E: 714.086477 0003 003a 55
E: 714.086477 0003 001c 2
E: 714.086477 0003 0031 140
E: 714.086477 0003 0000 2159
E: 714.086477 0003 0001 902
E: 714.086477 0000 0000 0
E: 714.092197 0003 002f 0
E: 714.092197 0003 0035 2160
E: 714.092197 0003 0036 865
E: 714.092197 0003 003a 57
E: 714.092197 0003 001c 3
E: 714.092197 0003 002f 1
E: 714.092197 0003 0035 1362
E: 714.092197 0003 0036 850
E: 714.092197 0003 003a 56
E: 714.092197 0003 0031 210
E: 714.092197 0003 0000 2160
E: 714.092197 0003 0001 865
E: 714.092197 0003 0018 57
E: 714.092197 0000 0000 0
E: 714.098064 0003 002f 0
E: 714.098064 0003 0035 2167
E: 714.098064 0003 0036 821
E: 714.098064 0003 003a 55
E: 714.098064 0003 002f 1
E: 714.098064 0003 0035 1360
E: 714.098064 0003 0036 805
E: 714.098064 0003 003a 57
E: 714.098064 0003 0000 2167
E: 714.098064 0003 0001 821
E: 714.098064 0003 0018 55
E: 714.098064 0000 0000 0
E: 714.105001 0003 002f 0
E: 714.105001 0003 0035 2161
E: 714.105001 0003 0036 776
E: 714.105001 0003 003a 58
E: 714.105001 0003 002f 1
E: 714.105001 0003 0035 1366
E: 714.105001 0003 0036 761
E: 714.105001 0003 003a 55
E: 714.105001 0003 001c 2
E: 714.105001 0003 0031 140
E: 714.105001 0003 0000 2161
E: 714.105001 0003 0001 776
E: 714.105001 0003 0018 58
E: 714.105001 0000 0000 0
E: 714.109810 0003 002f 0
E: 714.109810 0003 0035 2162
E: 714.109810 0003 0036 739
E: 714.109810 0003 003a 56
E: 714.109810 0003 001c 3
E: 714.109810 0003 0030 210
E: 714.109810 0003 0031 144
E: 714.109810 0003 002f 1
E: 714.109810 0003 0035 1368
E: 714.109810 0003 0036 727
E: 714.109810 0003 003a 56
E: 714.109810 0003 001c 2
E: 714.109810 0003 0000 2162
E: 714.109810 0003 0001 739
E: 714.109810 0003 0018 56
E: 714.109810 0000 0000 0
E: 714.116339 0003 002f 0
E: 714.116339 0003 0035 2166
E: 714.116339 0003 0036 698
E: 714.116339 0003 001c 3
E: 714.116339 0003 0030 216
E: 714.116339 0003 0031 210
E: 714.116339 0003 002f 1
E: 714.116339 0003 0035 1366
E: 714.116339 0003 0036 684
E: 714.116339 0003 001c 2
E: 714.116339 0003 0000 2166
E: 714.116339 0003 0001 698
E: 714.116339 0000 0000 0
E: 714.121415 0003 002f 0
E: 714.121415 0003 0035 2169
E: 714.121415 0003 0036 638
E: 714.121415 0003 003a 57
E: 714.121415 0003 001c 3
E: 714.121415 0003 002f 1
E: 714.121415 0003 0035 1370
E: 714.121415 0003 0036 626
E: 714.121415 0003 001c 2
E: 714.121415 0003 0000 2169
E: 714.121415 0003 0001 638
E: 714.121415 0003 0018 57
E: 714.121415 0000 0000 0
E: 714.127215 0003 002f 0
E: 714.127215 0003 0035 2175
E: 714.127215 0003 0036 604
E: 714.127215 0003 001c 3
E: 714.127215 0003 002f 1
E: 714.127215 0003 0035 1371
E: 714.127215 0003 0036 600
E: 714.127215 0003 001c 2
E: 714.127215 0003 0000 2175
E: 714.127215 0003 0001 604
E: 714.127215 0000 0000 0
E: 714.132981 0003 002f 0
E: 714.132981 0003 0035 2178
E: 714.132981 0003 0036 575
E: 714.132981 0003 001c 3
E: 714.132981 0003 002f 1
E: 714.132981 0003 0035 1373
E: 714.132981 0003 0036 562
E: 714.132981 0003 001c 2
E: 714.132981 0003 0000 2178
E: 714.132981 0003 0001 575
E: 714.132981 0000 0000 0
E: 714.138774 0003 002f 0
E: 714.138774 0003 0035 2186
E: 714.138774 0003 0036 533
E: 714.138774 0003 003a 55
E: 714.138774 0003 001c 3
E: 714.138774 0003 002f 1
E: 714.138774 0003 0035 1376
E: 714.138774 0003 0036 518
E: 714.138774 0003 003a 57
E: 714.138774 0003 001c 2
E: 714.138774 0003 0000 2186
E: 714.138774 0003 0001 533
E: 714.138774 0003 0018 55
E: 714.138774 0000 0000 0
E: 714.145487 0003 002f 0
E: 714.145487 0003 0035 2193
E: 714.145487 0003 0036 483
E: 714.145487 0003 001c 3
E: 714.145487 0003 002f 1
E: 714.145487 0003 0035 1378
E: 714.145487 0003 0036 475
E: 714.145487 0003 003a 56
E: 714.145487 0003 001c 2
E: 714.145487 0003 0000 2193
E: 714.145487 0003 0001 483
E: 714.145487 0000 0000 0
E: 714.150259 0003 002f 0
E: 714.150259 0003 0035 2192
E: 714.150259 0003 0036 447
E: 714.150259 0003 003a 56
E: 714.150259 0003 001c 3
E: 714.150259 0003 0030 210
E: 714.150259 0003 0031 144
E: 714.150259 0003 002f 1
E: 714.150259 0003 0035 1379
E: 714.150259 0003 0036 440
E: 714.150259 0003 003a 55
E: 714.150259 0003 001c 2
E: 714.150259 0003 0030 144
E: 714.150259 0003 0000 2192
E: 714.150259 0003 0001 447
E: 714.150259 0003 0018 56
E: 714.150259 0000 0000 0
E: 714.155897 0003 002f 0
E: 714.155897 0003 0035 2204
E: 714.155897 0003 0036 417
E: 714.155897 0003 001c 3
E: 714.155897 0003 0030 216
E: 714.155897 0003 0031 210
E: 714.155897 0003 002f 1
E: 714.155897 0003 0035 1382
E: 714.155897 0003 0036 400
E: 714.155897 0003 001c 2
E: 714.155897 0003 0030 216
E: 714.155897 0003 0000 2204
E: 714.155897 0003 0001 417
E: 714.155897 0000 0000 0
E: 714.162337 0003 002f 0
E: 714.162337 0003 0035 2206
E: 714.162337 0003 0036 376
E: 714.162337 0003 001c 3
E: 714.162337 0003 002f 1
E: 714.162337 0003 0035 1387
E: 714.162337 0003 0036 356
E: 714.162337 0003 003a 56
E: 714.162337 0003 001c 2
E: 714.162337 0003 0000 2206
E: 714.162337 0003 0001 376
E: 714.162337 0000 0000 0
E: 714.167474 0003 002f 0
E: 714.167474 0003 0035 2211
E: 714.167474 0003 0036 318
E: 714.167474 0003 001c 3
E: 714.167474 0003 002f 1
E: 714.167474 0003 0036 307
E: 714.167474 0003 003a 55
E: 714.167474 0003 001c 2
E: 714.167474 0003 0000 2211
E: 714.167474 0003 0001 318
E: 714.167474 0000 0000 0
E: 714.173268 0003 002f 0
E: 714.173268 0003 0035 2210
E: 714.173268 0003 0036 293
E: 714.173268 0003 003a 55
E: 714.173268 0003 001c 3
E: 714.173268 0003 0030 210
E: 714.173268 0003 0031 144
E: 714.173268 0003 002f 1
E: 714.173268 0003 0035 1389
E: 714.173268 0003 0036 278
E: 714.173268 0003 001c 2
E: 714.173268 0003 0000 2210
E: 714.173268 0003 0001 293
E: 714.173268 0003 0018 55
E: 714.173268 0000 0000 0
E: 714.179051 0003 002f 0
E: 714.179051 0003 0035 2216
E: 714.179051 0003 0036 261
E: 714.179051 0003 003a 57
E: 714.179051 0003 001c 3
E: 714.179051 0003 0030 216
E: 714.179051 0003 0031 210
E: 714.179051 0003 002f 1
E: 714.179051 0003 0035 1388
E: 714.179051 0003 0036 241
E: 714.179051 0003 003a 56
E: 714.179051 0003 001c 2
E: 714.179051 0003 0000 2216
E: 714.179051 0003 0001 261
E: 714.179051 0003 0018 57
E: 714.179051 0000 0000 0
E: 714.185926 0003 002f 0
E: 714.185926 0003 0035 2221
E: 714.185926 0003 0036 219
E: 714.185926 0003 003a 58
E: 714.185926 0003 001c 3
E: 714.185926 0003 002f 1
E: 714.185926 0003 0035 1392
E: 714.185926 0003 0036 199
E: 714.185926 0003 001c 2
E: 714.185926 0003 0000 2221
E: 714.185926 0003 0001 219
E: 714.185926 0003 0018 58
E: 714.185926 0000 0000 0
E: 714.191070 0003 002f 0
E: 714.191070 0003 0036 173
E: 714.191070 0003 003a 57
E: 714.191070 0003 001c 3
E: 714.191070 0003 002f 1
E: 714.191070 0003 0035 1391
E: 714.191070 0003 0036 162
E: 714.191070 0003 003a 55
E: 714.191070 0003 001c 2
E: 714.191070 0003 0001 173
E: 714.191070 0003 0018 57
E: 714.191070 0000 0000 0
E: 714.196959 0003 002f 0
E: 714.196959 0003 0035 2223
E: 714.196959 0003 0036 132
E: 714.196959 0003 001c 3
E: 714.196959 0003 002f 1
E: 714.196959 0003 0035 1390
E: 714.196959 0003 0036 105
E: 714.196959 0003 001c 2
E: 714.196959 0003 0030 144
E: 714.196959 0003 0000 2223
E: 714.196959 0003 0001 132
E: 714.196959 0000 0000 0
E: 714.202832 0003 002f 0
E: 714.202832 0003 0035 2225
E: 714.202832 0003 0036 70
E: 714.202832 0003 003a 55
E: 714.202832 0003 001c 3
E: 714.202832 0003 0030 210
E: 714.202832 0003 0031 144
E: 714.202832 0003 002f 1
E: 714.202832 0003 0035 1394
E: 714.202832 0003 0036 63
E: 714.202832 0003 003a 54
E: 714.202832 0003 0030 210
E: 714.202832 0003 0031 144
E: 714.202832 0003 0000 2225
E: 714.202832 0003 0001 70
E: 714.202832 0003 0018 55
E: 714.202832 0000 0000 0
E: 714.208012 0003 002f 0
E: 714.208012 0003 0035 2227
E: 714.208012 0003 0036 36
E: 714.208012 0003 003a 53
E: 714.208012 0003 002f 1
E: 714.208012 0003 0035 1400
E: 714.208012 0003 0036 34
E: 714.208012 0003 003a 53
E: 714.208012 0003 0000 2227
E: 714.208012 0003 0001 36
E: 714.208012 0003 0018 53
E: 714.208012 0000 0000 0
E: 714.213841 0003 002f 0
E: 714.213841 0003 0035 2229
E: 714.213841 0003 0036 10
E: 714.213841 0003 003a 51
E: 714.213841 0003 002f 1
E: 714.213841 0003 0036 12
E: 714.213841 0003 003a 50
E: 714.213841 0003 0000 2229
E: 714.213841 0003 0001 10
E: 714.213841 0003 0018 51
E: 714.213841 0000 0000 0
E: 714.219587 0003 002f 0
E: 714.219587 0003 0035 2233
E: 714.219587 0003 0036 0
E: 714.219587 0003 003a 48
E: 714.219587 0003 0031 72
E: 714.219587 0003 002f 1
E: 714.219587 0003 0035 1405
E: 714.219587 0003 0036 0
E: 714.219587 0003 003a 47
E: 714.219587 0003 0000 2233
E: 714.219587 0003 0001 0
E: 714.219587 0003 0018 48
E: 714.219587 0000 0000 0
E: 714.225382 0003 002f 0
E: 714.225382 0003 0035 2235
E: 714.225382 0003 003a 47
E: 714.225382 0003 002f 1
E: 714.225382 0003 0035 1399
E: 714.225382 0003 003a 45
E: 714.225382 0003 001c 2
E: 714.225382 0003 0030 140
E: 714.225382 0003 0031 72
E: 714.225382 0003 0000 2235
E: 714.225382 0003 0018 47
E: 714.225382 0000 0000 0
E: 714.231229 0003 002f 0
E: 714.231229 0003 0035 2240
E: 714.231229 0003 003a 45
E: 714.231229 0003 001c 3
E: 714.231229 0003 002f 1
E: 714.231229 0003 0035 1403
E: 714.231229 0003 003a 43
E: 714.231229 0003 001c 2
E: 714.231229 0003 0000 2240
E: 714.231229 0003 0018 45
E: 714.231229 0000 0000 0
E: 714.237037 0003 001c 1
E: 714.237037 0003 002f 0
E: 714.237037 0003 0030 72
E: 714.237037 0003 0031 70
E: 714.237037 0003 002f 1
E: 714.237037 0003 0030 72
E: 714.237037 0003 0031 70
E: 714.237037 0000 0000 0
E: 714.242897 0003 002f 0
E: 714.242897 0003 0039 -1
E: 714.242897 0003 002f 1
E: 714.242897 0003 0039 -1
E: 714.242897 0001 014a 0
E: 714.242897 0001 014d 0
E: 714.242897 0003 0018 0
E: 714.242897 0000 0000 0
E: 715.092746 0003 002f 0
E: 715.092746 0003 0039 23
E: 715.092746 0003 0035 0
E: 715.092746 0003 0036 899
E: 715.092746 0003 003a 47
E: 715.092746 0003 0030 144
E: 715.092746 0001 014a 1
E: 715.092746 0001 0145 1
E: 715.092746 0003 0000 0
E: 715.092746 0003 0001 899
E: 715.092746 0003 0018 47
E: 715.092746 0000 0000 0
E: 715.097141 0003 003a 50
E: 715.097141 0003 001c 2
E: 715.097141 0003 0031 140
E: 715.097141 0003 0018 50
E: 715.097141 0000 0000 0
E: 715.102595 0003 0035 13
E: 715.102595 0003 0036 900
E: 715.102595 0003 003a 52
E: 715.102595 0003 0000 13
E: 715.102595 0003 0001 900
E: 715.102595 0003 0018 52
E: 715.102595 0000 0000 0
E: 715.107787 0003 0035 58
E: 715.107787 0003 003a 55
E: 715.107787 0003 0000 58
E: 715.107787 0003 0018 55
E: 715.107787 0000 0000 0
E: 715.112373 0003 0035 162
E: 715.112373 0003 0036 904
E: 715.112373 0003 003a 56
E: 715.112373 0003 001c 3
E: 715.112373 0003 0030 216
E: 715.112373 0003 0031 210
E: 715.112373 0003 0000 162
E: 715.112373 0003 0001 904
E: 715.112373 0003 0018 56
E: 715.112373 0000 0000 0
E: 715.117623 0003 0035 244
E: 715.117623 0003 002f 1
E: 715.117623 0003 0039 24
E: 715.117623 0003 0035 0
E: 715.117623 0003 0036 1410
E: 715.117623 0003 003a 47
E: 715.117623 0003 001c 1
E: 715.117623 0003 0030 216
E: 715.117623 0001 0145 0
E: 715.117623 0001 014d 1
E: 715.117623 0003 0000 244
E: 715.117623 0000 0000 0
E: 715.123112 0003 002f 0
E: 715.123112 0003 0035 285
E: 715.123112 0003 0036 899
E: 715.123112 0003 003a 57
E: 715.123112 0003 001c 2
E: 715.123112 0003 0030 144
E: 715.123112 0003 0031 140
E: 715.123112 0003 002f 1
E: 715.123112 0003 003a 50
E: 715.123112 0003 0031 140
E: 715.123112 0003 0000 285
E: 715.123112 0003 0001 899
E: 715.123112 0003 0018 57
E: 715.123112 0000 0000 0
E: 715.130316 0003 002f 0
E: 715.130316 0003 0035 310
E: 715.130316 0003 0036 902
E: 715.130316 0003 0030 216
E: 715.130316 0003 002f 1
E: 715.130316 0003 0035 35
E: 715.130316 0003 0036 1412
E: 715.130316 0003 003a 53
E: 715.130316 0003 0000 310
E: 715.130316 0003 0001 902
E: 715.130316 0000 0000 0
E: 715.135446 0003 002f 0
E: 715.135446 0003 0035 384
E: 715.135446 0003 0036 900
E: 715.135446 0003 003a 56
E: 715.135446 0003 001c 3
E: 715.135446 0003 0030 210
E: 715.135446 0003 0031 144
E: 715.135446 0003 002f 1
E: 715.135446 0003 0035 183
E: 715.135446 0003 001c 2
E: 715.135446 0003 0000 384
E: 715.135446 0003 0001 900
E: 715.135446 0003 0018 56
E: 715.135446 0000 0000 0
E: 715.140749 0003 002f 0
E: 715.140749 0003 0035 446
E: 715.140749 0003 0036 903
E: 715.140749 0003 003a 57
E: 715.140749 0003 001c 3
E: 715.140749 0003 0030 216
E: 715.140749 0003 0031 210
E: 715.140749 0003 002f 1
E: 715.140749 0003 0035 245
E: 715.140749 0003 0036 1408
E: 715.140749 0003 003a 52
E: 715.140749 0003 0031 210
E: 715.140749 0003 0000 446
E: 715.140749 0003 0001 903
E: 715.140749 0003 0018 57
E: 715.140749 0000 0000 0
E: 715.146247 0003 002f 0
E: 715.146247 0003 0035 487
E: 715.146247 0003 0036 901
E: 715.146247 0003 003a 58
E: 715.146247 0003 002f 1
E: 715.146247 0003 0035 287
E: 715.146247 0003 0036 1407
E: 715.146247 0003 003a 53
E: 715.146247 0003 001c 2
E: 715.146247 0003 0031 140
E: 715.146247 0003 0000 487
E: 715.146247 0003 0001 901
E: 715.146247 0003 0018 58
E: 715.146247 0000 0000 0
E: 715.152042 0003 002f 0
E: 715.152042 0003 0035 556
E: 715.152042 0003 0036 899
E: 715.152042 0003 003a 57
E: 715.152042 0003 001c 3
E: 715.152042 0003 002f 1
E: 715.152042 0003 0035 319
E: 715.152042 0003 0036 1401
E: 715.152042 0003 003a 51
E: 715.152042 0003 001c 2
E: 715.152042 0003 0000 556
E: 715.152042 0003 0001 899
E: 715.152042 0003 0018 57
E: 715.152042 0000 0000 0
E: 715.157844 0003 002f 0
E: 715.157844 0003 0035 601
E: 715.157844 0003 0036 893
E: 715.157844 0003 003a 56
E: 715.157844 0003 0030 144
E: 715.157844 0003 0031 140
E: 715.157844 0003 002f 1
E: 715.157844 0003 0035 375
E: 715.157844 0003 0036 1402
E: 715.157844 0003 001c 3
E: 715.157844 0003 0031 210
E: 715.157844 0003 0000 601
E: 715.157844 0003 0001 893
E: 715.157844 0003 0018 56
E: 715.157844 0000 0000 0
E: 715.163643 0003 002f 0
E: 715.163643 0003 0035 632
E: 715.163643 0003 0036 891
E: 715.163643 0003 003a 57
E: 715.163643 0003 0030 210
E: 715.163643 0003 0031 144
E: 715.163643 0003 002f 1
E: 715.163643 0003 0035 444
E: 715.163643 0003 0036 1394
E: 715.163643 0003 003a 53
E: 715.163643 0003 001c 2
E: 715.163643 0003 0031 140
E: 715.163643 0003 0000 632
E: 715.163643 0003 0001 891
E: 715.163643 0003 0018 57
E: 715.163643 0000 0000 0
E: 715.169443 0003 002f 0
E: 715.169443 0003 0035 716
E: 715.169443 0003 0036 889
E: 715.169443 0003 003a 56
E: 715.169443 0003 001c 3
E: 715.169443 0003 002f 1
E: 715.169443 0003 0035 493
E: 715.169443 0003 0036 1389
E: 715.169443 0003 003a 51
E: 715.169443 0003 0031 210
E: 715.169443 0003 0000 716
E: 715.169443 0003 0001 889
E: 715.169443 0003 0018 56
E: 715.169443 0000 0000 0
E: 715.176346 0003 002f 0
E: 715.176346 0003 0035 767
E: 715.176346 0003 0036 881
E: 715.176346 0003 003a 57
E: 715.176346 0003 001c 2
E: 715.176346 0003 0030 216
E: 715.176346 0003 0031 140
E: 715.176346 0003 002f 1
E: 715.176346 0003 0035 569
E: 715.176346 0003 0036 1382
E: 715.176346 0003 003a 52
E: 715.176346 0003 0031 140
E: 715.176346 0003 0000 767
E: 715.176346 0003 0001 881
E: 715.176346 0003 0018 57
E: 715.176346 0000 0000 0
E: 715.181928 0003 002f 0
E: 715.181928 0003 0035 854
E: 715.181928 0003 0036 875
E: 715.181928 0003 001c 3
E: 715.181928 0003 0031 210
E: 715.181928 0003 002f 1
E: 715.181928 0003 0035 620
E: 715.181928 0003 0036 1371
E: 715.181928 0003 003a 53
E: 715.181928 0003 001c 2
E: 715.181928 0003 0000 854
E: 715.181928 0003 0001 875
E: 715.181928 0000 0000 0
E: 715.187420 0003 002f 0
E: 715.187420 0003 0035 911
E: 715.187420 0003 0036 872
E: 715.187420 0003 003a 58
E: 715.187420 0003 0031 140
E: 715.187420 0003 002f 1
E: 715.187420 0003 0035 680
E: 715.187420 0003 0036 1375
E: 715.187420 0003 001c 3
E: 715.187420 0003 0031 210
E: 715.187420 0003 0000 911
E: 715.187420 0003 0001 872
E: 715.187420 0003 0018 58
E: 715.187420 0000 0000 0
E: 715.192965 0003 002f 0
E: 715.192965 0003 0035 949
E: 715.192965 0003 0036 867
E: 715.192965 0003 003a 56
E: 715.192965 0003 0031 210
E: 715.192965 0003 002f 1
E: 715.192965 0003 0035 748
E: 715.192965 0003 0036 1370
E: 715.192965 0003 003a 54
E: 715.192965 0003 001c 2
E: 715.192965 0003 0031 140
E: 715.192965 0003 0000 949
E: 715.192965 0003 0001 867
E: 715.192965 0003 0018 56
E: 715.192965 0000 0000 0
E: 715.198501 0003 002f 0
E: 715.198501 0003 0035 1034
E: 715.198501 0003 0036 863
E: 715.198501 0003 003a 57
E: 715.198501 0003 001c 3
E: 715.198501 0003 002f 1
E: 715.198501 0003 0035 796
E: 715.198501 0003 0036 1360
E: 715.198501 0003 003a 52
E: 715.198501 0003 001c 2
E: 715.198501 0003 0030 144
E: 715.198501 0003 0000 1034
E: 715.198501 0003 0001 863
E: 715.198501 0003 0018 57
E: 715.198501 0000 0000 0
E: 715.204040 0003 002f 0
E: 715.204040 0003 0035 1079
E: 715.204040 0003 0036 859
E: 715.204040 0003 003a 59
E: 715.204040 0003 001c 3
E: 715.204040 0003 002f 1
E: 715.204040 0003 0035 882
E: 715.204040 0003 0036 1358
E: 715.204040 0003 003a 53
E: 715.204040 0003 001c 2
E: 715.204040 0003 0030 216
E: 715.204040 0003 0000 1079
E: 715.204040 0003 0001 859
E: 715.204040 0003 0018 59
E: 715.204040 0000 0000 0
E: 715.209646 0003 002f 0
E: 715.209646 0003 0035 1147
E: 715.209646 0003 0036 856
E: 715.209646 0003 003a 55
E: 715.209646 0003 001c 3
E: 715.209646 0003 002f 1
E: 715.209646 0003 0035 920
E: 715.209646 0003 0036 1352
E: 715.209646 0003 001c 2
E: 715.209646 0003 0030 144
E: 715.209646 0003 0000 1147
E: 715.209646 0003 0001 856
E: 715.209646 0003 0018 55
E: 715.209646 0000 0000 0
E: 715.215675 0003 002f 0
E: 715.215675 0003 0035 1211
E: 715.215675 0003 0036 853
E: 715.215675 0003 003a 57
E: 715.215675 0003 0031 140
E: 715.215675 0003 002f 1
E: 715.215675 0003 0035 969
E: 715.215675 0003 0036 1354
E: 715.215675 0003 001c 3
E: 715.215675 0003 0030 216
E: 715.215675 0003 0031 210
E: 715.215675 0003 0000 1211
E: 715.215675 0003 0001 853
E: 715.215675 0003 0018 57
E: 715.215675 0000 0000 0
E: 715.221525 0003 002f 0
E: 715.221525 0003 0035 1254
E: 715.221525 0003 0036 846
E: 715.221525 0003 0031 210
E: 715.221525 0003 002f 1
E: 715.221525 0003 0035 1045
E: 715.221525 0003 0036 1351
E: 715.221525 0003 003a 55
E: 715.221525 0003 0000 1254
E: 715.221525 0003 0001 846
E: 715.221525 0000 0000 0
E: 715.228722 0003 002f 0
E: 715.228722 0003 0035 1335
E: 715.228722 0003 0036 841
E: 715.228722 0003 003a 56
E: 715.228722 0003 002f 1
E: 715.228722 0003 0035 1100
E: 715.228722 0003 0036 1346
E: 715.228722 0003 003a 54
E: 715.228722 0003 0030 210
E: 715.228722 0003 0031 144
E: 715.228722 0003 0000 1335
E: 715.228722 0003 0001 841
E: 715.228722 0003 0018 56
E: 715.228722 0000 0000 0
E: 715.234354 0003 002f 0
E: 715.234354 0003 0035 1397
E: 715.234354 0003 001c 2
E: 715.234354 0003 0031 140
E: 715.234354 0003 002f 1
E: 715.234354 0003 0035 1192
E: 715.234354 0003 0036 1345
E: 715.234354 0003 0030 216
E: 715.234354 0003 0031 140
E: 715.234354 0003 0000 1397
E: 715.234354 0000 0000 0
E: 715.239049 0003 002f 0
E: 715.239049 0003 0035 1463
E: 715.239049 0003 0036 833
E: 715.239049 0003 003a 55
E: 715.239049 0003 001c 3
E: 715.239049 0003 0031 210
E: 715.239049 0003 002f 1
E: 715.239049 0003 0035 1233
E: 715.239049 0003 0036 1342
E: 715.239049 0003 003a 53
E: 715.239049 0003 001c 2
E: 715.239049 0003 0030 144
E: 715.239049 0003 0000 1463
E: 715.239049 0003 0001 833
E: 715.239049 0003 0018 55
E: 715.239049 0000 0000 0
E: 715.244387 0003 002f 0
E: 715.244387 0003 0035 1525
E: 715.244387 0003 0036 831
E: 715.244387 0003 003a 53
E: 715.244387 0003 0031 140
E: 715.244387 0003 002f 1
E: 715.244387 0003 0035 1296
E: 715.244387 0003 0036 1340
E: 715.244387 0003 001c 3
E: 715.244387 0003 0030 210
E: 715.244387 0003 0031 144
E: 715.244387 0003 0000 1525
E: 715.244387 0003 0001 831
E: 715.244387 0003 0018 53
E: 715.244387 0000 0000 0
E: 715.250274 0003 002f 0
E: 715.250274 0003 0035 1597
E: 715.250274 0003 0036 830
E: 715.250274 0003 003a 56
E: 715.250274 0003 0031 210
E: 715.250274 0003 002f 1
E: 715.250274 0003 0035 1362
E: 715.250274 0003 0036 1338
E: 715.250274 0003 001c 2
E: 715.250274 0003 0030 144
E: 715.250274 0003 0031 140
E: 715.250274 0003 0000 1597
E: 715.250274 0003 0001 830
E: 715.250274 0003 0018 56
E: 715.250274 0000 0000 0
E: 715.255961 0003 002f 0
E: 715.255961 0003 0035 1666
E: 715.255961 0003 0036 827
E: 715.255961 0003 003a 55
E: 715.255961 0003 0031 140
E: 715.255961 0003 002f 1
E: 715.255961 0003 0035 1403
E: 715.255961 0003 0000 1666
E: 715.255961 0003 0001 827
E: 715.255961 0003 0018 55
E: 715.255961 0000 0000 0
E: 715.261812 0003 002f 0
E: 715.261812 0003 0035 1713
E: 715.261812 0003 002f 1
E: 715.261812 0003 0035 1486
E: 715.261812 0003 0036 1333
E: 715.261812 0003 003a 52
E: 715.261812 0003 0000 1713
E: 715.261812 0000 0000 0
E: 715.267545 0003 002f 0
E: 715.267545 0003 0035 1785
E: 715.267545 0003 0036 825
E: 715.267545 0003 001c 3
E: 715.267545 0003 0031 210
E: 715.267545 0003 002f 1
E: 715.267545 0003 0035 1539
E: 715.267545 0003 0036 1334
E: 715.267545 0003 001c 2
E: 715.267545 0003 0000 1785
E: 715.267545 0003 0001 825
E: 715.267545 0000 0000 0
E: 715.275214 0003 002f 0
E: 715.275214 0003 0035 1858
E: 715.275214 0003 001c 3
E: 715.275214 0003 002f 1
E: 715.275214 0003 0035 1613
E: 715.275214 0003 0036 1329
E: 715.275214 0003 003a 50
E: 715.275214 0003 0030 210
E: 715.275214 0003 0031 144
E: 715.275214 0003 0000 1858
E: 715.275214 0000 0000 0
E: 715.280368 0003 002f 0
E: 715.280368 0003 0035 1952
E: 715.280368 0003 0036 822
E: 715.280368 0003 003a 56
E: 715.280368 0003 002f 1
E: 715.280368 0003 0035 1690
E: 715.280368 0003 0036 1332
E: 715.280368 0003 003a 52
E: 715.280368 0003 001c 2
E: 715.280368 0003 0030 144
E: 715.280368 0003 0031 140
E: 715.280368 0003 0000 1952
E: 715.280368 0003 0001 822
E: 715.280368 0003 0018 56
E: 715.280368 0000 0000 0
E: 715.285618 0003 002f 0
E: 715.285618 0003 0035 2010
E: 715.285618 0003 003a 55
E: 715.285618 0003 0031 140
E: 715.285618 0003 002f 1
E: 715.285618 0003 0035 1751
E: 715.285618 0003 0036 1327
E: 715.285618 0003 003a 50
E: 715.285618 0003 001c 3
E: 715.285618 0003 0030 210
E: 715.285618 0003 0031 144
E: 715.285618 0003 0000 2010
E: 715.285618 0003 0018 55
E: 715.285618 0000 0000 0
E: 715.291411 0003 002f 0
E: 715.291411 0003 0035 2071
E: 715.291411 0003 0036 823
E: 715.291411 0003 0031 210
E: 715.291411 0003 002f 1
E: 715.291411 0003 0035 1827
E: 715.291411 0003 0036 1329
E: 715.291411 0003 003a 52
E: 715.291411 0003 001c 2
E: 715.291411 0003 0030 144
E: 715.291411 0003 0031 140
E: 715.291411 0003 0000 2071
E: 715.291411 0003 0001 823
E: 715.291411 0000 0000 0
E: 715.296745 0003 002f 0
E: 715.296745 0003 0035 2139
E: 715.296745 0003 0036 822
E: 715.296745 0003 003a 58
E: 715.296745 0003 0031 140
E: 715.296745 0003 002f 1
E: 715.296745 0003 0035 1892
E: 715.296745 0003 0036 1327
E: 715.296745 0003 003a 51
E: 715.296745 0003 001c 3
E: 715.296745 0003 0030 210
E: 715.296745 0003 0031 144
E: 715.296745 0003 0000 2139
E: 715.296745 0003 0001 822
E: 715.296745 0003 0018 58
E: 715.296745 0000 0000 0
E: 715.302524 0003 002f 0
E: 715.302524 0003 0035 2206
E: 715.302524 0003 0036 824
E: 715.302524 0003 003a 55
E: 715.302524 0003 0031 210
E: 715.302524 0003 002f 1
E: 715.302524 0003 0035 1961
E: 715.302524 0003 0036 1328
E: 715.302524 0003 003a 52
E: 715.302524 0003 001c 2
E: 715.302524 0003 0030 144
E: 715.302524 0003 0031 140
E: 715.302524 0003 0000 2206
E: 715.302524 0003 0001 824
E: 715.302524 0003 0018 55
E: 715.302524 0000 0000 0
E: 715.308328 0003 002f 0
E: 715.308328 0003 0035 2273
E: 715.308328 0003 0036 823
E: 715.308328 0003 003a 56
E: 715.308328 0003 0031 140
E: 715.308328 0003 002f 1
E: 715.308328 0003 0035 2011
E: 715.308328 0003 0036 1326
E: 715.308328 0003 003a 53
E: 715.308328 0003 0030 216
E: 715.308328 0003 0000 2273
E: 715.308328 0003 0001 823
E: 715.308328 0003 0018 56
E: 715.308328 0000 0000 0
E: 715.314123 0003 002f 0
E: 715.314123 0003 0035 2340
E: 715.314123 0003 0036 826
E: 715.314123 0003 003a 55
E: 715.314123 0003 001c 3
E: 715.314123 0003 0031 210
E: 715.314123 0003 002f 1
E: 715.314123 0003 0035 2089
E: 715.314123 0003 0036 1321
E: 715.314123 0003 0031 210
E: 715.314123 0003 0000 2340
E: 715.314123 0003 0001 826
E: 715.314123 0003 0018 55
E: 715.314123 0000 0000 0
E: 715.320993 0003 002f 0
E: 715.320993 0003 0035 2418
E: 715.320993 0003 0036 825
E: 715.320993 0003 003a 57
E: 715.320993 0003 002f 1
E: 715.320993 0003 0035 2153
E: 715.320993 0003 0036 1329
E: 715.320993 0003 001c 2
E: 715.320993 0003 0030 144
E: 715.320993 0003 0031 140
E: 715.320993 0003 0000 2418
E: 715.320993 0003 0001 825
E: 715.320993 0003 0018 57
E: 715.320993 0000 0000 0
E: 715.326302 0003 002f 0
E: 715.326302 0003 0035 2509
E: 715.326302 0003 0036 824
E: 715.326302 0003 003a 54
E: 715.326302 0003 001c 3
E: 715.326302 0003 002f 1
E: 715.326302 0003 0035 2256
E: 715.326302 0003 0036 1323
E: 715.326302 0003 001c 2
E: 715.326302 0003 0030 216
E: 715.326302 0003 0000 2509
E: 715.326302 0003 0001 824
E: 715.326302 0003 0018 54
E: 715.326302 0000 0000 0
E: 715.331632 0003 002f 0
E: 715.331632 0003 0035 2575
E: 715.331632 0003 0036 821
E: 715.331632 0003 003a 55
E: 715.331632 0003 0031 140
E: 715.331632 0003 002f 1
E: 715.331632 0003 0035 2304
E: 715.331632 0003 0036 1329
E: 715.331632 0003 0030 144
E: 715.331632 0003 0000 2575
E: 715.331632 0003 0001 821
E: 715.331632 0003 0018 55
E: 715.331632 0000 0000 0
E: 715.337020 0003 002f 0
E: 715.337020 0003 0035 2631
E: 715.337020 0003 0036 828
E: 715.337020 0003 001c 3
E: 715.337020 0003 0031 210
E: 715.337020 0003 002f 1
E: 715.337020 0003 0035 2363
E: 715.337020 0003 0036 1327
E: 715.337020 0003 003a 51
E: 715.337020 0003 0030 210
E: 715.337020 0003 0031 144
E: 715.337020 0003 0000 2631
E: 715.337020 0003 0001 828
E: 715.337020 0000 0000 0
E: 715.342857 0003 002f 0
E: 715.342857 0003 0035 2702
E: 715.342857 0003 0036 822
E: 715.342857 0003 003a 56
E: 715.342857 0003 002f 1
E: 715.342857 0003 0035 2439
E: 715.342857 0003 0036 1326
E: 715.342857 0003 003a 53
E: 715.342857 0003 001c 2
E: 715.342857 0003 0030 144
E: 715.342857 0003 0031 140
E: 715.342857 0003 0000 2702
E: 715.342857 0003 0001 822
E: 715.342857 0003 0018 56
E: 715.342857 0000 0000 0
E: 715.348602 0003 002f 0
E: 715.348602 0003 0035 2770
E: 715.348602 0003 0036 823
E: 715.348602 0003 003a 57
E: 715.348602 0003 001c 3
E: 715.348602 0003 002f 1
E: 715.348602 0003 0035 2503
E: 715.348602 0003 003a 52
E: 715.348602 0003 0030 210
E: 715.348602 0003 0031 144
E: 715.348602 0003 0000 2770
E: 715.348602 0003 0001 823
E: 715.348602 0003 0018 57
E: 715.348602 0000 0000 0
E: 715.355848 0003 002f 0
E: 715.355848 0003 0035 2841
E: 715.355848 0003 0036 822
E: 715.355848 0003 003a 55
E: 715.355848 0003 002f 1
E: 715.355848 0003 0035 2576
E: 715.355848 0003 0036 1327
E: 715.355848 0003 003a 53
E: 715.355848 0003 001c 2
E: 715.355848 0003 0030 144
E: 715.355848 0003 0031 140
E: 715.355848 0003 0000 2841
E: 715.355848 0003 0001 822
E: 715.355848 0003 0018 55
E: 715.355848 0000 0000 0
E: 715.360578 0003 002f 0
E: 715.360578 0003 0035 2903
E: 715.360578 0003 0036 825
E: 715.360578 0003 003a 57
E: 715.360578 0003 0031 140
E: 715.360578 0003 002f 1
E: 715.360578 0003 0035 2622
E: 715.360578 0003 0036 1328
E: 715.360578 0003 0000 2903
E: 715.360578 0003 0001 825
E: 715.360578 0003 0018 57
E: 715.360578 0000 0000 0
E: 715.366412 0003 002f 0
E: 715.366412 0003 0035 2959
E: 715.366412 0003 0036 827
E: 715.366412 0003 003a 54
E: 715.366412 0003 001c 3
E: 715.366412 0003 0031 210
E: 715.366412 0003 002f 1
E: 715.366412 0003 0035 2703
E: 715.366412 0003 0036 1322
E: 715.366412 0003 003a 52
E: 715.366412 0003 0030 216
E: 715.366412 0003 0031 210
E: 715.366412 0003 0000 2959
E: 715.366412 0003 0001 827
E: 715.366412 0003 0018 54
E: 715.366412 0000 0000 0
E: 715.373286 0003 002f 0
E: 715.373286 0003 0035 3034
E: 715.373286 0003 0036 825
E: 715.373286 0003 003a 55
E: 715.373286 0003 001c 2
E: 715.373286 0003 0031 140
E: 715.373286 0003 002f 1
E: 715.373286 0003 0035 2762
E: 715.373286 0003 0036 1325
E: 715.373286 0003 003a 53
E: 715.373286 0003 0030 144
E: 715.373286 0003 0031 140
E: 715.373286 0003 0000 3034
E: 715.373286 0003 0001 825
E: 715.373286 0003 0018 55
E: 715.373286 0000 0000 0
E: 715.378418 0003 002f 0
E: 715.378418 0003 0035 3169
E: 715.378418 0003 0036 827
E: 715.378418 0003 003a 53
E: 715.378418 0003 002f 1
E: 715.378418 0003 0035 2860
E: 715.378418 0003 003a 52
E: 715.378418 0003 0000 3169
E: 715.378418 0003 0001 827
E: 715.378418 0003 0018 53
E: 715.378418 0000 0000 0
E: 715.383721 0003 002f 0
E: 715.383721 0003 0035 3206
E: 715.383721 0003 0036 830
E: 715.383721 0003 003a 50
E: 715.383721 0003 001c 1
E: 715.383721 0003 0031 70
E: 715.383721 0003 002f 1
E: 715.383721 0003 0035 2904
E: 715.383721 0003 0036 1327
E: 715.383721 0003 003a 53
E: 715.383721 0003 001c 2
E: 715.383721 0003 0000 3206
E: 715.383721 0003 0001 830
E: 715.383721 0003 0018 50
E: 715.383721 0000 0000 0
E: 715.389120 0003 002f 0
E: 715.389120 0003 0036 840
E: 715.389120 0003 003a 45
E: 715.389120 0003 001c 1
E: 715.389120 0003 002f 1
E: 715.389120 0003 0035 2946
E: 715.389120 0003 0036 1322
E: 715.389120 0003 003a 52
E: 715.389120 0003 001c 2
E: 715.389120 0003 0030 216
E: 715.389120 0003 0001 840
E: 715.389120 0003 0018 45
E: 715.389120 0000 0000 0
E: 715.394909 0003 001c 1
E: 715.394909 0003 002f 0
E: 715.394909 0003 0030 72
E: 715.394909 0003 002f 1
E: 715.394909 0003 0035 2988
E: 715.394909 0003 0036 1317
E: 715.394909 0003 001c 2
E: 715.394909 0000 0000 0
E: 715.400754 0003 001c 1
E: 715.400754 0003 0035 3081
E: 715.400754 0003 0036 1328
E: 715.400754 0003 001c 2
E: 715.400754 0003 0030 144
E: 715.400754 0000 0000 0
E: 715.406471 0003 002f 0
E: 715.406471 0003 0039 -1
E: 715.406471 0003 002f 1
E: 715.406471 0003 0035 3187
E: 715.406471 0003 0036 1330
E: 715.406471 0003 003a 50
E: 715.406471 0001 0145 1
E: 715.406471 0001 014d 0
E: 715.406471 0003 0000 3187
E: 715.406471 0003 0001 1330
E: 715.406471 0003 0018 50
E: 715.406471 0000 0000 0
E: 715.412604 0003 0035 3206
E: 715.412604 0003 0036 1333
E: 715.412604 0003 003a 47
E: 715.412604 0003 001c 1
E: 715.412604 0003 0031 70
E: 715.412604 0003 0000 3206
E: 715.412604 0003 0001 1333
E: 715.412604 0003 0018 47
E: 715.412604 0000 0000 0
E: 715.419205 0003 0036 1337
E: 715.419205 0003 003a 44
E: 715.419205 0003 0001 1337
E: 715.419205 0003 0018 44
E: 715.419205 0000 0000 0
E: 715.424142 0003 0030 72
E: 715.424142 0000 0000 0
E: 715.429942 0003 0039 -1
E: 715.429942 0001 014a 0
E: 715.429942 0001 0145 0
E: 715.429942 0003 0018 0
E: 715.429942 0000 0000 0
E: 717.607697 0003 002f 0
E: 717.607697 0003 0039 25
E: 717.607697 0003 0035 1264
E: 717.607697 0003 0036 0
E: 717.607697 0003 001c 3
E: 717.607697 0003 0030 210
E: 717.607697 0003 0031 72
E: 717.607697 0001 014a 1
E: 717.607697 0001 0145 1
E: 717.607697 0003 0000 1264
E: 717.607697 0003 0001 0
E: 717.607697 0003 0018 45
E: 717.607697 0000 0000 0
E: 717.612838 0003 002f 1
E: 717.612838 0003 0039 26
E: 717.612838 0003 0035 1781
E: 717.612838 0003 0036 0
E: 717.612838 0003 001c 4
E: 717.612838 0003 0030 280
E: 717.612838 0003 0031 72
E: 717.612838 0001 0145 0
E: 717.612838 0001 014d 1
E: 717.612838 0000 0000 0
E: 717.619074 0003 002f 0
E: 717.619074 0003 003a 46
E: 717.619074 0003 001c 3
E: 717.619074 0003 002f 1
E: 717.619074 0003 003a 45
E: 717.619074 0003 001c 4
E: 717.619074 0003 0018 46
E: 717.619074 0000 0000 0
E: 717.624123 0003 002f 0
E: 717.624123 0003 003a 47
E: 717.624123 0003 001c 3
E: 717.624123 0003 0031 144
E: 717.624123 0003 002f 1
E: 717.624123 0003 003a 46
E: 717.624123 0003 001c 4
E: 717.624123 0003 0018 47
E: 717.624123 0000 0000 0
E: 717.629858 0003 002f 0
E: 717.629858 0003 003a 49
E: 717.629858 0003 001c 3
E: 717.629858 0003 002f 1
E: 717.629858 0003 003a 47
E: 717.629858 0003 001c 4
E: 717.629858 0003 0031 144
E: 717.629858 0003 0018 49
E: 717.629858 0000 0000 0
E: 717.636014 0003 002f 0
E: 717.636014 0003 003a 50
E: 717.636014 0003 001c 3
E: 717.636014 0003 002f 1
E: 717.636014 0003 003a 49
E: 717.636014 0003 001c 4
E: 717.636014 0003 0018 50
E: 717.636014 0000 0000 0
E: 717.641501 0003 002f 0
E: 717.641501 0003 0035 1262
E: 717.641501 0003 0036 15
E: 717.641501 0003 003a 52
E: 717.641501 0003 001c 3
E: 717.641501 0003 002f 1
E: 717.641501 0003 0035 1780
E: 717.641501 0003 0036 14
E: 717.641501 0003 003a 50
E: 717.641501 0003 001c 4
E: 717.641501 0003 0000 1262
E: 717.641501 0003 0001 15
E: 717.641501 0003 0018 52
E: 717.641501 0000 0000 0
E: 717.647557 0003 002f 0
E: 717.647557 0003 0036 51
E: 717.647557 0003 003a 53
E: 717.647557 0003 001c 3
E: 717.647557 0003 002f 1
E: 717.647557 0003 0036 45
E: 717.647557 0003 003a 52
E: 717.647557 0003 001c 4
E: 717.647557 0003 0001 51
E: 717.647557 0003 0018 53
E: 717.647557 0000 0000 0
E: 717.653153 0003 002f 0
E: 717.653153 0003 0035 1260
E: 717.653153 0003 0036 125
E: 717.653153 0003 001c 3
E: 717.653153 0003 002f 1
E: 717.653153 0003 0036 126
E: 717.653153 0003 003a 53
E: 717.653153 0003 001c 4
E: 717.653153 0003 0000 1260
E: 717.653153 0003 0001 125
E: 717.653153 0000 0000 0
E: 717.659324 0003 002f 0
E: 717.659324 0003 0035 1256
E: 717.659324 0003 0036 189
E: 717.659324 0003 003a 54
E: 717.659324 0003 001c 3
E: 717.659324 0003 0030 216
E: 717.659324 0003 0031 210
E: 717.659324 0003 002f 1
E: 717.659324 0003 0035 1782
E: 717.659324 0003 0036 183
E: 717.659324 0003 001c 4
E: 717.659324 0003 0031 216
E: 717.659324 0003 0000 1256
E: 717.659324 0003 0001 189
E: 717.659324 0003 0018 54
E: 717.659324 0000 0000 0
E: 717.664748 0003 002f 0
E: 717.664748 0003 0035 1258
E: 717.664748 0003 0036 220
E: 717.664748 0003 003a 53
E: 717.664748 0003 001c 3
E: 717.664748 0003 002f 1
E: 717.664748 0003 0035 1777
E: 717.664748 0003 0036 218
E: 717.664748 0003 003a 52
E: 717.664748 0003 001c 4
E: 717.664748 0003 0000 1258
E: 717.664748 0003 0001 220
E: 717.664748 0003 0018 53
E: 717.664748 0000 0000 0
E: 717.670553 0003 002f 0
E: 717.670553 0003 0035 1261
E: 717.670553 0003 0036 255
E: 717.670553 0003 001c 3
E: 717.670553 0003 002f 1
E: 717.670553 0003 0036 254
E: 717.670553 0003 003a 53
E: 717.670553 0003 001c 4
E: 717.670553 0003 0000 1261
E: 717.670553 0003 0001 255
E: 717.670553 0000 0000 0
E: 717.676329 0003 002f 0
E: 717.676329 0003 0035 1259
E: 717.676329 0003 0036 286
E: 717.676329 0003 003a 54
E: 717.676329 0003 001c 3
E: 717.676329 0003 0030 210
E: 717.676329 0003 0031 144
E: 717.676329 0003 002f 1
E: 717.676329 0003 0035 1784
E: 717.676329 0003 0036 281
E: 717.676329 0003 001c 4
E: 717.676329 0003 0031 144
E: 717.676329 0003 0000 1259
E: 717.676329 0003 0001 286
E: 717.676329 0003 0018 54
E: 717.676329 0000 0000 0
E: 717.682102 0003 002f 0
E: 717.682102 0003 0035 1267
E: 717.682102 0003 0036 316
E: 717.682102 0003 001c 3
E: 717.682102 0003 0030 216
E: 717.682102 0003 0031 210
E: 717.682102 0003 002f 1
E: 717.682102 0003 0035 1780
E: 717.682102 0003 0036 316
E: 717.682102 0003 001c 4
E: 717.682102 0003 0031 216
E: 717.682102 0003 0000 1267
E: 717.682102 0003 0001 316
E: 717.682102 0000 0000 0
E: 717.688407 0003 002f 0
E: 717.688407 0003 0035 1270
E: 717.688407 0003 0036 354
E: 717.688407 0003 003a 53
E: 717.688407 0003 001c 3
E: 717.688407 0003 002f 1
E: 717.688407 0003 0035 1782
E: 717.688407 0003 0036 355
E: 717.688407 0003 003a 52
E: 717.688407 0003 001c 4
E: 717.688407 0003 0000 1270
E: 717.688407 0003 0001 354
E: 717.688407 0003 0018 53
E: 717.688407 0000 0000 0
E: 717.693491 0003 002f 0
E: 717.693491 0003 0035 1271
E: 717.693491 0003 0036 418
E: 717.693491 0003 003a 54
E: 717.693491 0003 0030 280
E: 717.693491 0003 0031 216
E: 717.693491 0003 002f 1
E: 717.693491 0003 0035 1786
E: 717.693491 0003 0036 420
E: 717.693491 0003 001c 3
E: 717.693491 0003 0030 210
E: 717.693491 0003 0031 144
E: 717.693491 0003 0000 1271
E: 717.693491 0003 0001 418
E: 717.693491 0003 0018 54
E: 717.693491 0000 0000 0
E: 717.699158 0003 002f 0
E: 717.699158 0003 0035 1269
E: 717.699158 0003 0036 442
E: 717.699158 0003 003a 53
E: 717.699158 0003 001c 4
E: 717.699158 0003 0031 144
E: 717.699158 0003 002f 1
E: 717.699158 0003 0035 1785
E: 717.699158 0003 0036 444
E: 717.699158 0003 003a 53
E: 717.699158 0003 001c 3
E: 717.699158 0003 0000 1269
E: 717.699158 0003 0001 442
E: 717.699158 0003 0018 53
E: 717.699158 0000 0000 0
E: 717.705039 0003 002f 0
E: 717.705039 0003 0035 1284
E: 717.705039 0003 0036 476
E: 717.705039 0003 003a 54
E: 717.705039 0003 001c 4
E: 717.705039 0003 0031 216
E: 717.705039 0003 002f 1
E: 717.705039 0003 0035 1790
E: 717.705039 0003 0036 487
E: 717.705039 0003 001c 3
E: 717.705039 0003 0030 216
E: 717.705039 0003 0031 210
E: 717.705039 0003 0000 1284
E: 717.705039 0003 0001 476
E: 717.705039 0003 0018 54
E: 717.705039 0000 0000 0
E: 717.710743 0003 002f 0
E: 717.710743 0003 0035 1295
E: 717.710743 0003 0036 528
E: 717.710743 0003 003a 53
E: 717.710743 0003 001c 4
E: 717.710743 0003 002f 1
E: 717.710743 0003 0035 1794
E: 717.710743 0003 0036 536
E: 717.710743 0003 001c 3
E: 717.710743 0003 0000 1295
E: 717.710743 0003 0001 528
E: 717.710743 0003 0018 53
E: 717.710743 0000 0000 0
E: 717.716528 0003 002f 0
E: 717.716528 0003 0035 1302
E: 717.716528 0003 0036 576
E: 717.716528 0003 001c 4
E: 717.716528 0003 0031 144
E: 717.716528 0003 002f 1
E: 717.716528 0003 0035 1804
E: 717.716528 0003 0036 577
E: 717.716528 0003 001c 3
E: 717.716528 0003 0030 210
E: 717.716528 0003 0031 144
E: 717.716528 0003 0000 1302
E: 717.716528 0003 0001 576
E: 717.716528 0000 0000 0
E: 717.722312 0003 002f 0
E: 717.722312 0003 0035 1305
E: 717.722312 0003 0036 611
E: 717.722312 0003 003a 54
E: 717.722312 0003 001c 4
E: 717.722312 0003 0031 216
E: 717.722312 0003 002f 1
E: 717.722312 0003 0035 1807
E: 717.722312 0003 0036 616
E: 717.722312 0003 001c 3
E: 717.722312 0003 0030 216
E: 717.722312 0003 0031 210
E: 717.722312 0003 0000 1305
E: 717.722312 0003 0001 611
E: 717.722312 0003 0018 54
E: 717.722312 0000 0000 0
E: 717.728101 0003 002f 0
E: 717.728101 0003 0035 1313
E: 717.728101 0003 0036 664
E: 717.728101 0003 003a 53
E: 717.728101 0003 001c 4
E: 717.728101 0003 002f 1
E: 717.728101 0003 0035 1808
E: 717.728101 0003 0036 667
E: 717.728101 0003 003a 51
E: 717.728101 0003 001c 3
E: 717.728101 0003 0000 1313
E: 717.728101 0003 0001 664
E: 717.728101 0003 0018 53
E: 717.728101 0000 0000 0
E: 717.735237 0003 002f 0
E: 717.735237 0003 0035 1318
E: 717.735237 0003 0036 721
E: 717.735237 0003 0030 210
E: 717.735237 0003 0031 144
E: 717.735237 0003 002f 1
E: 717.735237 0003 0035 1812
E: 717.735237 0003 0036 721
E: 717.735237 0003 003a 52
E: 717.735237 0003 001c 2
E: 717.735237 0003 0030 144
E: 717.735237 0003 0031 140
E: 717.735237 0003 0000 1318
E: 717.735237 0003 0001 721
E: 717.735237 0000 0000 0
E: 717.739944 0003 002f 0
E: 717.739944 0003 0035 1325
E: 717.739944 0003 0036 773
E: 717.739944 0003 001c 3
E: 717.739944 0003 0030 216
E: 717.739944 0003 0031 210
E: 717.739944 0003 002f 1
E: 717.739944 0003 0035 1817
E: 717.739944 0003 0036 776
E: 717.739944 0003 003a 53
E: 717.739944 0003 001c 2
E: 717.739944 0003 0030 216
E: 717.739944 0003 0000 1325
E: 717.739944 0003 0001 773
E: 717.739944 0000 0000 0
E: 717.745754 0003 002f 0
E: 717.745754 0003 0035 1323
E: 717.745754 0003 0036 807
E: 717.745754 0003 001c 3
E: 717.745754 0003 002f 1
E: 717.745754 0003 0035 1820
E: 717.745754 0003 0036 824
E: 717.745754 0003 003a 52
E: 717.745754 0003 001c 2
E: 717.745754 0003 0000 1323
E: 717.745754 0003 0001 807
E: 717.745754 0000 0000 0
E: 717.752221 0003 002f 0
E: 717.752221 0003 0035 1329
E: 717.752221 0003 0036 858
E: 717.752221 0003 001c 3
E: 717.752221 0003 002f 1
E: 717.752221 0003 0035 1823
E: 717.752221 0003 0036 874
E: 717.752221 0003 003a 53
E: 717.752221 0003 001c 2
E: 717.752221 0003 0030 144
E: 717.752221 0003 0000 1329
E: 717.752221 0003 0001 858
E: 717.752221 0000 0000 0
E: 717.757055 0003 002f 0
E: 717.757055 0003 0035 1333
E: 717.757055 0003 0036 898
E: 717.757055 0003 003a 54
E: 717.757055 0003 001c 3
E: 717.757055 0003 0030 210
E: 717.757055 0003 0031 144
E: 717.757055 0003 002f 1
E: 717.757055 0003 0035 1825
E: 717.757055 0003 0036 909
E: 717.757055 0003 001c 2
E: 717.757055 0003 0000 1333
E: 717.757055 0003 0001 898
E: 717.757055 0003 0018 54
E: 717.757055 0000 0000 0
E: 717.762839 0003 002f 0
E: 717.762839 0003 0035 1335
E: 717.762839 0003 0036 946
E: 717.762839 0003 003a 53
E: 717.762839 0003 001c 3
E: 717.762839 0003 0030 216
E: 717.762839 0003 0031 210
E: 717.762839 0003 002f 1
E: 717.762839 0003 0035 1829
E: 717.762839 0003 0036 963
E: 717.762839 0003 003a 52
E: 717.762839 0003 001c 2
E: 717.762839 0003 0030 216
E: 717.762839 0003 0000 1335
E: 717.762839 0003 0001 946
E: 717.762839 0003 0018 53
E: 717.762839 0000 0000 0
E: 717.768634 0003 002f 0
E: 717.768634 0003 0035 1338
E: 717.768634 0003 0036 1009
E: 717.768634 0003 003a 54
E: 717.768634 0003 001c 3
E: 717.768634 0003 002f 1
E: 717.768634 0003 0035 1832
E: 717.768634 0003 0036 1018
E: 717.768634 0003 003a 53
E: 717.768634 0003 001c 2
E: 717.768634 0003 0030 144
E: 717.768634 0003 0000 1338
E: 717.768634 0003 0001 1009
E: 717.768634 0003 0018 54
E: 717.768634 0000 0000 0
E: 717.774455 0003 002f 0
E: 717.774455 0003 0035 1348
E: 717.774455 0003 0036 1049
E: 717.774455 0003 001c 3
E: 717.774455 0003 0030 210
E: 717.774455 0003 0031 144
E: 717.774455 0003 002f 1
E: 717.774455 0003 0035 1837
E: 717.774455 0003 0036 1057
E: 717.774455 0003 001c 2
E: 717.774455 0003 0030 216
E: 717.774455 0003 0000 1348
E: 717.774455 0003 0001 1049
E: 717.774455 0000 0000 0
E: 717.780753 0003 002f 0
E: 717.780753 0003 0035 1345
E: 717.780753 0003 0036 1099
E: 717.780753 0003 001c 3
E: 717.780753 0003 0030 216
E: 717.780753 0003 0031 210
E: 717.780753 0003 002f 1
E: 717.780753 0003 0035 1841
E: 717.780753 0003 0036 1109
E: 717.780753 0003 0031 210
E: 717.780753 0003 0000 1345
E: 717.780753 0003 0001 1099
E: 717.780753 0000 0000 0
E: 717.786072 0003 002f 0
E: 717.786072 0003 0035 1355
E: 717.786072 0003 0036 1174
E: 717.786072 0003 0030 210
E: 717.786072 0003 0031 144
E: 717.786072 0003 002f 1
E: 717.786072 0003 0035 1848
E: 717.786072 0003 0036 1179
E: 717.786072 0003 0030 210
E: 717.786072 0003 0031 144
E: 717.786072 0003 0000 1355
E: 717.786072 0003 0001 1174
E: 717.786072 0000 0000 0
E: 717.792549 0003 002f 0
E: 717.792549 0003 0035 1362
E: 717.792549 0003 0036 1200
E: 717.792549 0003 003a 53
E: 717.792549 0003 001c 2
E: 717.792549 0003 0030 144
E: 717.792549 0003 0031 140
E: 717.792549 0003 002f 1
E: 717.792549 0003 0035 1845
E: 717.792549 0003 0036 1209
E: 717.792549 0003 0030 144
E: 717.792549 0003 0031 140
E: 717.792549 0003 0000 1362
E: 717.792549 0003 0001 1200
E: 717.792549 0003 0018 53
E: 717.792549 0000 0000 0
E: 717.797905 0003 002f 0
E: 717.797905 0003 0035 1356
E: 717.797905 0003 0036 1248
E: 717.797905 0003 003a 54
E: 717.797905 0003 001c 3
E: 717.797905 0003 0030 216
E: 717.797905 0003 0031 210
E: 717.797905 0003 002f 1
E: 717.797905 0003 0035 1852
E: 717.797905 0003 0036 1262
E: 717.797905 0003 0030 216
E: 717.797905 0003 0031 210
E: 717.797905 0003 0000 1356
E: 717.797905 0003 0001 1248
E: 717.797905 0003 0018 54
E: 717.797905 0000 0000 0
E: 717.803668 0003 002f 0
E: 717.803668 0003 0035 1360
E: 717.803668 0003 0036 1310
E: 717.803668 0003 002f 1
E: 717.803668 0003 0036 1321
E: 717.803668 0003 0030 210
E: 717.803668 0003 0031 144
E: 717.803668 0003 0000 1360
E: 717.803668 0003 0001 1310
E: 717.803668 0000 0000 0
E: 717.809488 0003 002f 0
E: 717.809488 0003 0035 1366
E: 717.809488 0003 0036 1349
E: 717.809488 0003 001c 2
E: 717.809488 0003 0030 144
E: 717.809488 0003 0031 140
E: 717.809488 0003 002f 1
E: 717.809488 0003 0035 1856
E: 717.809488 0003 0036 1359
E: 717.809488 0003 001c 3
E: 717.809488 0003 0000 1366
E: 717.809488 0003 0001 1349
E: 717.809488 0000 0000 0
E: 717.815577 0003 002f 0
E: 717.815577 0003 0035 1357
E: 717.815577 0003 0036 1404
E: 717.815577 0003 0030 216
E: 717.815577 0003 0031 210
E: 717.815577 0003 002f 1
E: 717.815577 0003 0035 1858
E: 717.815577 0003 0036 1420
E: 717.815577 0003 0030 216
E: 717.815577 0003 0031 210
E: 717.815577 0003 0000 1357
E: 717.815577 0003 0001 1404
E: 717.815577 0000 0000 0
E: 717.820726 0003 002f 0
E: 717.820726 0003 0035 1360
E: 717.820726 0003 0036 1464
E: 717.820726 0003 002f 1
E: 717.820726 0003 0035 1853
E: 717.820726 0003 0036 1471
E: 717.820726 0003 003a 54
E: 717.820726 0003 0000 1360
E: 717.820726 0003 0001 1464
E: 717.820726 0000 0000 0
E: 717.826518 0003 002f 0
E: 717.826518 0003 0035 1358
E: 717.826518 0003 0036 1508
E: 717.826518 0003 003a 55
E: 717.826518 0003 002f 1
E: 717.826518 0003 0035 1851
E: 717.826518 0003 0036 1517
E: 717.826518 0003 003a 55
E: 717.826518 0003 0000 1358
E: 717.826518 0003 0001 1508
E: 717.826518 0003 0018 55
E: 717.826518 0000 0000 0
E: 717.832782 0003 002f 0
E: 717.832782 0003 0035 1353
E: 717.832782 0003 0036 1562
E: 717.832782 0003 002f 1
E: 717.832782 0003 0036 1574
E: 717.832782 0003 003a 54
E: 717.832782 0003 0000 1353
E: 717.832782 0003 0001 1562
E: 717.832782 0000 0000 0
E: 717.838110 0003 002f 0
E: 717.838110 0003 0035 1356
E: 717.838110 0003 0036 1632
E: 717.838110 0003 003a 54
E: 717.838110 0003 0030 210
E: 717.838110 0003 0031 144
E: 717.838110 0003 002f 1
E: 717.838110 0003 0035 1847
E: 717.838110 0003 0036 1637
E: 717.838110 0003 0030 210
E: 717.838110 0003 0031 144
E: 717.838110 0003 0000 1356
E: 717.838110 0003 0001 1632
E: 717.838110 0003 0018 54
E: 717.838110 0000 0000 0
E: 717.843981 0003 002f 0
E: 717.843981 0003 0036 1694
E: 717.843981 0003 002f 1
E: 717.843981 0003 0035 1844
E: 717.843981 0003 0036 1715
E: 717.843981 0003 003a 53
E: 717.843981 0003 0001 1694
E: 717.843981 0000 0000 0
E: 717.849681 0003 002f 0
E: 717.849681 0003 0035 1351
E: 717.849681 0003 0036 1756
E: 717.849681 0003 003a 52
E: 717.849681 0003 002f 1
E: 717.849681 0003 0035 1845
E: 717.849681 0003 0036 1769
E: 717.849681 0003 003a 51
E: 717.849681 0003 0000 1351
E: 717.849681 0003 0001 1756
E: 717.849681 0003 0018 52
E: 717.849681 0000 0000 0
E: 717.855711 0003 002f 0
E: 717.855711 0003 0035 1348
E: 717.855711 0003 0036 1790
E: 717.855711 0003 003a 49
E: 717.855711 0003 002f 1
E: 717.855711 0003 0035 1837
E: 717.855711 0003 0036 1790
E: 717.855711 0003 003a 47
E: 717.855711 0003 001c 2
E: 717.855711 0003 0030 140
E: 717.855711 0003 0031 72
E: 717.855711 0003 0000 1348
E: 717.855711 0003 0001 1790
E: 717.855711 0003 0018 49
E: 717.855711 0000 0000 0
E: 717.861599 0003 002f 0
E: 717.861599 0003 0035 1354
E: 717.861599 0003 003a 45
E: 717.861599 0003 0030 140
E: 717.861599 0003 0031 72
E: 717.861599 0003 002f 1
E: 717.861599 0003 0035 1838
E: 717.861599 0003 003a 45
E: 717.861599 0003 0000 1354
E: 717.861599 0003 0018 45
E: 717.861599 0000 0000 0
E: 717.867467 0003 001c 1
E: 717.867467 0003 002f 0
E: 717.867467 0003 0030 72
E: 717.867467 0003 0031 70
E: 717.867467 0003 002f 1
E: 717.867467 0003 0030 72
E: 717.867467 0003 0031 70
E: 717.867467 0000 0000 0
E: 717.872918 0003 002f 0
E: 717.872918 0003 0039 -1
E: 717.872918 0003 002f 1
E: 717.872918 0003 0039 -1
E: 717.872918 0001 014a 0
E: 717.872918 0001 014d 0
E: 717.872918 0003 0018 0
E: 717.872918 0000 0000 0
E: 719.886096 0003 002f 0
E: 719.886096 0003 0039 27
E: 719.886096 0003 0035 3206
E: 719.886096 0003 0036 519
E: 719.886096 0003 003a 44
E: 719.886096 0003 0030 216
E: 719.886096 0001 014a 1
E: 719.886096 0001 0145 1
E: 719.886096 0003 0000 3206
E: 719.886096 0003 0001 519
E: 719.886096 0003 0018 44
E: 719.886096 0000 0000 0
E: 719.890444 0003 003a 45
E: 719.890444 0003 0018 45
E: 719.890444 0000 0000 0
E: 719.894747 0003 0035 3204
E: 719.894747 0003 003a 47
E: 719.894747 0003 001c 2
E: 719.894747 0003 0031 140
E: 719.894747 0003 0000 3204
E: 719.894747 0003 0018 47
E: 719.894747 0000 0000 0
E: 719.899446 0003 0035 3196
E: 719.899446 0003 0036 520
E: 719.899446 0003 003a 48
E: 719.899446 0003 0000 3196
E: 719.899446 0003 0001 520
E: 719.899446 0003 0018 48
E: 719.899446 0000 0000 0
E: 719.905874 0003 0035 3174
E: 719.905874 0003 0036 519
E: 719.905874 0003 003a 50
E: 719.905874 0003 0000 3174
E: 719.905874 0003 0001 519
E: 719.905874 0003 0018 50
E: 719.905874 0000 0000 0
E: 719.911012 0003 0035 3079
E: 719.911012 0003 0036 522
E: 719.911012 0003 003a 53
E: 719.911012 0003 001c 3
E: 719.911012 0003 0031 210
E: 719.911012 0003 0000 3079
E: 719.911012 0003 0001 522
E: 719.911012 0003 0018 53
E: 719.911012 0000 0000 0
E: 719.916786 0003 0035 2980
E: 719.916786 0003 003a 52
E: 719.916786 0003 0000 2980
E: 719.916786 0003 0018 52
E: 719.916786 0000 0000 0
E: 719.922144 0003 0035 2922
E: 719.922144 0003 0036 523
E: 719.922144 0003 003a 53
E: 719.922144 0003 001c 2
E: 719.922144 0003 0031 140
E: 719.922144 0003 0000 2922
E: 719.922144 0003 0001 523
E: 719.922144 0003 0018 53
E: 719.922144 0000 0000 0
E: 719.927492 0003 0035 2894
E: 719.927492 0003 0036 526
E: 719.927492 0003 002f 1
E: 719.927492 0003 0039 28
E: 719.927492 0003 0035 3206
E: 719.927492 0003 0036 1150
E: 719.927492 0003 003a 47
E: 719.927492 0003 001c 1
E: 719.927492 0003 0030 216
E: 719.927492 0001 0145 0
E: 719.927492 0001 014d 1
E: 719.927492 0003 0000 2894
E: 719.927492 0003 0001 526
E: 719.927492 0000 0000 0
E: 719.932869 0003 002f 0
E: 719.932869 0003 0035 2836
E: 719.932869 0003 0036 523
E: 719.932869 0003 003a 52
E: 719.932869 0003 001c 3
E: 719.932869 0003 0031 210
E: 719.932869 0003 002f 1
E: 719.932869 0003 0035 3195
E: 719.932869 0003 0036 1152
E: 719.932869 0003 003a 51
E: 719.932869 0003 001c 2
E: 719.932869 0003 0031 140
E: 719.932869 0003 0000 2836
E: 719.932869 0003 0001 523
E: 719.932869 0003 0018 52
E: 719.932869 0000 0000 0
E: 719.938109 0003 002f 0
E: 719.938109 0003 0035 2775
E: 719.938109 0003 0036 522
E: 719.938109 0003 003a 53
E: 719.938109 0003 001c 3
E: 719.938109 0003 002f 1
E: 719.938109 0003 0035 3134
E: 719.938109 0003 0036 1161
E: 719.938109 0003 003a 53
E: 719.938109 0003 001c 2
E: 719.938109 0003 0000 2775
E: 719.938109 0003 0001 522
E: 719.938109 0003 0018 53
E: 719.938109 0000 0000 0
E: 719.943137 0003 002f 0
E: 719.943137 0003 0035 2727
E: 719.943137 0003 001c 3
E: 719.943137 0003 002f 1
E: 719.943137 0003 0035 3035
E: 719.943137 0003 0036 1168
E: 719.943137 0003 003a 54
E: 719.943137 0003 001c 2
E: 719.943137 0003 0000 2727
E: 719.943137 0000 0000 0
E: 719.948285 0003 002f 0
E: 719.948285 0003 0035 2664
E: 719.948285 0003 0036 514
E: 719.948285 0003 003a 54
E: 719.948285 0003 001c 3
E: 719.948285 0003 002f 1
E: 719.948285 0003 0035 2967
E: 719.948285 0003 0036 1166
E: 719.948285 0003 0031 210
E: 719.948285 0003 0000 2664
E: 719.948285 0003 0001 514
E: 719.948285 0003 0018 54
E: 719.948285 0000 0000 0
E: 719.955543 0003 002f 0
E: 719.955543 0003 0035 2607
E: 719.955543 0003 0036 512
E: 719.955543 0003 003a 53
E: 719.955543 0003 001c 2
E: 719.955543 0003 0031 140
E: 719.955543 0003 002f 1
E: 719.955543 0003 0035 2912
E: 719.955543 0003 0036 1165
E: 719.955543 0003 003a 55
E: 719.955543 0003 0031 140
E: 719.955543 0003 0000 2607
E: 719.955543 0003 0001 512
E: 719.955543 0003 0018 53
E: 719.955543 0000 0000 0
E: 719.960771 0003 002f 0
E: 719.960771 0003 0035 2544
E: 719.960771 0003 0036 511
E: 719.960771 0003 001c 3
E: 719.960771 0003 0031 210
E: 719.960771 0003 002f 1
E: 719.960771 0003 0035 2863
E: 719.960771 0003 003a 54
E: 719.960771 0003 0031 210
E: 719.960771 0003 0000 2544
E: 719.960771 0003 0001 511
E: 719.960771 0000 0000 0
E: 719.965844 0003 002f 0
E: 719.965844 0003 0035 2483
E: 719.965844 0003 0036 505
E: 719.965844 0003 002f 1
E: 719.965844 0003 0035 2799
E: 719.965844 0003 0036 1164
E: 719.965844 0003 003a 55
E: 719.965844 0003 0000 2483
E: 719.965844 0003 0001 505
E: 719.965844 0000 0000 0
E: 719.971388 0003 002f 0
E: 719.971388 0003 0035 2427
E: 719.971388 0003 003a 55
E: 719.971388 0003 002f 1
E: 719.971388 0003 0035 2743
E: 719.971388 0003 0036 1165
E: 719.971388 0003 001c 2
E: 719.971388 0003 0031 140
E: 719.971388 0003 0000 2427
E: 719.971388 0003 0018 55
E: 719.971388 0000 0000 0
E: 719.976696 0003 002f 0
E: 719.976696 0003 0035 2359
E: 719.976696 0003 0036 504
E: 719.976696 0003 003a 53
E: 719.976696 0003 001c 3
E: 719.976696 0003 002f 1
E: 719.976696 0003 0035 2689
E: 719.976696 0003 0036 1161
E: 719.976696 0003 003a 53
E: 719.976696 0003 0031 210
E: 719.976696 0003 0000 2359
E: 719.976696 0003 0001 504
E: 719.976696 0003 0018 53
E: 719.976696 0000 0000 0
E: 719.982753 0003 002f 0
E: 719.982753 0003 0035 2304
E: 719.982753 0003 0036 500
E: 719.982753 0003 003a 55
E: 719.982753 0003 001c 2
E: 719.982753 0003 0031 140
E: 719.982753 0003 002f 1
E: 719.982753 0003 0035 2614
E: 719.982753 0003 0036 1158
E: 719.982753 0003 003a 54
E: 719.982753 0003 0031 140
E: 719.982753 0003 0000 2304
E: 719.982753 0003 0001 500
E: 719.982753 0003 0018 55
E: 719.982753 0000 0000 0
E: 719.988229 0003 002f 0
E: 719.988229 0003 0035 2251
E: 719.988229 0003 0036 498
E: 719.988229 0003 003a 53
E: 719.988229 0003 001c 3
E: 719.988229 0003 0031 210
E: 719.988229 0003 002f 1
E: 719.988229 0003 0035 2574
E: 719.988229 0003 0036 1157
E: 719.988229 0003 001c 2
E: 719.988229 0003 0000 2251
E: 719.988229 0003 0001 498
E: 719.988229 0003 0018 53
E: 719.988229 0000 0000 0
E: 719.994175 0003 002f 0
E: 719.994175 0003 0035 2176
E: 719.994175 0003 0036 496
E: 719.994175 0003 003a 54
E: 719.994175 0003 001c 3
E: 719.994175 0003 002f 1
E: 719.994175 0003 0035 2502
E: 719.994175 0003 0036 1152
E: 719.994175 0003 0031 210
E: 719.994175 0003 0000 2176
E: 719.994175 0003 0001 496
E: 719.994175 0003 0018 54
E: 719.994175 0000 0000 0
E: 720.002884 0003 002f 0
E: 720.002884 0003 0035 2108
E: 720.002884 0003 0036 495
E: 720.002884 0003 003a 55
E: 720.002884 0003 002f 1
E: 720.002884 0003 0035 2435
E: 720.002884 0003 0036 1149
E: 720.002884 0003 003a 55
E: 720.002884 0003 001c 2
E: 720.002884 0003 0031 140
E: 720.002884 0003 0000 2108
E: 720.002884 0003 0001 495
E: 720.002884 0003 0018 55
E: 720.002884 0000 0000 0
E: 720.006422 0003 002f 0
E: 720.006422 0003 0035 2009
E: 720.006422 0003 0036 494
E: 720.006422 0003 003a 53
E: 720.006422 0003 0031 140
E: 720.006422 0003 002f 1
E: 720.006422 0003 0035 2323
E: 720.006422 0003 0036 1144
E: 720.006422 0003 003a 54
E: 720.006422 0003 001c 3
E: 720.006422 0003 0031 210
E: 720.006422 0003 0000 2009
E: 720.006422 0003 0001 494
E: 720.006422 0003 0018 53
E: 720.006422 0000 0000 0
E: 720.011617 0003 002f 0
E: 720.011617 0003 0035 1956
E: 720.011617 0003 0036 493
E: 720.011617 0003 003a 54
E: 720.011617 0003 0031 210
E: 720.011617 0003 002f 1
E: 720.011617 0003 0035 2276
E: 720.011617 0003 0036 1145
E: 720.011617 0003 003a 55
E: 720.011617 0003 001c 2
E: 720.011617 0003 0031 140
E: 720.011617 0003 0000 1956
E: 720.011617 0003 0001 493
E: 720.011617 0003 0018 54
E: 720.011617 0000 0000 0
E: 720.016928 0003 002f 0
E: 720.016928 0003 0035 1874
E: 720.016928 0003 0036 495
E: 720.016928 0003 003a 53
E: 720.016928 0003 001c 3
E: 720.016928 0003 002f 1
E: 720.016928 0003 0035 2206
E: 720.016928 0003 0036 1143
E: 720.016928 0003 003a 53
E: 720.016928 0003 0031 210
E: 720.016928 0003 0000 1874
E: 720.016928 0003 0001 495
E: 720.016928 0003 0018 53
E: 720.016928 0000 0000 0
E: 720.022494 0003 002f 0
E: 720.022494 0003 0035 1802
E: 720.022494 0003 0036 496
E: 720.022494 0003 002f 1
E: 720.022494 0003 0035 2132
E: 720.022494 0003 0036 1142
E: 720.022494 0003 003a 55
E: 720.022494 0003 001c 2
E: 720.022494 0003 0031 140
E: 720.022494 0003 0000 1802
E: 720.022494 0003 0001 496
E: 720.022494 0000 0000 0
E: 720.027787 0003 002f 0
E: 720.027787 0003 0035 1717
E: 720.027787 0003 0036 494
E: 720.027787 0003 003a 54
E: 720.027787 0003 001c 3
E: 720.027787 0003 002f 1
E: 720.027787 0003 0035 2066
E: 720.027787 0003 003a 53
E: 720.027787 0003 0031 210
E: 720.027787 0003 0000 1717
E: 720.027787 0003 0001 494
E: 720.027787 0003 0018 54
E: 720.027787 0000 0000 0
E: 720.033343 0003 002f 0
E: 720.033343 0003 0035 1658
E: 720.033343 0003 0036 495
E: 720.033343 0003 002f 1
E: 720.033343 0003 0035 1989
E: 720.033343 0003 0036 1141
E: 720.033343 0003 003a 55
E: 720.033343 0003 001c 2
E: 720.033343 0003 0031 140
E: 720.033343 0003 0000 1658
E: 720.033343 0003 0001 495
E: 720.033343 0000 0000 0
E: 720.038872 0003 002f 0
E: 720.038872 0003 0035 1567
E: 720.038872 0003 0036 496
E: 720.038872 0003 001c 4
E: 720.038872 0003 0030 280
E: 720.038872 0003 0031 216
E: 720.038872 0003 002f 1
E: 720.038872 0003 0035 1927
E: 720.038872 0003 0036 1143
E: 720.038872 0003 003a 54
E: 720.038872 0003 001c 3
E: 720.038872 0003 0031 210
E: 720.038872 0003 0000 1567
E: 720.038872 0003 0001 496
E: 720.038872 0000 0000 0
E: 720.044938 0003 002f 0
E: 720.044938 0003 0035 1490
E: 720.044938 0003 0030 216
E: 720.044938 0003 0031 210
E: 720.044938 0003 002f 1
E: 720.044938 0003 0035 1838
E: 720.044938 0003 0036 1138
E: 720.044938 0003 003a 53
E: 720.044938 0003 001c 2
E: 720.044938 0003 0031 140
E: 720.044938 0003 0000 1490
E: 720.044938 0000 0000 0
E: 720.052070 0003 002f 0
E: 720.052070 0003 0035 1408
E: 720.052070 0003 0036 497
E: 720.052070 0003 001c 3
E: 720.052070 0003 002f 1
E: 720.052070 0003 0035 1753
E: 720.052070 0003 0036 1134
E: 720.052070 0003 0031 210
E: 720.052070 0003 0000 1408
E: 720.052070 0003 0001 497
E: 720.052070 0000 0000 0
E: 720.057615 0003 002f 0
E: 720.057615 0003 0035 1301
E: 720.057615 0003 003a 55
E: 720.057615 0003 002f 1
E: 720.057615 0003 0035 1659
E: 720.057615 0003 0036 1138
E: 720.057615 0003 003a 54
E: 720.057615 0003 001c 2
E: 720.057615 0003 0031 140
E: 720.057615 0003 0000 1301
E: 720.057615 0003 0018 55
E: 720.057615 0000 0000 0
E: 720.063030 0003 002f 0
E: 720.063030 0003 0035 1221
E: 720.063030 0003 0036 501
E: 720.063030 0003 003a 56
E: 720.063030 0003 0031 140
E: 720.063030 0003 002f 1
E: 720.063030 0003 0035 1568
E: 720.063030 0003 0036 1137
E: 720.063030 0003 001c 3
E: 720.063030 0003 0031 210
E: 720.063030 0003 0000 1221
E: 720.063030 0003 0001 501
E: 720.063030 0003 0018 56
E: 720.063030 0000 0000 0
E: 720.068457 0003 002f 0
E: 720.068457 0003 0035 1139
E: 720.068457 0003 0036 503
E: 720.068457 0003 003a 53
E: 720.068457 0003 0031 210
E: 720.068457 0003 002f 1
E: 720.068457 0003 0035 1493
E: 720.068457 0003 0036 1140
E: 720.068457 0003 0000 1139
E: 720.068457 0003 0001 503
E: 720.068457 0003 0018 53
E: 720.068457 0000 0000 0
E: 720.073991 0003 002f 0
E: 720.073991 0003 0035 1055
E: 720.073991 0003 0036 504
E: 720.073991 0003 003a 56
E: 720.073991 0003 002f 1
E: 720.073991 0003 0035 1397
E: 720.073991 0003 0036 1134
E: 720.073991 0003 003a 55
E: 720.073991 0003 0000 1055
E: 720.073991 0003 0001 504
E: 720.073991 0003 0018 56
E: 720.073991 0000 0000 0
E: 720.079537 0003 002f 0
E: 720.079537 0003 0035 965
E: 720.079537 0003 0036 508
E: 720.079537 0003 003a 54
E: 720.079537 0003 002f 1
E: 720.079537 0003 0035 1323
E: 720.079537 0003 0036 1135
E: 720.079537 0003 0000 965
E: 720.079537 0003 0001 508
E: 720.079537 0003 0018 54
E: 720.079537 0000 0000 0
E: 720.085083 0003 002f 0
E: 720.085083 0003 0035 894
E: 720.085083 0003 003a 55
E: 720.085083 0003 002f 1
E: 720.085083 0003 0035 1234
E: 720.085083 0003 0036 1132
E: 720.085083 0003 003a 57
E: 720.085083 0003 0000 894
E: 720.085083 0003 0018 55
E: 720.085083 0000 0000 0
E: 720.090624 0003 002f 0
E: 720.090624 0003 0035 801
E: 720.090624 0003 0036 504
E: 720.090624 0003 002f 1
E: 720.090624 0003 0035 1165
E: 720.090624 0003 0036 1134
E: 720.090624 0003 003a 53
E: 720.090624 0003 0000 801
E: 720.090624 0003 0001 504
E: 720.090624 0000 0000 0
E: 720.098044 0003 002f 0
E: 720.098044 0003 0035 709
E: 720.098044 0003 002f 1
E: 720.098044 0003 0035 1079
E: 720.098044 0003 0036 1133
E: 720.098044 0003 003a 56
E: 720.098044 0003 0000 709
E: 720.098044 0000 0000 0
E: 720.105659 0003 002f 0
E: 720.105659 0003 0035 599
E: 720.105659 0003 0036 503
E: 720.105659 0003 002f 1
E: 720.105659 0003 0035 946
E: 720.105659 0003 0036 1131
E: 720.105659 0003 003a 55
E: 720.105659 0003 0000 599
E: 720.105659 0003 0001 503
E: 720.105659 0000 0000 0
E: 720.109653 0003 002f 0
E: 720.109653 0003 0035 508
E: 720.109653 0003 0036 501
E: 720.109653 0003 003a 54
E: 720.109653 0003 002f 1
E: 720.109653 0003 0035 878
E: 720.109653 0003 0036 1135
E: 720.109653 0003 003a 54
E: 720.109653 0003 0000 508
E: 720.109653 0003 0001 501
E: 720.109653 0003 0018 54
E: 720.109653 0000 0000 0
E: 720.115279 0003 002f 0
E: 720.115279 0003 0035 415
E: 720.115279 0003 0036 498
E: 720.115279 0003 002f 1
E: 720.115279 0003 0035 783
E: 720.115279 0003 0036 1129
E: 720.115279 0003 003a 55
E: 720.115279 0003 0000 415
E: 720.115279 0003 0001 498
E: 720.115279 0000 0000 0
E: 720.121347 0003 002f 0
E: 720.121347 0003 0035 312
E: 720.121347 0003 0036 500
E: 720.121347 0003 001c 2
E: 720.121347 0003 0031 140
E: 720.121347 0003 002f 1
E: 720.121347 0003 0035 688
E: 720.121347 0003 003a 54
E: 720.121347 0003 001c 3
E: 720.121347 0003 0000 312
E: 720.121347 0003 0001 500
E: 720.121347 0000 0000 0
E: 720.126678 0003 002f 0
E: 720.126678 0003 0035 235
E: 720.126678 0003 0036 498
E: 720.126678 0003 0031 210
E: 720.126678 0003 002f 1
E: 720.126678 0003 0035 602
E: 720.126678 0003 003a 56
E: 720.126678 0003 001c 2
E: 720.126678 0003 0031 140
E: 720.126678 0003 0000 235
E: 720.126678 0003 0001 498
E: 720.126678 0000 0000 0
E: 720.131413 0003 002f 0
E: 720.131413 0003 0035 146
E: 720.131413 0003 0036 499
E: 720.131413 0003 003a 55
E: 720.131413 0003 0031 140
E: 720.131413 0003 002f 1
E: 720.131413 0003 0035 524
E: 720.131413 0003 0036 1126
E: 720.131413 0003 003a 54
E: 720.131413 0003 001c 3
E: 720.131413 0003 0031 210
E: 720.131413 0003 0000 146
E: 720.131413 0003 0001 499
E: 720.131413 0003 0018 55
E: 720.131413 0000 0000 0
E: 720.136723 0003 002f 0
E: 720.136723 0003 0035 21
E: 720.136723 0003 003a 50
E: 720.136723 0003 001c 2
E: 720.136723 0003 002f 1
E: 720.136723 0003 0035 431
E: 720.136723 0003 0036 1129
E: 720.136723 0003 003a 55
E: 720.136723 0003 001c 3
E: 720.136723 0003 0000 21
E: 720.136723 0003 0018 50
E: 720.136723 0000 0000 0
E: 720.142231 0003 002f 0
E: 720.142231 0003 0035 0
E: 720.142231 0003 0036 500
E: 720.142231 0003 003a 45
E: 720.142231 0003 001c 1
E: 720.142231 0003 0031 70
E: 720.142231 0003 002f 1
E: 720.142231 0003 0035 328
E: 720.142231 0003 0036 1124
E: 720.142231 0003 003a 54
E: 720.142231 0003 001c 3
E: 720.142231 0003 0000 0
E: 720.142231 0003 0001 500
E: 720.142231 0003 0018 45
E: 720.142231 0000 0000 0
E: 720.148784 0003 001c 1
E: 720.148784 0003 002f 0
E: 720.148784 0003 0030 72
E: 720.148784 0003 002f 1
E: 720.148784 0003 0035 225
E: 720.148784 0003 0036 1119
E: 720.148784 0003 001c 2
E: 720.148784 0003 0031 140
E: 720.148784 0000 0000 0
E: 720.153892 0003 001c 1
E: 720.153892 0003 0035 154
E: 720.153892 0003 0036 1131
E: 720.153892 0003 001c 2
E: 720.153892 0000 0000 0
E: 720.159573 0003 002f 0
E: 720.159573 0003 0039 -1
E: 720.159573 0003 002f 1
E: 720.159573 0003 0035 33
E: 720.159573 0003 0036 1138
E: 720.159573 0003 003a 51
E: 720.159573 0001 0145 1
E: 720.159573 0001 014d 0
E: 720.159573 0003 0000 33
E: 720.159573 0003 0001 1138
E: 720.159573 0003 0018 51
E: 720.159573 0000 0000 0
E: 720.165547 0003 0035 0
E: 720.165547 0003 0036 1155
E: 720.165547 0003 003a 45
E: 720.165547 0003 001c 1
E: 720.165547 0003 0030 144
E: 720.165547 0003 0031 70
E: 720.165547 0003 0000 0
E: 720.165547 0003 0001 1155
E: 720.165547 0003 0018 45
E: 720.165547 0000 0000 0
E: 720.171426 0003 0030 72
E: 720.171426 0000 0000 0
E: 720.177266 0003 0039 -1
E: 720.177266 0001 014a 0
E: 720.177266 0001 0145 0
E: 720.177266 0003 0018 0
E: 720.177266 0000 0000 0
E: 720.177766 0003 002f 0
E: 720.177766 0003 0039 -1
E: 720.177766 0003 002f 1
E: 720.177766 0003 0039 -1
E: 720.177766 0003 002f 2
E: 720.177766 0003 0039 -1
E: 720.177766 0003 002f 3
E: 720.177766 0003 0039 -1
E: 720.177766 0003 002f 4
E: 720.177766 0003 0039 -1
