# device: ACPI0C50:01 04F3:30C5 Touchpad
# bit: 1B 00 00 00 00 00 00 00
# key: 00 00 00 00 00 00 00 00 00 00 00 00 00 00 00 00 00 00 00 00 00 00 00 00 00 00 00 00 00 00 00 00 00 00 01 00 00 00 00 00 20 E5 00 00 00 00 00 00 00 00 00 00 00 00 00 00 00 00 00 00 00 00 00 00 00 00 00 00 00 00 00 00 00 00 00 00 00 00 00 00 00 00 00 00 00 00 00 00 00 00 00 00 00 00 00 00
# rel: 00 00 00 00 00 00 00 00
# abs: 03 00 00 01 00 80 F3 06
# led: 00 00 00 00 00 00 00 00
# prp: 05 00 00 00 00 00 00 00
# absinfo: 0 0 3602 0 0 32
# absinfo: 1 0 1987 0 0 32
# absinfo: 24 0 255 0 0 0
# absinfo: 47 0 4 0 0 0
# absinfo: 48 0 4095 0 0 65
# absinfo: 49 0 4095 0 0 65
# absinfo: 52 0 1 0 0 0
# absinfo: 53 0 3602 0 0 32
# absinfo: 54 0 1987 0 0 32
# absinfo: 55 0 2 0 0 0
# absinfo: 57 0 65535 0 0 0
# absinfo: 58 0 255 0 0 0
E: 24923.172991 0003 002f 0
E: 24923.172991 0003 0030 192
E: 24923.172991 0003 0031 168
E: 24923.172991 0003 0032 0
E: 24923.172991 0003 0033 0
E: 24923.172991 0003 0034 1
E: 24923.172991 0003 0035 1595
E: 24923.172991 0003 0036 1347
E: 24923.172991 0003 0037 0
E: 24923.172991 0003 0038 0
E: 24923.172991 0003 0039 13353
E: 24923.172991 0003 003a 22
E: 24923.172991 0003 003b 0
E: 24923.172991 0003 002f 1
E: 24923.172991 0003 0039 -1
E: 24923.172991 0003 002f 2
E: 24923.172991 0003 0039 -1
E: 24923.172991 0003 002f 3
E: 24923.172991 0003 0039 -1
E: 24923.172991 0003 002f 4
E: 24923.172991 0003 0039 -1
E: 24923.172991 0003 002f 0
E: 24923.172991 0001 0145 1
E: 24923.172991 0001 014a 1
E: 24923.172991 0000 0000 0
E: 24923.180936 0004 0005 4516900
E: 24923.180936 0000 0000 0
E: 24923.189019 0004 0005 4524900
E: 24923.189019 0000 0000 0
E: 24923.197080 0003 003a 23
E: 24923.197080 0003 0018 23
E: 24923.197080 0004 0005 4532900
E: 24923.197080 0000 0000 0
E: 24923.205159 0003 003a 24
E: 24923.205159 0003 0018 24
E: 24923.205159 0004 0005 4540900
E: 24923.205159 0000 0000 0
E: 24923.213233 0003 0035 1596
E: 24923.213233 0003 0000 1596
E: 24923.213233 0004 0005 4548900
E: 24923.213233 0000 0000 0
E: 24923.221296 0003 0035 1598
E: 24923.221296 0003 0000 1598
E: 24923.221296 0004 0005 4556900
E: 24923.221296 0000 0000 0
E: 24923.229367 0003 0035 1601
E: 24923.229367 0003 0036 1348
E: 24923.229367 0003 0000 1601
E: 24923.229367 0003 0001 1348
E: 24923.229367 0004 0005 4564900
E: 24923.229367 0000 0000 0
E: 24923.237439 0003 0035 1609
E: 24923.237439 0003 0036 1351
E: 24923.237439 0003 003a 21
E: 24923.237439 0003 0000 1609
E: 24923.237439 0003 0001 1351
E: 24923.237439 0003 0018 21
E: 24923.237439 0004 0005 4572900
E: 24923.237439 0000 0000 0
E: 24923.245511 0003 0035 1618
E: 24923.245511 0003 0036 1353
E: 24923.245511 0003 003a 13
E: 24923.245511 0003 0000 1618
E: 24923.245511 0003 0001 1353
E: 24923.245511 0003 0018 13
E: 24923.245511 0004 0005 4580900
E: 24923.245511 0000 0000 0
E: 24923.253576 0003 0035 1627
E: 24923.253576 0003 0036 1352
E: 24923.253576 0003 0030 48
E: 24923.253576 0003 0031 42
E: 24923.253576 0003 0000 1627
E: 24923.253576 0003 0001 1352
E: 24923.253576 0004 0005 4588900
E: 24923.253576 0000 0000 0
E: 24923.261689 0003 0039 -1
E: 24923.261689 0001 014a 0
E: 24923.261689 0001 0145 0
E: 24923.261689 0003 0018 0
E: 24923.261689 0004 0005 4596900
E: 24923.261689 0000 0000 0
E: 24923.407985 0003 0039 13354
E: 24923.407985 0003 0035 1324
E: 24923.407985 0003 0036 1107
E: 24923.407985 0003 003a 21
E: 24923.407985 0003 0030 192
E: 24923.407985 0003 0031 168
E: 24923.407985 0001 014a 1
E: 24923.407985 0001 0145 1
E: 24923.407985 0003 0000 1324
E: 24923.407985 0003 0001 1107
E: 24923.407985 0003 0018 21
E: 24923.407985 0004 0005 4740900
E: 24923.407985 0000 0000 0
E: 24923.416086 0004 0005 4748900
E: 24923.416086 0000 0000 0
E: 24923.424107 0004 0005 4756900
E: 24923.424107 0000 0000 0
E: 24923.432181 0003 003a 20
E: 24923.432181 0003 0018 20
E: 24923.432181 0004 0005 4764900
E: 24923.432181 0000 0000 0
E: 24923.440273 0003 0035 1318
E: 24923.440273 0003 0036 1102
E: 24923.440273 0003 003a 19
E: 24923.440273 0003 0000 1318
E: 24923.440273 0003 0001 1102
E: 24923.440273 0003 0018 19
E: 24923.440273 0004 0005 4772900
E: 24923.440273 0000 0000 0
E: 24923.448322 0003 0035 1314
E: 24923.448322 0003 0036 1099
E: 24923.448322 0003 0034 0
E: 24923.448322 0003 003a 18
E: 24923.448322 0003 0030 168
E: 24923.448322 0003 0031 144
E: 24923.448322 0003 0000 1314
E: 24923.448322 0003 0001 1099
E: 24923.448322 0003 0018 18
E: 24923.448322 0004 0005 4780900
E: 24923.448322 0000 0000 0
E: 24923.456392 0003 0035 1311
E: 24923.456392 0003 0036 1096
E: 24923.456392 0003 003a 14
E: 24923.456392 0003 0000 1311
E: 24923.456392 0003 0001 1096
E: 24923.456392 0003 0018 14
E: 24923.456392 0004 0005 4788900
E: 24923.456392 0000 0000 0
E: 24923.464475 0003 0035 1310
E: 24923.464475 0003 0036 1094
E: 24923.464475 0003 0034 1
E: 24923.464475 0003 003a 10
E: 24923.464475 0003 0030 144
E: 24923.464475 0003 0031 126
E: 24923.464475 0003 0000 1310
E: 24923.464475 0003 0001 1094
E: 24923.464475 0003 0018 10
E: 24923.464475 0004 0005 4796900
E: 24923.464475 0000 0000 0
E: 24923.472536 0003 0036 1093
E: 24923.472536 0003 0030 48
E: 24923.472536 0003 0031 42
E: 24923.472536 0003 0001 1093
E: 24923.472536 0004 0005 4804900
E: 24923.472536 0000 0000 0
E: 24923.480673 0003 0039 -1
E: 24923.480673 0001 014a 0
E: 24923.480673 0001 0145 0
E: 24923.480673 0003 0018 0
E: 24923.480673 0004 0005 4812900
E: 24923.480673 0000 0000 0
E: 24923.610066 0003 0039 13355
E: 24923.610066 0003 0035 1352
E: 24923.610066 0003 0036 1013
E: 24923.610066 0003 003a 22
E: 24923.610066 0003 0030 192
E: 24923.610066 0003 0031 168
E: 24923.610066 0001 014a 1
E: 24923.610066 0001 0145 1
E: 24923.610066 0003 0000 1352
E: 24923.610066 0003 0001 1013
E: 24923.610066 0003 0018 22
E: 24923.610066 0004 0005 4940900
E: 24923.610066 0000 0000 0
E: 24923.618090 0003 003a 23
E: 24923.618090 0003 0018 23
E: 24923.618090 0004 0005 4948900
E: 24923.618090 0000 0000 0
E: 24923.625909 0003 003a 22
E: 24923.625909 0003 0018 22
E: 24923.625909 0004 0005 4956900
E: 24923.625909 0000 0000 0
E: 24923.634242 0004 0005 4964900
E: 24923.634242 0000 0000 0
E: 24923.642282 0003 003a 20
E: 24923.642282 0003 0018 20
E: 24923.642282 0004 0005 4972900
E: 24923.642282 0000 0000 0
E: 24923.650149 0003 003a 17
E: 24923.650149 0003 0018 17
E: 24923.650149 0004 0005 4980900
E: 24923.650149 0000 0000 0
E: 24923.658196 0003 0035 1351
E: 24923.658196 0003 003a 11
E: 24923.658196 0003 0031 126
E: 24923.658196 0003 0000 1351
E: 24923.658196 0003 0018 11
E: 24923.658196 0004 0005 4988900
E: 24923.658196 0000 0000 0
E: 24923.666357 0003 0035 1350
E: 24923.666357 0003 0030 48
E: 24923.666357 0003 0031 42
E: 24923.666357 0003 0000 1350
E: 24923.666357 0004 0005 4996900
E: 24923.666357 0000 0000 0
E: 24923.674387 0003 0039 -1
E: 24923.674387 0001 014a 0
E: 24923.674387 0001 0145 0
E: 24923.674387 0003 0018 0
E: 24923.674387 0004 0005 5004900
E: 24923.674387 0000 0000 0
E: 24923.803803 0003 0039 13356
E: 24923.803803 0003 0035 1385
E: 24923.803803 0003 0036 814
E: 24923.803803 0003 003a 22
E: 24923.803803 0003 0030 192
E: 24923.803803 0003 0031 168
E: 24923.803803 0001 014a 1
E: 24923.803803 0001 0145 1
E: 24923.803803 0003 0000 1385
E: 24923.803803 0003 0001 814
E: 24923.803803 0003 0018 22
E: 24923.803803 0004 0005 5132900
E: 24923.803803 0000 0000 0
E: 24923.811585 0003 003a 24
E: 24923.811585 0003 0018 24
E: 24923.811585 0004 0005 5140900
E: 24923.811585 0000 0000 0
E: 24923.819741 0004 0005 5148900
E: 24923.819741 0000 0000 0
E: 24923.827799 0003 0035 1380
E: 24923.827799 0003 0036 799
E: 24923.827799 0003 0000 1380
E: 24923.827799 0003 0001 799
E: 24923.827799 0004 0005 5156900
E: 24923.827799 0000 0000 0
E: 24923.835794 0003 0035 1375
E: 24923.835794 0003 0036 778
E: 24923.835794 0003 003a 22
E: 24923.835794 0003 0000 1375
E: 24923.835794 0003 0001 778
E: 24923.835794 0003 0018 22
E: 24923.835794 0004 0005 5164900
E: 24923.835794 0000 0000 0
E: 24923.843913 0003 0035 1371
E: 24923.843913 0003 0036 766
E: 24923.843913 0003 003a 16
E: 24923.843913 0003 0000 1371
E: 24923.843913 0003 0001 766
E: 24923.843913 0003 0018 16
E: 24923.843913 0004 0005 5172900
E: 24923.843913 0000 0000 0
E: 24923.851941 0003 0036 762
E: 24923.851941 0003 0034 0
E: 24923.851941 0003 003a 11
E: 24923.851941 0003 0030 168
E: 24923.851941 0003 0031 144
E: 24923.851941 0003 0001 762
E: 24923.851941 0003 0018 11
E: 24923.851941 0004 0005 5180900
E: 24923.851941 0000 0000 0
E: 24923.859994 0003 0035 1369
E: 24923.859994 0003 0036 763
E: 24923.859994 0003 0034 1
E: 24923.859994 0003 0030 48
E: 24923.859994 0003 0031 42
E: 24923.859994 0003 0000 1369
E: 24923.859994 0003 0001 763
E: 24923.859994 0004 0005 5188900
E: 24923.859994 0000 0000 0
E: 24923.868110 0003 0039 -1
E: 24923.868110 0001 014a 0
E: 24923.868110 0001 0145 0
E: 24923.868110 0003 0018 0
E: 24923.868110 0004 0005 5196900
E: 24923.868110 0000 0000 0
E: 24923.989563 0003 0039 13357
E: 24923.989563 0003 0035 1489
E: 24923.989563 0003 0036 772
E: 24923.989563 0003 003a 26
E: 24923.989563 0003 0030 192
E: 24923.989563 0003 0031 168
E: 24923.989563 0001 014a 1
E: 24923.989563 0001 0145 1
E: 24923.989563 0003 0000 1489
E: 24923.989563 0003 0001 772
E: 24923.989563 0003 0018 26
E: 24923.989563 0004 0005 5316900
E: 24923.989563 0000 0000 0
E: 24923.997250 0003 003a 27
E: 24923.997250 0003 0018 27
E: 24923.997250 0004 0005 5324900
E: 24923.997250 0000 0000 0
E: 24924.005335 0004 0005 5332900
E: 24924.005335 0000 0000 0
E: 24924.013417 0004 0005 5340900
E: 24924.013417 0000 0000 0
E: 24924.021514 0003 003a 24
E: 24924.021514 0003 0018 24
E: 24924.021514 0004 0005 5348900
E: 24924.021514 0000 0000 0
E: 24924.029662 0003 003a 21
E: 24924.029662 0003 0018 21
E: 24924.029662 0004 0005 5356900
E: 24924.029662 0000 0000 0
E: 24924.037695 0003 003a 14
E: 24924.037695 0003 0018 14
E: 24924.037695 0004 0005 5364900
E: 24924.037695 0000 0000 0
E: 24924.045682 0003 0035 1490
E: 24924.045682 0003 0036 773
E: 24924.045682 0003 0030 48
E: 24924.045682 0003 0031 42
E: 24924.045682 0003 0000 1490
E: 24924.045682 0003 0001 773
E: 24924.045682 0004 0005 5372900
E: 24924.045682 0000 0000 0
E: 24924.053771 0003 0039 -1
E: 24924.053771 0001 014a 0
E: 24924.053771 0001 0145 0
E: 24924.053771 0003 0018 0
E: 24924.053771 0004 0005 5380900
E: 24924.053771 0000 0000 0
E: 24924.199051 0003 0039 13358
E: 24924.199051 0003 0035 1493
E: 24924.199051 0003 0036 699
E: 24924.199051 0003 0034 0
E: 24924.199051 0003 003a 22
E: 24924.199051 0003 0030 210
E: 24924.199051 0003 0031 192
E: 24924.199051 0001 014a 1
E: 24924.199051 0001 0145 1
E: 24924.199051 0003 0000 1493
E: 24924.199051 0003 0001 699
E: 24924.199051 0003 0018 22
E: 24924.199051 0004 0005 5524900
E: 24924.199051 0000 0000 0
E: 24924.207118 0004 0005 5532900
E: 24924.207118 0000 0000 0
E: 24924.215174 0003 003a 23
E: 24924.215174 0003 0018 23
E: 24924.215174 0004 0005 5540900
E: 24924.215174 0000 0000 0
E: 24924.223251 0003 003a 21
E: 24924.223251 0003 0018 21
E: 24924.223251 0004 0005 5548900
E: 24924.223251 0000 0000 0
E: 24924.231324 0003 0034 1
E: 24924.231324 0003 003a 19
E: 24924.231324 0003 0030 192
E: 24924.231324 0003 0031 168
E: 24924.231324 0003 0018 19
E: 24924.231324 0004 0005 5556900
E: 24924.231324 0000 0000 0
E: 24924.239394 0003 0035 1491
E: 24924.239394 0003 0036 697
E: 24924.239394 0003 003a 14
E: 24924.239394 0003 0000 1491
E: 24924.239394 0003 0001 697
E: 24924.239394 0003 0018 14
E: 24924.239394 0004 0005 5564900
E: 24924.239394 0000 0000 0
E: 24924.247451 0003 0035 1489
E: 24924.247451 0003 0036 694
E: 24924.247451 0003 003a 7
E: 24924.247451 0003 0030 144
E: 24924.247451 0003 0031 126
E: 24924.247451 0003 0000 1489
E: 24924.247451 0003 0001 694
E: 24924.247451 0003 0018 7
E: 24924.247451 0004 0005 5572900
E: 24924.247451 0000 0000 0
E: 24924.255537 0003 0035 1486
E: 24924.255537 0003 0036 689
E: 24924.255537 0003 0030 48
E: 24924.255537 0003 0031 42
E: 24924.255537 0003 0000 1486
E: 24924.255537 0003 0001 689
E: 24924.255537 0004 0005 5580900
E: 24924.255537 0000 0000 0
E: 24924.263667 0003 0039 -1
E: 24924.263667 0001 014a 0
E: 24924.263667 0001 0145 0
E: 24924.263667 0003 0018 0
E: 24924.263667 0004 0005 5588900
E: 24924.263667 0000 0000 0
E: 24924.384700 0003 0039 13359
E: 24924.384700 0003 0035 1447
E: 24924.384700 0003 0036 627
E: 24924.384700 0003 003a 25
E: 24924.384700 0003 0030 192
E: 24924.384700 0003 0031 168
E: 24924.384700 0001 014a 1
E: 24924.384700 0001 0145 1
E: 24924.384700 0003 0000 1447
E: 24924.384700 0003 0001 627
E: 24924.384700 0003 0018 25
E: 24924.384700 0004 0005 5708900
E: 24924.384700 0000 0000 0
E: 24924.392751 0003 003a 24
E: 24924.392751 0003 0018 24
E: 24924.392751 0004 0005 5716900
E: 24924.392751 0000 0000 0
E: 24924.400826 0004 0005 5724900
E: 24924.400826 0000 0000 0
E: 24924.408896 0003 003a 23
E: 24924.408896 0003 0018 23
E: 24924.408896 0004 0005 5732900
E: 24924.408896 0000 0000 0
E: 24924.416967 0003 0035 1444
E: 24924.416967 0003 0036 623
E: 24924.416967 0003 003a 22
E: 24924.416967 0003 0000 1444
E: 24924.416967 0003 0001 623
E: 24924.416967 0003 0018 22
E: 24924.416967 0004 0005 5740900
E: 24924.416967 0000 0000 0
E: 24924.425038 0003 0035 1442
E: 24924.425038 0003 0036 620
E: 24924.425038 0003 003a 19
E: 24924.425038 0003 0000 1442
E: 24924.425038 0003 0001 620
E: 24924.425038 0003 0018 19
E: 24924.425038 0004 0005 5748900
E: 24924.425038 0000 0000 0
E: 24924.433110 0003 0035 1441
E: 24924.433110 0003 0036 618
E: 24924.433110 0003 0034 0
E: 24924.433110 0003 003a 13
E: 24924.433110 0003 0030 168
E: 24924.433110 0003 0031 144
E: 24924.433110 0003 0000 1441
E: 24924.433110 0003 0001 618
E: 24924.433110 0003 0018 13
E: 24924.433110 0004 0005 5756900
E: 24924.433110 0000 0000 0
E: 24924.441172 0003 0035 1440
E: 24924.441172 0003 0036 617
E: 24924.441172 0003 003a 4
E: 24924.441172 0003 0000 1440
E: 24924.441172 0003 0001 617
E: 24924.441172 0003 0018 4
E: 24924.441172 0004 0005 5764900
E: 24924.441172 0000 0000 0
E: 24924.449245 0003 0036 616
E: 24924.449245 0003 0034 1
E: 24924.449245 0003 0030 48
E: 24924.449245 0003 0031 42
E: 24924.449245 0003 0001 616
E: 24924.449245 0004 0005 5772900
E: 24924.449245 0000 0000 0
E: 24924.457355 0003 0039 -1
E: 24924.457355 0001 014a 0
E: 24924.457355 0001 0145 0
E: 24924.457355 0003 0018 0
E: 24924.457355 0004 0005 5780900
E: 24924.457355 0000 0000 0
E: 24924.457855 0003 002f 0
E: 24924.457855 0003 0039 -1
E: 24924.457855 0003 002f 1
E: 24924.457855 0003 0039 -1
E: 24924.457855 0003 002f 2
E: 24924.457855 0003 0039 -1
E: 24924.457855 0003 002f 3
E: 24924.457855 0003 0039 -1
E: 24924.457855 0003 002f 4
E: 24924.457855 0003 0039 -1
