{
  "/GetStatus": {
    "target": "http://localhost:3000",
    "secure": false
  },
  "/ActionInfo": {
    "target": "http://localhost:3000",
    "secure": false
  },
  "/RepairService": {
    "target": "http://localhost:3000",
    "secure": false
  },
  "/CollectLogs": {
    "target": "http://localhost:3000",
    "secure": false
  },
  "/ListDiagnosticChecks": {
    "target": "http://localhost:3000",
    "secure": false
  },
  "/RunDiagnosticCheck": {
    "target": "http://localhost:3000",
    "secure": false
  }
}
