# device: ACPI0C50:00 18D1:5028 Touchpad
# bit: 0B 00 00 00 00 00 00 00
# key: 00 00 00 00 00 00 00 00 00 00 00 00 00 00 00 00 00 00 00 00 00 00 00 00 00 00 00 00 00 00 00 00 00 00 01 00 00 00 00 00 20 E5 00 00 00 00 00 00 00 00 00 00 00 00 00 00 00 00 00 00 00 00 00 00 00 00 00 00 00 00 00 00 00 00 00 00 00 00 00 00 00 00 00 00 00 00 00 00 00 00 00 00 00 00 00 00
# rel: 00 00 00 00 00 00 00 00
# abs: 03 00 00 01 00 80 73 0E
# led: 00 00 00 00 00 00 00 00
# prp: 05 00 00 00 00 00 00 00
# absinfo: 0 0 13184 0 0 128
# absinfo: 1 0 8704 0 0 128
# absinfo: 24 0 255 0 0 0
# absinfo: 47 0 9 0 0 0
# absinfo: 48 0 13184 0 0 194
# absinfo: 49 0 8704 0 0 128
# absinfo: 52 0 1 0 0 0
# absinfo: 53 0 13184 0 0 128
# absinfo: 54 0 8704 0 0 128
# absinfo: 57 0 65535 0 0 0
# absinfo: 58 0 255 0 0 0
# absinfo: 59 0 1 0 0 0
E: 5839.520141 0003 002f 0
E: 5839.520141 0003 0039 -1
E: 5839.520141 0003 002f 1
E: 5839.520141 0003 0039 -1
E: 5839.520141 0003 002f 2
E: 5839.520141 0003 0039 -1
E: 5839.520141 0003 002f 3
E: 5839.520141 0003 0039 -1
E: 5839.520141 0003 002f 4
E: 5839.520141 0003 0039 -1
E: 5839.520141 0003 002f 5
E: 5839.520141 0003 0039 -1
E: 5839.520141 0003 002f 6
E: 5839.520141 0003 0039 -1
E: 5839.520141 0003 002f 7
E: 5839.520141 0003 0039 -1
E: 5839.520141 0003 002f 8
E: 5839.520141 0003 0039 -1
E: 5839.520141 0003 002f 9
E: 5839.520141 0003 0039 -1
E: 5839.520141 0003 002f 0
E: 5839.520141 0000 0000 0
E: 5839.523171 0003 0039 2940
E: 5839.523171 0003 0035 6592
E: 5839.523171 0003 0036 4352
E: 5839.523171 0003 003b 1
E: 5839.523171 0003 0034 0
E: 5839.523171 0003 003a 0
E: 5839.523171 0003 0030 0
E: 5839.523171 0003 0031 0
E: 5839.523171 0001 014a 1
E: 5839.523171 0001 0145 1
E: 5839.523171 0003 0000 6592
E: 5839.523171 0003 0001 4352
E: 5839.523171 0000 0000 0
E: 5840.138836 0003 0035 700
E: 5840.138836 0003 0036 45
E: 5840.138836 0003 003b 0
E: 5840.138836 0003 0034 15
E: 5840.138836 0003 003a 22
E: 5840.138836 0003 0030 1590
E: 5840.138836 0003 0031 456
E: 5840.138836 0003 0000 700
E: 5840.138836 0003 0001 45
E: 5840.138836 0003 0018 22
E: 5840.138836 0000 0000 0
E: 5840.145418 0003 0035 891
E: 5840.145418 0003 0036 0
E: 5840.145418 0003 003a 38
E: 5840.145418 0003 0030 1930
E: 5840.145418 0003 0031 460
E: 5840.145418 0003 0000 891
E: 5840.145418 0003 0001 0
E: 5840.145418 0003 0018 38
E: 5840.145418 0000 0000 0
E: 5840.150815 0003 0035 889
E: 5840.150815 0003 0034 16
E: 5840.150815 0003 003a 43
E: 5840.150815 0003 0030 1925
E: 5840.150815 0003 0031 453
E: 5840.150815 0003 0000 889
E: 5840.150815 0003 0018 43
E: 5840.150815 0000 0000 0
E: 5840.152703 0003 0039 -1
E: 5840.152703 0003 002f 1
E: 5840.152703 0003 0039 2941
E: 5840.152703 0003 0035 466
E: 5840.152703 0003 0036 1094
E: 5840.152703 0003 0034 17
E: 5840.152703 0003 0030 923
E: 5840.152703 0003 0031 293
E: 5840.152703 0003 0000 466
E: 5840.152703 0003 0001 1094
E: 5840.152703 0003 0018 255
E: 5840.152703 0000 0000 0
E: 5840.169357 0003 002f 0
E: 5840.169357 0003 0039 2942
E: 5840.169357 0003 0035 0
E: 5840.169357 0003 0036 2266
E: 5840.169357 0003 0034 27
E: 5840.169357 0003 003a 31
E: 5840.169357 0003 0030 1018
E: 5840.169357 0003 0031 632
E: 5840.169357 0003 002f 1
E: 5840.169357 0003 0039 -1
E: 5840.169357 0003 0000 0
E: 5840.169357 0003 0001 2266
E: 5840.169357 0003 0018 31
E: 5840.169357 0000 0000 0
E: 5840.178032 0003 002f 0
E: 5840.178032 0003 0036 2259
E: 5840.178032 0003 0034 24
E: 5840.178032 0003 003a 32
E: 5840.178032 0003 0030 979
E: 5840.178032 0003 0031 594
E: 5840.178032 0003 002f 1
E: 5840.178032 0003 0039 2943
E: 5840.178032 0003 0035 755
E: 5840.178032 0003 0036 203
E: 5840.178032 0003 0034 5
E: 5840.178032 0003 003a 15
E: 5840.178032 0003 0030 598
E: 5840.178032 0003 0031 390
E: 5840.178032 0001 0145 0
E: 5840.178032 0001 014d 1
E: 5840.178032 0003 0001 2259
E: 5840.178032 0003 0018 32
E: 5840.178032 0000 0000 0
E: 5840.189025 0003 002f 0
E: 5840.189025 0003 0036 2262
E: 5840.189025 0003 0034 23
E: 5840.189025 0003 003a 33
E: 5840.189025 0003 0030 954
E: 5840.189025 0003 0031 570
E: 5840.189025 0003 002f 1
E: 5840.189025 0003 0035 784
E: 5840.189025 0003 0036 192
E: 5840.189025 0003 0034 10
E: 5840.189025 0003 003a 17
E: 5840.189025 0003 0030 640
E: 5840.189025 0003 0031 398
E: 5840.189025 0003 0001 2262
E: 5840.189025 0003 0018 33
E: 5840.189025 0000 0000 0
E: 5840.197134 0003 002f 0
E: 5840.197134 0003 0036 2326
E: 5840.197134 0003 0034 22
E: 5840.197134 0003 003a 35
E: 5840.197134 0003 0030 989
E: 5840.197134 0003 0031 533
E: 5840.197134 0003 002f 1
E: 5840.197134 0003 0035 839
E: 5840.197134 0003 0036 168
E: 5840.197134 0003 0034 16
E: 5840.197134 0003 003a 21
E: 5840.197134 0003 0030 692
E: 5840.197134 0003 0031 408
E: 5840.197134 0003 0001 2326
E: 5840.197134 0003 0018 35
E: 5840.197134 0000 0000 0
E: 5840.206988 0003 002f 0
E: 5840.206988 0003 0036 2339
E: 5840.206988 0003 0034 21
E: 5840.206988 0003 0030 984
E: 5840.206988 0003 0031 526
E: 5840.206988 0003 002f 1
E: 5840.206988 0003 0035 865
E: 5840.206988 0003 0036 145
E: 5840.206988 0003 0034 17
E: 5840.206988 0003 003a 22
E: 5840.206988 0003 0030 723
E: 5840.206988 0003 0031 410
E: 5840.206988 0003 0001 2339
E: 5840.206988 0000 0000 0
E: 5840.216759 0003 002f 0
E: 5840.216759 0003 0036 2429
E: 5840.216759 0003 0034 22
E: 5840.216759 0003 003a 37
E: 5840.216759 0003 0030 1055
E: 5840.216759 0003 0031 512
E: 5840.216759 0003 002f 1
E: 5840.216759 0003 0035 914
E: 5840.216759 0003 0036 120
E: 5840.216759 0003 0034 20
E: 5840.216759 0003 003a 24
E: 5840.216759 0003 0030 747
E: 5840.216759 0003 0031 409
E: 5840.216759 0003 0001 2429
E: 5840.216759 0003 0018 37
E: 5840.216759 0000 0000 0
E: 5840.224511 0003 002f 0
E: 5840.224511 0003 0036 2468
E: 5840.224511 0003 0034 21
E: 5840.224511 0003 003a 38
E: 5840.224511 0003 0030 1085
E: 5840.224511 0003 0031 506
E: 5840.224511 0003 002f 1
E: 5840.224511 0003 0035 942
E: 5840.224511 0003 0036 106
E: 5840.224511 0003 0034 21
E: 5840.224511 0003 0030 768
E: 5840.224511 0003 0031 410
E: 5840.224511 0003 0001 2468
E: 5840.224511 0003 0018 38
E: 5840.224511 0000 0000 0
E: 5840.235776 0003 002f 0
E: 5840.235776 0003 0036 2579
E: 5840.235776 0003 0034 22
E: 5840.235776 0003 003a 39
E: 5840.235776 0003 0030 1136
E: 5840.235776 0003 0031 491
E: 5840.235776 0003 002f 1
E: 5840.235776 0003 0035 988
E: 5840.235776 0003 0036 71
E: 5840.235776 0003 0034 22
E: 5840.235776 0003 003a 26
E: 5840.235776 0003 0030 826
E: 5840.235776 0003 0031 413
E: 5840.235776 0003 0001 2579
E: 5840.235776 0003 0018 39
E: 5840.235776 0000 0000 0
E: 5840.243632 0003 002f 0
E: 5840.243632 0003 0036 2626
E: 5840.243632 0003 0030 1152
E: 5840.243632 0003 0031 485
E: 5840.243632 0003 002f 1
E: 5840.243632 0003 0035 1014
E: 5840.243632 0003 0036 63
E: 5840.243632 0003 0034 23
E: 5840.243632 0003 003a 27
E: 5840.243632 0003 0030 859
E: 5840.243632 0003 0031 409
E: 5840.243632 0003 0001 2626
E: 5840.243632 0000 0000 0
E: 5840.252247 0003 002f 0
E: 5840.252247 0003 0036 2669
E: 5840.252247 0003 0030 1173
E: 5840.252247 0003 0031 479
E: 5840.252247 0003 002f 1
E: 5840.252247 0003 0035 1034
E: 5840.252247 0003 0036 56
E: 5840.252247 0003 0030 894
E: 5840.252247 0003 0031 411
E: 5840.252247 0003 0001 2669
E: 5840.252247 0000 0000 0
E: 5840.260948 0003 002f 0
E: 5840.260948 0003 0036 2790
E: 5840.260948 0003 0034 20
E: 5840.260948 0003 003a 37
E: 5840.260948 0003 0030 1200
E: 5840.260948 0003 0031 467
E: 5840.260948 0003 002f 1
E: 5840.260948 0003 0035 1052
E: 5840.260948 0003 0036 72
E: 5840.260948 0003 0030 954
E: 5840.260948 0003 0031 407
E: 5840.260948 0003 0001 2790
E: 5840.260948 0003 0018 37
E: 5840.260948 0000 0000 0
E: 5840.270108 0003 002f 0
E: 5840.270108 0003 0036 2852
E: 5840.270108 0003 0030 1204
E: 5840.270108 0003 0031 469
E: 5840.270108 0003 002f 1
E: 5840.270108 0003 0035 1055
E: 5840.270108 0003 0036 92
E: 5840.270108 0003 0030 980
E: 5840.270108 0003 0031 402
E: 5840.270108 0003 0001 2852
E: 5840.270108 0000 0000 0
E: 5840.279687 0003 002f 0
E: 5840.279687 0003 0036 2955
E: 5840.279687 0003 0034 19
E: 5840.279687 0003 003a 35
E: 5840.279687 0003 0030 1203
E: 5840.279687 0003 0031 466
E: 5840.279687 0003 002f 1
E: 5840.279687 0003 0035 1060
E: 5840.279687 0003 0036 113
E: 5840.279687 0003 0034 22
E: 5840.279687 0003 003a 26
E: 5840.279687 0003 0030 1015
E: 5840.279687 0003 0031 404
E: 5840.279687 0003 0001 2955
E: 5840.279687 0003 0018 35
E: 5840.279687 0000 0000 0
E: 5840.292096 0003 002f 0
E: 5840.292096 0003 0036 3238
E: 5840.292096 0003 0034 17
E: 5840.292096 0003 003a 36
E: 5840.292096 0003 0030 1071
E: 5840.292096 0003 0031 532
E: 5840.292096 0003 002f 1
E: 5840.292096 0003 0035 1050
E: 5840.292096 0003 0036 207
E: 5840.292096 0003 0034 21
E: 5840.292096 0003 0030 1182
E: 5840.292096 0003 0031 409
E: 5840.292096 0003 0001 3238
E: 5840.292096 0003 0018 36
E: 5840.292096 0000 0000 0
E: 5840.302470 0003 002f 0
E: 5840.302470 0003 0036 3359
E: 5840.302470 0003 003a 35
E: 5840.302470 0003 0030 1055
E: 5840.302470 0003 0031 538
E: 5840.302470 0003 002f 1
E: 5840.302470 0003 0035 1046
E: 5840.302470 0003 0036 279
E: 5840.302470 0003 003a 23
E: 5840.302470 0003 0030 1178
E: 5840.302470 0003 0031 424
E: 5840.302470 0003 0001 3359
E: 5840.302470 0003 0018 35
E: 5840.302470 0000 0000 0
E: 5840.309879 0003 002f 0
E: 5840.309879 0003 0036 3896
E: 5840.309879 0003 0034 21
E: 5840.309879 0003 003a 59
E: 5840.309879 0003 0030 3188
E: 5840.309879 0003 0031 435
E: 5840.309879 0003 002f 1
E: 5840.309879 0003 0039 -1
E: 5840.309879 0001 0145 1
E: 5840.309879 0001 014d 0
E: 5840.309879 0003 0001 3896
E: 5840.309879 0003 0018 59
E: 5840.309879 0000 0000 0
E: 5840.317331 0003 002f 0
E: 5840.317331 0003 0036 4627
E: 5840.317331 0003 0034 22
E: 5840.317331 0003 003a 63
E: 5840.317331 0003 0030 3087
E: 5840.317331 0003 0031 453
E: 5840.317331 0003 0001 4627
E: 5840.317331 0003 0018 63
E: 5840.317331 0000 0000 0
E: 5840.323622 0003 0036 4652
E: 5840.323622 0003 0034 23
E: 5840.323622 0003 003a 54
E: 5840.323622 0003 0030 2712
E: 5840.323622 0003 0031 459
E: 5840.323622 0003 0001 4652
E: 5840.323622 0003 0018 54
E: 5840.323622 0000 0000 0
E: 5840.327271 0003 0036 4653
E: 5840.327271 0003 0001 4653
E: 5840.327271 0000 0000 0
E: 5840.333213 0003 0036 4525
E: 5840.333213 0003 0034 27
E: 5840.333213 0003 003a 42
E: 5840.333213 0003 0030 1870
E: 5840.333213 0003 0031 491
E: 5840.333213 0003 0001 4525
E: 5840.333213 0003 0018 42
E: 5840.333213 0000 0000 0
E: 5840.339284 0003 0036 4159
E: 5840.339284 0003 0034 38
E: 5840.339284 0003 003a 36
E: 5840.339284 0003 0030 1242
E: 5840.339284 0003 0031 573
E: 5840.339284 0003 0001 4159
E: 5840.339284 0003 0018 36
E: 5840.339284 0000 0000 0
E: 5840.344139 0003 0036 4155
E: 5840.344139 0003 0034 39
E: 5840.344139 0003 003a 34
E: 5840.344139 0003 0030 1226
E: 5840.344139 0003 0031 598
E: 5840.344139 0003 0001 4155
E: 5840.344139 0003 0018 34
E: 5840.344139 0000 0000 0
E: 5840.345992 0003 0039 -1
E: 5840.345992 0001 014a 0
E: 5840.345992 0001 0145 0
E: 5840.345992 0003 0018 0
E: 5840.345992 0000 0000 0
E: 5840.346492 0003 002f 0
E: 5840.346492 0003 0039 -1
E: 5840.346492 0003 002f 1
E: 5840.346492 0003 0039 -1
E: 5840.346492 0003 002f 2
E: 5840.346492 0003 0039 -1
E: 5840.346492 0003 002f 3
E: 5840.346492 0003 0039 -1
E: 5840.346492 0003 002f 4
E: 5840.346492 0003 0039 -1
E: 5840.346492 0003 002f 5
E: 5840.346492 0003 0039 -1
E: 5840.346492 0003 002f 6
E: 5840.346492 0003 0039 -1
E: 5840.346492 0003 002f 7
E: 5840.346492 0003 0039 -1
E: 5840.346492 0003 002f 8
E: 5840.346492 0003 0039 -1
E: 5840.346492 0003 002f 9
E: 5840.346492 0003 0039 -1
